﻿<?xml version="1.0"?>
<!-- Generator: Adobe Illustrator 10.0, SVG Export Plug-In . SVG Version: 3.0.0 Build 77)  -->
<!DOCTYPE svg PUBLIC "-//W3C//DTD SVG 1.0//EN" "http://www.w3.org/TR/2001/REC-SVG-20010904/DTD/svg10.dtd"[
	<!ENTITY ns_flows "http://ns.adobe.com/Flows/1.0/">
	<!ENTITY ns_svg "http://www.w3.org/2000/svg">
	<!ENTITY ns_xlink "http://www.w3.org/1999/xlink">
	<!ENTITY st0 "fill:none;stroke:#000000;stroke-linecap:round;stroke-linejoin:round;">
	<!ENTITY st1 "fill:none;stroke:#000000;stroke-width:0.6;stroke-linecap:round;stroke-linejoin:round;">
	<!ENTITY st2 "font-size:6px;">
	<!ENTITY st3 "font-family:'Arial';">
	<!ATTLIST svg
		ewd:ver CDATA #IMPLIED
		xmlns:ewd CDATA #FIXED "http://shcl.co.jp/ewd"
		xmlns:a CDATA #FIXED "http://ns.adobe.com/AdobeSVGViewerExtensions/3.0/">
	<!ATTLIST g
		ewd:pinNo CDATA #IMPLIED>
]>
<svg width="43.493" height="54.825" viewBox="0 0 43.493 54.825" style="overflow:visible;enable-background:new 0 0 43.493 54.825" xml:space="preserve" onload="call_execInitLoadProc_svg('connector')" ewd:ver="L2.1.2.8" xmlns="&ns_svg;" xmlns:ewd="http://shcl.co.jp/ewd" xmlns:a="http://ns.adobe.com/AdobeSVGViewerExtensions/3.0/" xmlns:xlink="&ns_xlink;">
<script type="text/javascript" xlink:href="../../../../../system/js/ewd/fig/svgfig.js"/>
<g id="レイヤー_1">
	<path style="&st0;" d="M4.749,52.908c0,0.782,0.634,1.417,1.417,1.417"/>
	<path style="&st0;" d="M37.327,54.325c0.782,0,1.417-0.634,1.417-1.417"/>
	<path style="&st1;" d="M37.327,17.498h2.833"/>
	<path style="&st0;" d="M40.16,17.498h2.833v32.578H40.16v-1.417h-1.417v4.25"/>
	<path style="&st1;" d="M10.415,31.803H7.582v3.966h2.833"/>
	<path style="&st1;" d="M10.415,41.718H7.582v3.966h2.833"/>
	<path style="&st1;" d="M30.245,6.166l2.833,1.417"/>
	<path style="&st1;" d="M8.999,31.803v-5.949"/>
	<path style="&st1;" d="M8.999,41.718V35.77"/>
	<path style="&st1;" d="M33.078,18.914h1.417v2.974"/>
	<path style="&st1;" d="M34.494,25.854v5.949"/>
	<path style="&st1;" d="M20.33,18.914h2.833"/>
	<path style="&st1;" d="M33.078,31.803h2.833v3.966h-2.833"/>
	<path style="&st1;" d="M33.078,41.718h2.833v3.966h-2.833"/>
	<path style="&st1;" d="M33.078,21.888h2.833v3.966h-2.833"/>
	<path style="&st1;" d="M34.494,35.77v5.949"/>
	<path style="&st1;" d="M20.33,47.242h2.833"/>
	<path style="&st1;" d="M10.415,18.914v29.745h9.915V18.914H10.415"/>
	<path style="&st1;" d="M23.163,18.914v29.745h9.915V18.914H23.163"/>
	<path style="&st1;" d="M10.415,28.829h9.915"/>
	<path style="&st1;" d="M10.415,38.744h9.915"/>
	<path style="&st1;" d="M23.163,28.829h9.915"/>
	<path style="&st1;" d="M23.163,38.744h9.915"/>
	<path style="&st1;" d="M10.415,7.583l2.833-1.417"/>
	<path style="&st0;" d="M8.999,17.498h1.417"/>
	<path style="&st1;" d="M8.999,18.914l-1.417-1.417H6.166v32.578h31.162V17.498h-1.417l-1.417,1.417"/>
	<path style="&st1;" d="M34.494,45.685v1.558h-1.417"/>
	<path style="&st1;" d="M37.327,48.659h1.417"/>
	<path style="&st1;" d="M40.16,48.659h1.417"/>
	<path style="&st1;" d="M8.999,21.888v-2.974h1.417"/>
	<path style="&st1;" d="M10.415,21.888H7.582v3.966h2.833"/>
	<path style="&st1;" d="M10.415,47.242H8.999v-1.558"/>
	<path style="&st1;" d="M30.245,11.832h2.833"/>
	<path style="&st0;" d="M3.333,17.498H0.5v32.578h2.833v-1.417h1.417v4.25"/>
	<path style="&st1;" d="M7.582,17.498h1.417"/>
	<path style="&st1;" d="M10.415,17.498h2.833"/>
	<path style="&st1;" d="M30.245,17.498h2.833"/>
	<path style="&st1;" d="M6.166,17.498H3.333"/>
	<path style="&st1;" d="M10.415,11.832h2.833"/>
	<path style="&st1;" d="M13.248,18.914V6.166h16.997v12.748"/>
	<path style="&st1;" d="M13.248,11.832h16.997"/>
	<path style="&st1;" d="M41.577,20.33h-4.25"/>
	<path style="&st0;" d="M34.494,17.498V0.5h5.666v16.998"/>
	<path style="&st0;" d="M3.333,17.498V0.5h5.666v16.998"/>
	<path style="&st1;" d="M42.993,31.662h-5.666"/>
	<path style="&st1;" d="M34.494,17.498h1.417"/>
	<path style="&st1;" d="M42.993,37.327h-5.666"/>
	<path style="&st1;" d="M41.577,42.993h-4.25"/>
	<path style="&st1;" d="M41.577,25.996h-4.25"/>
	<path style="&st1;" d="M1.916,20.33h4.25"/>
	<path style="&st1;" d="M4.749,48.659h1.417"/>
	<path style="&st1;" d="M1.916,25.996h4.25"/>
	<path style="&st0;" d="M33.078,17.498h1.417"/>
	<path style="&st1;" d="M1.916,48.659h1.417"/>
	<path style="&st0;" d="M6.166,54.325h31.162"/>
	<path style="&st1;" d="M1.916,50.075V17.498"/>
	<path style="&st1;" d="M1.916,42.993h4.25"/>
	<path style="&st1;" d="M0.5,37.327h5.666"/>
	<path style="&st1;" d="M41.577,17.498v32.578"/>
	<path style="&st1;" d="M0.5,31.662h5.666"/>
	<path style="&st0;" d="M10.415,17.498V0.5h4.816v1.417h13.031V0.5h4.816v16.998"/>
	<path style="&st1;" d="M15.231,6.166v-4.25"/>
	<path style="&st1;" d="M28.262,6.166v-4.25"/>
	<g ewd:pinNo="2">
		<text transform="matrix(1 0 0 1 26.4995 26.0435)"><tspan x="0" y="0" style="&st3; &st2;">2</tspan></text>
	</g>
	<g ewd:pinNo="1">
		<text transform="matrix(1 0 0 1 13.7515 26.0435)"><tspan x="0" y="0" style="&st3; &st2;">1</tspan></text>
	</g>
	<g ewd:pinNo="4">
		<text transform="matrix(1 0 0 1 26.4995 35.958)"><tspan x="0" y="0" style="&st3; &st2;">4</tspan></text>
	</g>
	<g ewd:pinNo="3">
		<text transform="matrix(1 0 0 1 13.7515 35.958)"><tspan x="0" y="0" style="&st3; &st2;">3</tspan></text>
	</g>
	<g ewd:pinNo="6">
		<text transform="matrix(1 0 0 1 26.4995 45.873)"><tspan x="0" y="0" style="&st3; &st2;">6</tspan></text>
	</g>
	<g ewd:pinNo="5">
		<text transform="matrix(1 0 0 1 13.7515 45.873)"><tspan x="0" y="0" style="&st3; &st2;">5</tspan></text>
	</g>
</g>
</svg>