﻿<?xml version="1.0" encoding="utf-8"?>
<!DOCTYPE svg PUBLIC "-//W3C//DTD SVG 1.0//EN" "http://www.w3.org/TR/2001/REC-SVG-20010904/DTD/svg10.dtd"[
	<!ENTITY ns_flows "http://ns.adobe.com/Flows/1.0/">
	<!ENTITY ns_svg "http://www.w3.org/2000/svg">
	<!ENTITY ns_xlink "http://www.w3.org/1999/xlink">
	<!ENTITY st0 "font-size:7px;font-family:'MS-PGothic';adobe-font-script:japanese;">
	<!ENTITY st1 "font-size:6px;font-family:'ArialMT';">
	<!-- White fill  -->
	<!ENTITY st2 "fill:#FFFFFF;stroke:#000000; stroke-width:1.41;stroke-linecap:round;stroke-linejoin:round;">
	<!-- Yellow fill  -->
	<!ENTITY st3 "fill:#FFFFCC;stroke:#FFFFCC; stroke-width:0.1;stroke-linecap:round;stroke-linejoin:round;">
	<!-- Gray fill  -->
	<!ENTITY st4 "fill:#CCCCCC;stroke:#CCCCCC; stroke-width:0.1;stroke-linecap:round;stroke-linejoin:round;">
	<!-- Light-blue fill -->
	<!ENTITY st5 "fill:#CCECF4;stroke:#000000; stroke-width:1.133;stroke-linecap:round;stroke-linejoin:round;">
	<!ENTITY st6 "fill:none;stroke-linecap:butt; stroke-linejoin:round;">
	<!ENTITY st7 "fill:none;stroke:#000000;stroke-linecap:round;stroke-linejoin:round;">
	<!ENTITY st8 "enable-background:new    ;">
	<!-- Black fill -->
	<!ENTITY st9 "fill:#000000;stroke:#000000; stroke-linecap:round;stroke-linejoin:round;">
	<!-- SRS note   -->
	<!ENTITY st10 "font-size:9px;font-family:'ArialMT';">
	<!ENTITY st11 "font-size:9px;font-family:'Svg Symbol';">
	<!ENTITY st12 "font-size:6px;font-family:'Svg Symbol';">
	<!ENTITY st13 "fill:none;stroke:#ff0000;stroke-linecap:round;stroke-linejoin:round;">
	<!-- Yellow fill  -->
	<!ENTITY st14 "fill:#FFFF00;stroke:#FFFF00; stroke-width:0.1;stroke-linecap:round;stroke-linejoin:round;">
	<!ENTITY st15 "font-size:6px;font-family:'MS-PGothic';adobe-font-script:japanese;">
	<!ENTITY st16 "1.00 0.00 0.00 1.00">
	<!ENTITY st17 "0.00 -1.00 1.00 0.00">
	<!ENTITY st18 "font-size:6px;font-family:'Arial';">
	<!ENTITY st19 "font-size:9px;font-family:'Arial';">
	<!ENTITY st20 "font-size:6px;font-family:'MS-PGothic','MS PGothic';adobe-font-script:japanese;">
	<!ENTITY st21 "font-size:7px;font-family:'MS-PGothic','MS PGothic';adobe-font-script:japanese;">
	<!ATTLIST svg
		xmlns:ewd CDATA #FIXED "http://shcl.co.jp/ewd"
		xmlns:a CDATA #FIXED "http://ns.adobe.com/AdobeSVGViewerExtensions/3.0/"
		ewd:ver CDATA #IMPLIED
	>
	<!ATTLIST a
		ewd:lineID CDATA #IMPLIED
		ewd:groupID CDATA #IMPLIED
		ewd:figtype CDATA #IMPLIED
		ewd:code CDATA #IMPLIED
		ewd:figID CDATA #IMPLIED
		ewd:pinNo CDATA #IMPLIED
		ewd:comment CDATA #IMPLIED >
	<!ATTLIST g
		ewd:lineID CDATA #IMPLIED
		ewd:groupID CDATA #IMPLIED
		ewd:figtype CDATA #IMPLIED
		ewd:code CDATA #IMPLIED
		ewd:figID CDATA #IMPLIED
		ewd:pinNo CDATA #IMPLIED
		ewd:comment CDATA #IMPLIED >
	<!ATTLIST text
		ewd:textID CDATA #IMPLIED >
	<!ATTLIST title
		ewd:textID CDATA #IMPLIED >
]>
<!-- Generator: Shintec Hozumi YS   -->
<svg onload="call_execInitLoadProc_svg('system')" style="overflow:visible;  enable-background:new 0 0 6649.750 710.000" viewBox="0 0 6649.750 710.000" height="710.000" width="6649.750" xml:space="preserve" ewd:ver="L2.1.2.8" xmlns="&ns_svg;" xmlns:a="http://ns.adobe.com/AdobeSVGViewerExtensions/3.0/" xmlns:ewd="http://shcl.co.jp/ewd" xmlns:xlink="&ns_xlink;">
<path d=" M 2381.73,  316.23  L 2377.48,  316.23 " style="stroke-width: 1.42 ;&st7; " /><path d=" M 2456.09,  317.65  L 2461.76,  294.99 " style="stroke-width: 1.42 ;&st7; " /><path d=" M 2328.61,  375.72  L 2328.61,  384.22 " style="stroke-width: 0.85 ;&st7; " /><path d=" M 2354.11,  377.14  L 2359.77,  354.48 " style="stroke-width: 1.42 ;&st7; " /><path d=" M 2381.73,  324.73  L 2377.48,  324.73 " style="stroke-width: 1.42 ;&st7; " /><path d=" M 2356.23,  409.72  L 2351.98,  409.72 " style="stroke-width: 1.42 ;&st7; " /><path d=" M 2458.21,  222.75  L 2453.96,  222.75 " style="stroke-width: 1.42 ;&st7; " /><path d=" M 2456.09,  294.99  L 2456.09,  290.74 " style="stroke-width: 0.85 ;&st7; " /><path d=" M 2456.09,  171.76  L 2456.09,  214.25 " style="stroke-width: 0.85 ;&st7; " /><path d=" M 2456.09,  324.73  L 2456.09,  320.48 " style="stroke-width: 0.85 ;&st7; " /><path d=" M 2330.74,  324.73  L 2326.49,  324.73 " style="stroke-width: 1.42 ;&st7; " /><path d=" M 2330.74,  316.23  L 2326.49,  316.23 " style="stroke-width: 1.42 ;&st7; " /><path d=" M 2330.74,  222.75  L 2326.49,  222.75 " style="stroke-width: 1.42 ;&st7; " /><path d=" M 2330.74,  214.25  L 2326.49,  214.25 " style="stroke-width: 1.42 ;&st7; " /><path d=" M 2356.23,  222.75  L 2351.98,  222.75 " style="stroke-width: 1.42 ;&st7; " /><path d=" M 2458.21,  214.25  L 2453.96,  214.25 " style="stroke-width: 1.42 ;&st7; " /><path d=" M 2328.61,  350.23  L 2328.61,  358.73 " style="stroke-width: 0.85 ;&st7; " /><path d=" M 2337.11,  270.21  L 2332.14,  265.24 " style="stroke-width: 1.42 ;&st7; " /><path d=" M 2328.61,  171.76  L 2328.61,  214.25 " style="stroke-width: 0.85 ;&st7; " /><path d=" M 2330.74,  409.72  L 2326.49,  409.72 " style="stroke-width: 1.42 ;&st7; " /><path d=" M 2330.74,  418.22  L 2326.49,  418.22 " style="stroke-width: 1.42 ;&st7; " /><path d=" M 2356.23,  324.73  L 2351.98,  324.73 " style="stroke-width: 1.42 ;&st7; " /><path d=" M 2356.23,  316.23  L 2351.98,  316.23 " style="stroke-width: 1.42 ;&st7; " /><path d=" M 2362.61,  367.22  L 2359.77,  367.22 " style="stroke-width: 0.85 ;&st7; " /><path d=" M 2354.11,  379.97  L 2354.11,  384.22 " style="stroke-width: 0.85 ;&st7; " /><path d=" M 2354.11,  350.23  L 2354.11,  354.48 " style="stroke-width: 0.85 ;&st7; " /><path d=" M 2356.23,  214.25  L 2351.98,  214.25 " style="stroke-width: 1.42 ;&st7; " /><path d=" M 2320.11,  277.27  L 2325.08,  282.24 " style="stroke-width: 1.42 ;&st7; " /><path d=" M 2356.23,  418.22  L 2351.98,  418.22 " style="stroke-width: 1.42 ;&st7; " /><path d=" M 2332.14,  282.24  L 2337.11,  277.27 " style="stroke-width: 1.42 ;&st7; " /><path d=" M 2325.08,  265.24  L 2320.11,  270.21 " style="stroke-width: 1.42 ;&st7; " /><path d=" M 2107.65,  453.63  L 2113.31,  430.96 " style="stroke-width: 1.42 ;&st7; " /><path d=" M 2107.65,  430.96  L 2107.65,  426.71 " style="stroke-width: 0.85 ;&st7; " /><path d=" M 2107.65,  460.71  L 2107.65,  456.46 " style="stroke-width: 0.85 ;&st7; " /><path d=" M 2109.77,  324.73  L 2105.52,  324.73 " style="stroke-width: 1.42 ;&st7; " /><path d=" M 2109.77,  333.23  L 2105.52,  333.23 " style="stroke-width: 1.42 ;&st7; " /><path d=" M 2109.77,  367.22  L 2105.52,  367.22 " style="stroke-width: 1.42 ;&st7; " /><path d=" M 2109.77,  375.72  L 2105.52,  375.72 " style="stroke-width: 1.42 ;&st7; " /><path d=" M 2175.64,  333.23  L 2167.14,  333.23 " style="stroke-width: 1.42 ;&st7; " /><path d=" M 2167.14,  453.63  L 2172.80,  430.96 " style="stroke-width: 1.42 ;&st7; " /><path d=" M 2167.14,  430.96  L 2167.14,  426.71 " style="stroke-width: 0.85 ;&st7; " /><path d=" M 2167.14,  460.71  L 2167.14,  456.46 " style="stroke-width: 0.85 ;&st7; " /><path d=" M 2175.64,  253.22  L 2170.66,  248.24 " style="stroke-width: 1.42 ;&st7; " /><path d=" M 2158.64,  260.27  L 2163.61,  265.24 " style="stroke-width: 1.42 ;&st7; " /><path d=" M 2170.66,  265.24  L 2175.64,  260.27 " style="stroke-width: 1.42 ;&st7; " /><path d=" M 2163.61,  248.24  L 2158.64,  253.22 " style="stroke-width: 1.42 ;&st7; " /><path d=" M 2158.64,  180.26  L 2167.14,  180.26 " style="stroke-width: 1.42 ;&st7; " /><path d=" M 2354.11,  209.35  L 2351.27,  206.52  L 2351.27,  210.77  L 2354.11,  213.60  L 2356.94,  210.77  L 2356.94,  206.52  L 2354.11,  209.35 " style="stroke-width: 0.28 ;&st9;" /><path d=" M 2454.90,  196.25  L 2454.62,  196.72  L 2454.53,  197.25  L 2454.62,  197.79  L 2454.90,  198.26  L 2455.31,  198.60  L 2455.82,  198.79  L 2456.36,  198.79  L 2456.87,  198.60  L 2457.28,  198.26  L 2457.55,  197.79  L 2457.65,  197.25  L 2457.55,  196.72  L 2457.28,  196.25  L 2456.87,  195.90  L 2456.36,  195.72  L 2455.82,  195.72  L 2455.31,  195.90  L 2454.90,  196.25  L 2455.29,  196.96  L 2455.29,  197.54  L 2455.66,  197.99  L 2456.24,  198.09  L 2456.74,  197.80  L 2456.94,  197.25  L 2456.74,  196.71  L 2456.24,  196.42  L 2455.66,  196.52  L 2456.09,  197.25 " style="stroke-width: 0.85 ;&st7; " /><path d=" M 2456.09,  197.25  L 2354.11,  197.25  L 2354.11,  214.25 " style="stroke-width: 0.85 ;&st7; " /><path d=" M 2362.60,  350.23  L 2320.11,  350.23  L 2320.11,  384.22  L 2362.60,  384.22  L 2362.60,  350.23 " style="stroke-width: 1.42 ;&st7; " /><path d=" M 2354.11,  329.63  L 2356.94,  332.46  L 2356.94,  328.21  L 2354.11,  325.38  L 2351.27,  328.21  L 2351.27,  332.46  L 2354.11,  329.63 " style="stroke-width: 0.28 ;&st9;" /><path d=" M 2354.11,  324.73  L 2354.11,  350.23 " style="stroke-width: 0.85 ;&st7; " /><path d=" M 2354.11,  404.82  L 2351.27,  401.99  L 2351.27,  406.24  L 2354.11,  409.07  L 2356.94,  406.24  L 2356.94,  401.99  L 2354.11,  404.82 " style="stroke-width: 0.28 ;&st9;" /><path d=" M 2362.60,  367.22  L 2379.60,  367.22  L 2379.60,  324.73 " style="stroke-width: 0.85 ;&st7; " /><path d=" M 2354.11,  384.22  L 2354.11,  409.72 " style="stroke-width: 0.85 ;&st7; " /><path d=" M 2328.61,  324.73  L 2328.61,  350.23 " style="stroke-width: 0.85 ;&st7; " /><path d=" M 2328.61,  384.22  L 2328.61,  409.72 " style="stroke-width: 0.85 ;&st7; " /><path d=" M 2443.34,  137.76  L 2443.34,  180.26  L 2468.84,  180.26  L 2468.84,  137.76  L 2443.34,  137.76 " style="stroke-width: 1.42 ;&st7; " /><path d=" M 2456.09,  209.35  L 2453.26,  206.52  L 2453.26,  210.77  L 2456.09,  213.60  L 2458.92,  210.77  L 2458.92,  206.52  L 2456.09,  209.35 " style="stroke-width: 0.28 ;&st9;" /><path d=" M 2464.59,  324.73  L 2464.59,  290.74  L 2447.59,  290.74  L 2447.59,  324.73  L 2464.59,  324.73 " style="stroke-width: 1.42 ;&st7; " /><path d=" M 2515.58,  392.72  L 2515.58,  401.22  L 2413.60,  401.22  L 2413.60,  392.72 " style="stroke-width: 0.85 ;&st7; " /><path d=" M 2456.09,  392.72  L 2456.09,  401.22 " style="stroke-width: 0.85 ;&st7; " /><path d=" M 2454.90,  400.22  L 2454.62,  400.69  L 2454.53,  401.22  L 2454.62,  401.75  L 2454.90,  402.22  L 2455.31,  402.57  L 2455.82,  402.75  L 2456.36,  402.75  L 2456.87,  402.57  L 2457.28,  402.22  L 2457.55,  401.75  L 2457.65,  401.22  L 2457.55,  400.69  L 2457.28,  400.22  L 2456.87,  399.87  L 2456.36,  399.68  L 2455.82,  399.68  L 2455.31,  399.87  L 2454.90,  400.22  L 2455.29,  400.93  L 2455.29,  401.51  L 2455.66,  401.95  L 2456.24,  402.05  L 2456.74,  401.77  L 2456.94,  401.22  L 2456.74,  400.67  L 2456.24,  400.38  L 2455.66,  400.48  L 2456.09,  401.22 " style="stroke-width: 0.85 ;&st7; " /><path d=" M 2454.90,  400.22  L 2454.62,  400.69  L 2454.53,  401.22  L 2454.62,  401.75  L 2454.90,  402.22  L 2455.31,  402.57  L 2455.82,  402.75  L 2456.36,  402.75  L 2456.87,  402.57  L 2457.28,  402.22  L 2457.55,  401.75  L 2457.65,  401.22  L 2457.55,  400.69  L 2457.28,  400.22  L 2456.87,  399.87  L 2456.36,  399.68  L 2455.82,  399.68  L 2455.31,  399.87  L 2454.90,  400.22  L 2455.29,  400.93  L 2455.29,  401.51  L 2455.66,  401.95  L 2456.24,  402.05  L 2456.74,  401.77  L 2456.94,  401.22  L 2456.74,  400.67  L 2456.24,  400.38  L 2455.66,  400.48  L 2456.09,  401.22 " style="stroke-width: 0.85 ;&st7; " /><path d=" M 2405.10,  392.72  L 2405.10,  409.72  L 2524.08,  409.72  L 2524.08,  392.72  L 2405.10,  392.72 " style="stroke-width: 1.42 ;&st7; " /><path d=" M 2379.60,  329.63  L 2382.43,  332.46  L 2382.43,  328.21  L 2379.60,  325.38  L 2376.77,  328.21  L 2376.77,  332.46  L 2379.60,  329.63 " style="stroke-width: 0.28 ;&st9;" /><path d=" M 2328.61,  384.22  L 2328.61,  409.72 " style="stroke-width: 0.85 ;&st7; " /><path d=" M 2328.61,  404.82  L 2325.78,  401.99  L 2325.78,  406.24  L 2328.61,  409.07  L 2331.44,  406.24  L 2331.44,  401.99  L 2328.61,  404.82 " style="stroke-width: 0.28 ;&st9;" /><path d=" M 2315.86,  137.76  L 2315.86,  180.26  L 2341.36,  180.26  L 2341.36,  137.76  L 2315.86,  137.76 " style="stroke-width: 1.42 ;&st7; " /><path d=" M 2328.61,  209.35  L 2325.78,  206.52  L 2325.78,  210.77  L 2328.61,  213.60  L 2331.44,  210.77  L 2331.44,  206.52  L 2328.61,  209.35 " style="stroke-width: 0.28 ;&st9;" /><path d=" M 2328.61,  329.63  L 2331.44,  332.46  L 2331.44,  328.21  L 2328.61,  325.38  L 2325.78,  328.21  L 2325.78,  332.46  L 2328.61,  329.63 " style="stroke-width: 0.28 ;&st9;" /><path d=" M 2106.23,  477.71  L 2109.06,  477.71 " style="stroke-width: 0.85 ;&st7; " /><path d=" M 2104.81,  474.87  L 2110.48,  474.87 " style="stroke-width: 0.85 ;&st7; " /><path d=" M 2103.40,  472.04  L 2111.90,  472.04 " style="stroke-width: 0.85 ;&st7; " /><path d=" M 2099.15,  469.21  L 2116.15,  469.21 " style="stroke-width: 0.85 ;&st7; " /><path d=" M 2107.65,  460.71  L 2107.65,  469.21 " style="stroke-width: 0.85 ;&st7; " /><path d=" M 2116.15,  460.71  L 2116.15,  426.71  L 2099.15,  426.71  L 2099.15,  460.71  L 2116.15,  460.71 " style="stroke-width: 1.42 ;&st7; " /><path d=" M 2107.65,  338.12  L 2110.48,  340.96  L 2110.48,  336.71  L 2107.65,  333.88  L 2104.81,  336.71  L 2104.81,  340.96  L 2107.65,  338.12 " style="stroke-width: 0.28 ;&st9;" /><path d=" M 2107.65,  362.33  L 2104.81,  359.50  L 2104.81,  363.75  L 2107.65,  366.58  L 2110.48,  363.75  L 2110.48,  359.50  L 2107.65,  362.33 " style="stroke-width: 0.28 ;&st9;" /><path d=" M 2107.65,  367.22  L 2107.65,  333.23 " style="stroke-width: 0.85 ;&st7; " /><path d=" M 2171.39,  342.29  L 2167.14,  338.05  L 2162.89,  342.29 " style="stroke-width: 1.42 ;&st7; " /><path d=" M 2171.39,  338.90  L 2167.14,  334.65  L 2162.89,  338.90 " style="stroke-width: 1.42 ;&st7; " /><path d=" M 2165.72,  477.71  L 2168.55,  477.71 " style="stroke-width: 0.85 ;&st7; " /><path d=" M 2164.30,  474.87  L 2169.97,  474.87 " style="stroke-width: 0.85 ;&st7; " /><path d=" M 2162.89,  472.04  L 2171.39,  472.04 " style="stroke-width: 0.85 ;&st7; " /><path d=" M 2158.64,  469.21  L 2175.64,  469.21 " style="stroke-width: 0.85 ;&st7; " /><path d=" M 2167.14,  460.71  L 2167.14,  469.21 " style="stroke-width: 0.85 ;&st7; " /><path d=" M 2175.64,  460.71  L 2175.64,  426.71  L 2158.64,  426.71  L 2158.64,  460.71  L 2175.64,  460.71 " style="stroke-width: 1.42 ;&st7; " /><path d=" M 2162.89,  171.19  L 2167.14,  175.44  L 2171.39,  171.19 " style="stroke-width: 1.42 ;&st7; " /><path d=" M 2171.39,  174.59  L 2167.14,  178.84  L 2162.89,  174.59 " style="stroke-width: 1.42 ;&st7; " /><path d=" M 2192.63,  248.24  L 2209.63,  248.24  L 2209.63,  265.24  L 2192.63,  265.24  L 2192.63,  248.24 " style="stroke-width: 1.42 ;&st7; " /><path d=" M 2201.13,  248.24  L 2201.13,  265.24 " style="stroke-width: 0.85 ;&st7; " /><path d=" M 2356.23,  418.22  C 2358.58   418.22  2360.48   416.31  2360.48   413.97 " style="stroke-width: 1.42 ;&st7; " /><path d=" M 2360.48,  413.97  C 2360.48   411.62  2358.58   409.72  2356.23   409.72 " style="stroke-width: 1.42 ;&st7; " /><path d=" M 2462.46,  218.50  C 2462.46   216.15  2460.56   214.25  2458.21   214.25 " style="stroke-width: 1.42 ;&st7; " /><path d=" M 2458.21,  222.75  C 2460.56   222.75  2462.46   220.85  2462.46   218.50 " style="stroke-width: 1.42 ;&st7; " /><path d=" M 2449.72,  218.50  C 2449.72   220.85  2451.62   222.75  2453.96   222.75 " style="stroke-width: 1.42 ;&st7; " /><path d=" M 2453.96,  214.25  C 2451.62   214.25  2449.72   216.15  2449.72   218.50 " style="stroke-width: 1.42 ;&st7; " /><path d=" M 2457.51,  170.34  C 2457.51   169.56  2456.87   168.92  2456.09   168.92 " style="stroke-width: 0.85 ;&st7; " /><path d=" M 2456.09,  168.92  C 2455.31   168.92  2454.67   169.56  2454.67   170.34 " style="stroke-width: 0.85 ;&st7; " /><path d=" M 2454.67,  170.34  C 2454.67   171.12  2455.31   171.76  2456.09   171.76 " style="stroke-width: 0.85 ;&st7; " /><path d=" M 2456.09,  171.76  C 2456.87   171.76  2457.51   171.12  2457.51   170.34 " style="stroke-width: 0.85 ;&st7; " /><path d=" M 2457.51,  147.68  C 2457.51   146.90  2456.87   146.26  2456.09   146.26 " style="stroke-width: 0.85 ;&st7; " /><path d=" M 2456.09,  146.26  C 2455.31   146.26  2454.67   146.90  2454.67   147.68 " style="stroke-width: 0.85 ;&st7; " /><path d=" M 2454.67,  147.68  C 2454.67   148.46  2455.31   149.09  2456.09   149.09 " style="stroke-width: 0.85 ;&st7; " /><path d=" M 2456.09,  149.09  C 2456.87   149.09  2457.51   148.46  2457.51   147.68 " style="stroke-width: 0.85 ;&st7; " /><path d=" M 2456.09,  168.92  C 2458.83   167.31  2459.74   163.78  2458.13   161.05 " style="stroke-width: 1.42 ;&st7; " /><path d=" M 2458.13,  161.05  C 2457.61   160.16  2456.97   159.53  2456.09   159.01 " style="stroke-width: 1.42 ;&st7; " /><path d=" M 2456.09,  149.09  C 2453.35   150.71  2452.44   154.23  2454.05   156.97 " style="stroke-width: 1.42 ;&st7; " /><path d=" M 2454.05,  156.97  C 2454.57   157.85  2455.21   158.49  2456.09   159.01 " style="stroke-width: 1.42 ;&st7; " /><path d=" M 2457.51,  319.07  C 2457.51   318.28  2456.87   317.65  2456.09   317.65 " style="stroke-width: 0.85 ;&st7; " /><path d=" M 2456.09,  317.65  C 2455.31   317.65  2454.67   318.28  2454.67   319.07 " style="stroke-width: 0.85 ;&st7; " /><path d=" M 2454.67,  319.07  C 2454.67   319.85  2455.31   320.48  2456.09   320.48 " style="stroke-width: 0.85 ;&st7; " /><path d=" M 2456.09,  320.48  C 2456.87   320.48  2457.51   319.85  2457.51   319.07 " style="stroke-width: 0.85 ;&st7; " /><path d=" M 2457.51,  296.40  C 2457.51   295.62  2456.87   294.99  2456.09   294.99 " style="stroke-width: 0.85 ;&st7; " /><path d=" M 2456.09,  294.99  C 2455.31   294.99  2454.67   295.62  2454.67   296.40 " style="stroke-width: 0.85 ;&st7; " /><path d=" M 2454.67,  296.40  C 2454.67   297.18  2455.31   297.82  2456.09   297.82 " style="stroke-width: 0.85 ;&st7; " /><path d=" M 2456.09,  297.82  C 2456.87   297.82  2457.51   297.18  2457.51   296.40 " style="stroke-width: 0.85 ;&st7; " /><path d=" M 2460.62,  388.19  C 2460.62   385.68  2458.59   383.65  2456.09   383.65 " style="stroke-width: 1.42 ;&st7; " /><path d=" M 2456.09,  383.65  C 2453.59   383.65  2451.56   385.68  2451.56   388.19 " style="stroke-width: 1.42 ;&st7; " /><path d=" M 2451.56,  388.19  C 2451.56   390.69  2453.59   392.72  2456.09   392.72 " style="stroke-width: 1.42 ;&st7; " /><path d=" M 2456.09,  392.72  C 2458.59   392.72  2460.62   390.69  2460.62   388.19 " style="stroke-width: 1.42 ;&st7; " /><path d=" M 2418.13,  388.19  C 2418.13   385.68  2416.10   383.65  2413.60   383.65 " style="stroke-width: 1.42 ;&st7; " /><path d=" M 2413.60,  383.65  C 2411.09   383.65  2409.06   385.68  2409.06   388.19 " style="stroke-width: 1.42 ;&st7; " /><path d=" M 2409.06,  388.19  C 2409.06   390.69  2411.09   392.72  2413.60   392.72 " style="stroke-width: 1.42 ;&st7; " /><path d=" M 2413.60,  392.72  C 2416.10   392.72  2418.13   390.69  2418.13   388.19 " style="stroke-width: 1.42 ;&st7; " /><path d=" M 2385.98,  320.48  C 2385.98   318.13  2384.07   316.23  2381.73   316.23 " style="stroke-width: 1.42 ;&st7; " /><path d=" M 2381.73,  324.73  C 2384.07   324.73  2385.98   322.83  2385.98   320.48 " style="stroke-width: 1.42 ;&st7; " /><path d=" M 2373.23,  320.48  C 2373.23   322.83  2375.13   324.73  2377.48   324.73 " style="stroke-width: 1.42 ;&st7; " /><path d=" M 2377.48,  316.23  C 2375.13   316.23  2373.23   318.13  2373.23   320.48 " style="stroke-width: 1.42 ;&st7; " /><path d=" M 2334.98,  320.48  C 2334.98   318.13  2333.08   316.23  2330.74   316.23 " style="stroke-width: 1.42 ;&st7; " /><path d=" M 2330.74,  324.73  C 2333.08   324.73  2334.98   322.83  2334.98   320.48 " style="stroke-width: 1.42 ;&st7; " /><path d=" M 2322.24,  320.48  C 2322.24   322.83  2324.14   324.73  2326.49   324.73 " style="stroke-width: 1.42 ;&st7; " /><path d=" M 2326.49,  316.23  C 2324.14   316.23  2322.24   318.13  2322.24   320.48 " style="stroke-width: 1.42 ;&st7; " /><path d=" M 2334.98,  413.97  C 2334.98   411.62  2333.08   409.72  2330.74   409.72 " style="stroke-width: 1.42 ;&st7; " /><path d=" M 2330.74,  418.22  C 2333.08   418.22  2334.98   416.31  2334.98   413.97 " style="stroke-width: 1.42 ;&st7; " /><path d=" M 2322.24,  413.97  C 2322.24   416.31  2324.14   418.22  2326.49   418.22 " style="stroke-width: 1.42 ;&st7; " /><path d=" M 2326.49,  409.72  C 2324.14   409.72  2322.24   411.62  2322.24   413.97 " style="stroke-width: 1.42 ;&st7; " /><path d=" M 2334.98,  218.50  C 2334.98   216.15  2333.08   214.25  2330.74   214.25 " style="stroke-width: 1.42 ;&st7; " /><path d=" M 2330.74,  222.75  C 2333.08   222.75  2334.98   220.85  2334.98   218.50 " style="stroke-width: 1.42 ;&st7; " /><path d=" M 2322.24,  218.50  C 2322.24   220.85  2324.14   222.75  2326.49   222.75 " style="stroke-width: 1.42 ;&st7; " /><path d=" M 2326.49,  214.25  C 2324.14   214.25  2322.24   216.15  2322.24   218.50 " style="stroke-width: 1.42 ;&st7; " /><path d=" M 2330.03,  170.34  C 2330.03   169.56  2329.39   168.92  2328.61   168.92 " style="stroke-width: 0.85 ;&st7; " /><path d=" M 2328.61,  168.92  C 2327.83   168.92  2327.19   169.56  2327.19   170.34 " style="stroke-width: 0.85 ;&st7; " /><path d=" M 2327.19,  170.34  C 2327.19   171.12  2327.83   171.76  2328.61   171.76 " style="stroke-width: 0.85 ;&st7; " /><path d=" M 2328.61,  171.76  C 2329.39   171.76  2330.03   171.12  2330.03   170.34 " style="stroke-width: 0.85 ;&st7; " /><path d=" M 2330.03,  147.68  C 2330.03   146.90  2329.39   146.26  2328.61   146.26 " style="stroke-width: 0.85 ;&st7; " /><path d=" M 2328.61,  146.26  C 2327.83   146.26  2327.19   146.90  2327.19   147.68 " style="stroke-width: 0.85 ;&st7; " /><path d=" M 2327.19,  147.68  C 2327.19   148.46  2327.83   149.09  2328.61   149.09 " style="stroke-width: 0.85 ;&st7; " /><path d=" M 2328.61,  149.09  C 2329.39   149.09  2330.03   148.46  2330.03   147.68 " style="stroke-width: 0.85 ;&st7; " /><path d=" M 2328.61,  168.92  C 2331.35   167.31  2332.26   163.78  2330.65   161.05 " style="stroke-width: 1.42 ;&st7; " /><path d=" M 2330.65,  161.05  C 2330.13   160.16  2329.49   159.53  2328.61   159.01 " style="stroke-width: 1.42 ;&st7; " /><path d=" M 2328.61,  149.09  C 2325.87   150.71  2324.96   154.23  2326.57   156.97 " style="stroke-width: 1.42 ;&st7; " /><path d=" M 2326.57,  156.97  C 2327.09   157.85  2327.73   158.49  2328.61   159.01 " style="stroke-width: 1.42 ;&st7; " /><path d=" M 2351.98,  214.25  C 2349.64   214.25  2347.73   216.15  2347.73   218.50 " style="stroke-width: 1.42 ;&st7; " /><path d=" M 2347.73,  218.50  C 2347.73   220.85  2349.64   222.75  2351.98   222.75 " style="stroke-width: 1.42 ;&st7; " /><path d=" M 2356.23,  222.75  C 2358.58   222.75  2360.48   220.85  2360.48   218.50 " style="stroke-width: 1.42 ;&st7; " /><path d=" M 2360.48,  218.50  C 2360.48   216.15  2358.58   214.25  2356.23   214.25 " style="stroke-width: 1.42 ;&st7; " /><path d=" M 2359.77,  367.22  C 2359.77   366.44  2359.14   365.81  2358.36   365.81 " style="stroke-width: 0.85 ;&st7; " /><path d=" M 2358.36,  365.81  C 2357.57   365.81  2356.94   366.44  2356.94   367.22 " style="stroke-width: 0.85 ;&st7; " /><path d=" M 2356.94,  367.22  C 2356.94   368.01  2357.57   368.64  2358.36   368.64 " style="stroke-width: 0.85 ;&st7; " /><path d=" M 2358.36,  368.64  C 2359.14   368.64  2359.77   368.01  2359.77   367.22 " style="stroke-width: 0.85 ;&st7; " /><path d=" M 2355.52,  378.56  C 2355.52   377.77  2354.89   377.14  2354.11   377.14 " style="stroke-width: 0.85 ;&st7; " /><path d=" M 2354.11,  377.14  C 2353.32   377.14  2352.69   377.77  2352.69   378.56 " style="stroke-width: 0.85 ;&st7; " /><path d=" M 2352.69,  378.56  C 2352.69   379.34  2353.32   379.97  2354.11   379.97 " style="stroke-width: 0.85 ;&st7; " /><path d=" M 2354.11,  379.97  C 2354.89   379.97  2355.52   379.34  2355.52   378.56 " style="stroke-width: 0.85 ;&st7; " /><path d=" M 2105.52,  324.73  C 2103.18   324.73  2101.27   326.63  2101.27   328.98 " style="stroke-width: 1.42 ;&st7; " /><path d=" M 2101.27,  328.98  C 2101.27   331.33  2103.18   333.23  2105.52   333.23 " style="stroke-width: 1.42 ;&st7; " /><path d=" M 2109.77,  333.23  C 2112.12   333.23  2114.02   331.33  2114.02   328.98 " style="stroke-width: 1.42 ;&st7; " /><path d=" M 2114.02,  328.98  C 2114.02   326.63  2112.12   324.73  2109.77   324.73 " style="stroke-width: 1.42 ;&st7; " /><path d=" M 2105.52,  367.22  C 2103.18   367.22  2101.27   369.13  2101.27   371.47 " style="stroke-width: 1.42 ;&st7; " /><path d=" M 2101.27,  371.47  C 2101.27   373.82  2103.18   375.72  2105.52   375.72 " style="stroke-width: 1.42 ;&st7; " /><path d=" M 2109.77,  375.72  C 2112.12   375.72  2114.02   373.82  2114.02   371.47 " style="stroke-width: 1.42 ;&st7; " /><path d=" M 2114.02,  371.47  C 2114.02   369.13  2112.12   367.22  2109.77   367.22 " style="stroke-width: 1.42 ;&st7; " /><path d=" M 2168.55,  432.38  C 2168.55   431.60  2167.92   430.96  2167.14   430.96 " style="stroke-width: 0.85 ;&st7; " /><path d=" M 2167.14,  430.96  C 2166.36   430.96  2165.72   431.60  2165.72   432.38 " style="stroke-width: 0.85 ;&st7; " /><path d=" M 2165.72,  432.38  C 2165.72   433.16  2166.36   433.80  2167.14   433.80 " style="stroke-width: 0.85 ;&st7; " /><path d=" M 2167.14,  433.80  C 2167.92   433.80  2168.55   433.16  2168.55   432.38 " style="stroke-width: 0.85 ;&st7; " /><path d=" M 2168.55,  455.04  C 2168.55   454.26  2167.92   453.63  2167.14   453.63 " style="stroke-width: 0.85 ;&st7; " /><path d=" M 2167.14,  453.63  C 2166.36   453.63  2165.72   454.26  2165.72   455.04 " style="stroke-width: 0.85 ;&st7; " /><path d=" M 2165.72,  455.04  C 2165.72   455.82  2166.36   456.46  2167.14   456.46 " style="stroke-width: 0.85 ;&st7; " /><path d=" M 2167.14,  456.46  C 2167.92   456.46  2168.55   455.82  2168.55   455.04 " style="stroke-width: 0.85 ;&st7; " /><path d=" M 2355.52,  355.89  C 2355.52   355.11  2354.89   354.48  2354.11   354.48 " style="stroke-width: 0.85 ;&st7; " /><path d=" M 2354.11,  354.48  C 2353.32   354.48  2352.69   355.11  2352.69   355.89 " style="stroke-width: 0.85 ;&st7; " /><path d=" M 2352.69,  355.89  C 2352.69   356.67  2353.32   357.31  2354.11   357.31 " style="stroke-width: 0.85 ;&st7; " /><path d=" M 2354.11,  357.31  C 2354.89   357.31  2355.52   356.67  2355.52   355.89 " style="stroke-width: 0.85 ;&st7; " /><path d=" M 2326.08,  364.75  C 2327.45   366.14  2329.69   366.17  2331.09   364.80 " style="stroke-width: 0.85 ;&st7; " /><path d=" M 2331.09,  364.80  C 2332.49   363.43  2332.51   361.18  2331.14   359.79 " style="stroke-width: 0.85 ;&st7; " /><path d=" M 2331.14,  359.79  C 2330.45   359.08  2329.60   358.72  2328.61   358.72 " style="stroke-width: 0.85 ;&st7; " /><path d=" M 2326.08,  369.70  C 2327.45   371.10  2329.69   371.12  2331.09   369.75 " style="stroke-width: 0.85 ;&st7; " /><path d=" M 2331.09,  369.75  C 2332.49   368.38  2332.51   366.14  2331.14   364.75 " style="stroke-width: 0.85 ;&st7; " /><path d=" M 2331.14,  364.75  C 2329.77   363.35  2327.53   363.33  2326.13   364.69 " style="stroke-width: 0.85 ;&st7; " /><path d=" M 2326.13,  364.69  C 2326.11   364.71  2326.10   364.73  2326.08   364.75 " style="stroke-width: 0.85 ;&st7; " /><path d=" M 2328.61,  375.72  C 2330.57   375.72  2332.15   374.14  2332.15   372.18 " style="stroke-width: 0.85 ;&st7; " /><path d=" M 2332.15,  372.18  C 2332.15   370.23  2330.57   368.64  2328.61   368.64 " style="stroke-width: 0.85 ;&st7; " /><path d=" M 2328.61,  368.64  C 2327.62   368.64  2326.77   369.00  2326.08   369.70 " style="stroke-width: 0.85 ;&st7; " /><path d=" M 2351.98,  316.23  C 2349.64   316.23  2347.73   318.13  2347.73   320.48 " style="stroke-width: 1.42 ;&st7; " /><path d=" M 2347.73,  320.48  C 2347.73   322.83  2349.64   324.73  2351.98   324.73 " style="stroke-width: 1.42 ;&st7; " /><path d=" M 2356.23,  324.73  C 2358.58   324.73  2360.48   322.83  2360.48   320.48 " style="stroke-width: 1.42 ;&st7; " /><path d=" M 2360.48,  320.48  C 2360.48   318.13  2358.58   316.23  2356.23   316.23 " style="stroke-width: 1.42 ;&st7; " /><path d=" M 2351.98,  409.72  C 2349.64   409.72  2347.73   411.62  2347.73   413.97 " style="stroke-width: 1.42 ;&st7; " /><path d=" M 2347.73,  413.97  C 2347.73   416.31  2349.64   418.22  2351.98   418.22 " style="stroke-width: 1.42 ;&st7; " /><path d=" M 2109.06,  432.38  C 2109.06   431.60  2108.43   430.96  2107.65   430.96 " style="stroke-width: 0.85 ;&st7; " /><path d=" M 2107.65,  430.96  C 2106.87   430.96  2106.23   431.60  2106.23   432.38 " style="stroke-width: 0.85 ;&st7; " /><path d=" M 2106.23,  432.38  C 2106.23   433.16  2106.87   433.80  2107.65   433.80 " style="stroke-width: 0.85 ;&st7; " /><path d=" M 2107.65,  433.80  C 2108.43   433.80  2109.06   433.16  2109.06   432.38 " style="stroke-width: 0.85 ;&st7; " /><path d=" M 2109.06,  455.04  C 2109.06   454.26  2108.43   453.63  2107.65   453.63 " style="stroke-width: 0.85 ;&st7; " /><path d=" M 2107.65,  453.63  C 2106.87   453.63  2106.23   454.26  2106.23   455.04 " style="stroke-width: 0.85 ;&st7; " /><path d=" M 2106.23,  455.04  C 2106.23   455.82  2106.87   456.46  2107.65   456.46 " style="stroke-width: 0.85 ;&st7; " /><path d=" M 2107.65,  456.46  C 2108.43   456.46  2109.06   455.82  2109.06   455.04 " style="stroke-width: 0.85 ;&st7; " /><text style="&st18;" transform="matrix(&st17;  2273.92  140.52 )">G</text><text style="&st18;" transform="matrix(&st17;  2239.93  142.99 )">GR</text><text style="&st18;" transform="matrix(&st16;  2236.84  111.96 )">6</text><text style="&st18;" transform="matrix(&st16;  2270.83  111.96 )">3</text><text style="&st18;" transform="matrix(&st16;  2234.87  100.07 )">STP2</text><text style="&st18;" transform="matrix(&st16;  2268.08  100.07 )">STPO</text><text style="&st18;" transform="matrix(&st16;  2097.68  111.96 )">19</text><text style="&st18;" transform="matrix(&st16;  2258.1  41.97 )">A28</text><text ewd:textID="29" style="&st18;" transform="matrix(&st16;  2258.1  49.08 )">Skid Control ECU with Actuator (Brake Booster with Master Cylinder Assembly)</text><text style="&st18;" transform="matrix(&st17;  2350.41  457.44 )">GR</text><text style="&st18;" transform="matrix(&st17;  2324.91  454.96 )">G</text><text ewd:textID="28" style="&st18;" transform="matrix(&st16;  2297.9  366.37 )">STOP <tspan dy="6" x="0">Relay</tspan></text><text style="&st18;" transform="matrix(&st16;  2349.66  220.47 )">3D</text><text style="&st18;" transform="matrix(&st16;  2337.46  220.47 )">29</text><text style="&st18;" transform="matrix(&st16;  2322.6  392.41 )">1</text><text style="&st18;" transform="matrix(&st16;  2347.32  392.41 )">3</text><text style="&st18;" transform="matrix(&st16;  2321.82  346.54 )">2</text><text style="&st18;" transform="matrix(&st17;  2103.95  156.74 )">L</text><text style="&st18;" transform="matrix(&st16;  2100.72  100.07 )">CTY</text><text style="&st18;" transform="matrix(&st16;  2103.2  330.95 )">3D</text><text style="&st18;" transform="matrix(&st16;  2091.0  330.95 )">34</text><text style="&st18;" transform="matrix(&st16;  2103.2  373.44 )">3C</text><text style="&st18;" transform="matrix(&st16;  2091.78  373.44 )">15</text><text style="&st18;" transform="matrix(&st17;  2001.97  162.46 )">W-B</text><text style="&st18;" transform="matrix(&st17;  2001.97  578.89 )">W-B</text><text style="&st18;" transform="matrix(&st16;  2161.13  423.02 )">1</text><text ewd:textID="17" style="&st18;" transform="matrix(&st17;  2190.35  463.23 )">Front Door Courtesy Light <tspan dy="6" x="0">Switch Assembly RH</tspan></text><text style="&st18;" transform="matrix(&st17;  2183.25  463.23 )">O10</text><text style="&st18;" transform="matrix(&st17;  2163.44  403.55 )">Y</text><text style="&st18;" transform="matrix(&st16;  2149.92  330.95 )">11</text><text style="&st18;" transform="matrix(&st17;  2163.44  225.08 )">Y</text><text style="&st18;" transform="matrix(&st17;  2163.44  156.74 )">L</text><text style="&st18;" transform="matrix(&st17;  2174.77  164.51 )">(RHD)</text><text style="&st18;" transform="matrix(&st17;  2174.78  237.51 )">(RHD *3)</text><text style="&st18;" transform="matrix(&st16;  2149.14  186.47 )">10</text><text style="&st18;" transform="matrix(&st17;  2174.77  410.97 )">(RHD)</text><text style="&st18;" transform="matrix(&st17;  2163.44  293.07 )">Y</text><text style="&st18;" transform="matrix(&st17;  2174.78  305.5 )">(RHD *3)</text><text style="&st18;" transform="matrix(&st17;  2115.28  164.01 )">(LHD)</text><text style="&st18;" transform="matrix(&st17;  2115.28  410.47 )">(LHD)</text><text style="&st18;" transform="matrix(&st16;  2347.31  346.54 )">5</text><text style="&st18;" transform="matrix(&st16;  2365.44  363.53 )">4</text><text style="&st18;" transform="matrix(&st16;  2352.13  322.45 )">2</text><text style="&st18;" transform="matrix(&st16;  2352.13  415.94 )">2</text><text style="&st18;" transform="matrix(&st17;  2350.41  301.71 )">R</text><text style="&st18;" transform="matrix(&st17;  2409.9  352.2 )">L</text><text style="&st18;" transform="matrix(&st16;  2446.98  134.07 )">(BAT)</text><text style="&st18;" transform="matrix(&st16;  2439.44  220.47 )">30</text><text style="&st18;" transform="matrix(&st16;  2451.64  220.47 )">3D</text><text style="&st18;" transform="matrix(&st16;  2473.39  158.15 )">7.5A <tspan dy="6" x="0">STOP</tspan></text><text style="&st18;" transform="matrix(&st17;  2472.2  327.26 )">A33</text><text ewd:textID="31" style="&st18;" transform="matrix(&st17;  2479.31  327.26 )">Stop Light Switch <tspan dy="6" x="-0.01">Assembly</tspan></text><text style="&st18;" transform="matrix(&st16;  2450.08  332.92 )">1</text><text style="&st18;" transform="matrix(&st16;  2449.3  188.45 )">2</text><text style="&st18;" transform="matrix(&st17;  2452.39  258.72 )">L</text><text style="&st18;" transform="matrix(&st17;  2452.39  352.7 )">R</text><text style="&st18;" transform="matrix(&st16;  2449.3  287.05 )">2</text><text style="&st18;" transform="matrix(&st16;  2453.76  390.16 )">A</text><text style="&st18;" transform="matrix(&st16;  2445.99  390.16 )">1</text><text style="&st18;" transform="matrix(&st16;  2411.27  390.16 )">A</text><text style="&st18;" transform="matrix(&st16;  2402.72  390.16 )">6</text><text ewd:textID="20" style="&st18;" transform="matrix(&st16;  2445.07  424.43 )">Junction Connector</text><text style="&st18;" transform="matrix(&st16;  2445.07  417.33 )">A71(A)</text><text style="&st18;" transform="matrix(&st16;  2377.62  322.45 )">2</text><text style="&st18;" transform="matrix(&st16;  2326.63  415.94 )">2</text><text style="&st18;" transform="matrix(&st17;  2324.91  301.57 )">V</text><text style="&st18;" transform="matrix(&st16;  2326.63  322.45 )">2</text><text style="&st18;" transform="matrix(&st16;  2345.92  155.33 )">10A <tspan dy="6" x="0">ECU-IG1 </tspan><tspan dy="6" x="0">NO.1</tspan></text><text style="&st18;" transform="matrix(&st16;  2324.16  220.47 )">3D</text><text style="&st18;" transform="matrix(&st16;  2311.97  220.47 )">36</text><text style="&st18;" transform="matrix(&st16;  2321.82  188.45 )">2</text><text style="&st18;" transform="matrix(&st16;  2322.54  134.07 )">(IG)</text><text style="&st18;" transform="matrix(&st17;  2324.91  242.08 )">V</text><text style="&st18;" transform="matrix(&st16;  2101.64  423.02 )">1</text><text ewd:textID="16" style="&st18;" transform="matrix(&st17;  2130.86  463.23 )">Front Door Courtesy Light Switch <tspan dy="6" x="0">Assembly LH</tspan></text><text style="&st18;" transform="matrix(&st17;  2123.76  463.23 )">N7</text><text style="&st18;" transform="matrix(&st17;  2103.95  403.2 )">L</text><text style="&st18;" transform="matrix(&st16;  2191.16  273.43 )">12</text><text style="&st18;" transform="matrix(&st16;  2191.16  244.55 )">15</text><text ewd:textID="20" style="&st18;" transform="matrix(&st17;  2224.35  267.77 )">Junction Connector</text><text style="&st18;" transform="matrix(&st17;  2217.24  267.77 )">I176</text><text style="&st18;" transform="matrix(&st17;  2197.44  227.41 )">SB</text><text style="&st18;" transform="matrix(&st17;  2208.77  237.51 )">(RHD *4)</text><text style="&st18;" transform="matrix(&st17;  2197.44  295.4 )">SB</text><text style="&st18;" transform="matrix(&st17;  2208.77  305.5 )">(RHD *4)</text><text ewd:textID="5" style="&st18;" transform="matrix(&st16;  2181.61  581.66 )">* 4 :From Jan. 2012 Production until Sep. 2013 Production</text><text ewd:textID="4" style="&st18;" transform="matrix(&st16;  2181.61  573.16 )">* 3 :Before Jan. 2012 Production, From Sep. 2013 Production</text><text style="&st18;" transform="matrix(&st17;  2336.25  245.93 )">(*6)</text><text style="&st18;" transform="matrix(&st17;  2285.26  143.94 )">(*6)</text><text style="&st18;" transform="matrix(&st17;  2251.26  143.94 )">(*6)</text><text style="&st18;" transform="matrix(&st17;  2336.25  458.39 )">(*6)</text><text style="&st18;" transform="matrix(&st17;  2361.74  458.39 )">(*6)</text><text style="&st18;" transform="matrix(&st17;  2421.23  356.41 )">(*6)</text><text style="&st18;" transform="matrix(&st17;  2463.73  356.41 )">(*6)</text><text style="&st18;" transform="matrix(&st17;  2463.73  262.92 )">(*6)</text><text style="&st18;" transform="matrix(&st17;  2361.74  305.42 )">(*6)</text><text style="&st18;" transform="matrix(&st17;  2336.25  305.42 )">(*6)</text><text ewd:textID="8" style="&st18;" transform="matrix(&st16;  2181.61  598.65 )">* 7 :From Sep. 2014 Production</text><text ewd:textID="7" style="&st18;" transform="matrix(&st16;  2181.61  590.16 )">* 6 :Before Sep. 2014 Production</text></svg>