﻿<?xml version="1.0" encoding="UTF-8"?>
<!DOCTYPE svg PUBLIC "-//W3C//DTD SVG 1.0//EN" "http://www.w3.org/TR/2001/REC-SVG-20010904/DTD/svg10.dtd"[
	<!ENTITY ns_flows "http://ns.adobe.com/Flows/1.0/">
	<!ENTITY ns_svg "http://www.w3.org/2000/svg">
	<!ENTITY ns_xlink "http://www.w3.org/1999/xlink">
	<!ENTITY st0 "font-size:7px;font-family:'MS-PGothic';adobe-font-script:japanese;">
	<!ENTITY st1 "font-size:6px;font-family:'ArialMT';">
	<!-- White fill  -->
	<!ENTITY st2 "fill:#FFFFFF;stroke:#000000; stroke-width:1.41;stroke-linecap:round;stroke-linejoin:round;">
	<!-- Yellow fill  -->
	<!ENTITY st3 "fill:#FFFFCC;stroke:#FFFFCC; stroke-width:0.1;stroke-linecap:round;stroke-linejoin:round;">
	<!-- Gray fill  -->
	<!ENTITY st4 "fill:#CCCCCC;stroke:#CCCCCC; stroke-width:0.1;stroke-linecap:round;stroke-linejoin:round;">
	<!-- Light-blue fill -->
	<!ENTITY st5 "fill:#CCECF4;stroke:#000000; stroke-width:1.133;stroke-linecap:round;stroke-linejoin:round;">
	<!ENTITY st6 "fill:none;stroke-linecap:butt; stroke-linejoin:round;">
	<!ENTITY st7 "fill:none;stroke:#000000;stroke-linecap:round;stroke-linejoin:round;">
	<!ENTITY st8 "enable-background:new    ;">
	<!-- Black fill -->
	<!ENTITY st9 "fill:#000000;stroke:#000000; stroke-linecap:round;stroke-linejoin:round;">
	<!-- SRS note   -->
	<!ENTITY st10 "font-size:9px;font-family:'ArialMT';">
	<!ENTITY st11 "font-size:9px;font-family:'Svg Symbol';">
	<!ENTITY st12 "font-size:6px;font-family:'Svg Symbol';">
	<!ENTITY st13 "fill:none;stroke:#ff0000;stroke-linecap:round;stroke-linejoin:round;">
	<!-- Yellow fill  -->
	<!ENTITY st14 "fill:#FFFF00;stroke:#FFFF00; stroke-width:0.1;stroke-linecap:round;stroke-linejoin:round;">
	<!ENTITY st15 "font-size:6px;font-family:'MS-PGothic';adobe-font-script:japanese;">
	<!ENTITY st16 "1.00 0.00 0.00 1.00">
	<!ENTITY st17 "0.00 -1.00 1.00 0.00">
	<!ENTITY st18 "font-size:6px;font-family:'Arial';">
	<!ENTITY st19 "font-size:9px;font-family:'Arial';">
	<!ENTITY st20 "font-size:6px;font-family:'MS-PGothic','MS PGothic';adobe-font-script:japanese;">
	<!ENTITY st21 "font-size:7px;font-family:'MS-PGothic','MS PGothic';adobe-font-script:japanese;">
	<!ATTLIST svg
		xmlns:ewd CDATA #FIXED "http://shcl.co.jp/ewd"
		xmlns:a CDATA #FIXED "http://ns.adobe.com/AdobeSVGViewerExtensions/3.0/"
		ewd:ver CDATA #IMPLIED
	>
	<!ATTLIST a
		ewd:lineID CDATA #IMPLIED
		ewd:groupID CDATA #IMPLIED
		ewd:figtype CDATA #IMPLIED
		ewd:code CDATA #IMPLIED
		ewd:figID CDATA #IMPLIED
		ewd:pinNo CDATA #IMPLIED
		ewd:comment CDATA #IMPLIED >
	<!ATTLIST g
		ewd:lineID CDATA #IMPLIED
		ewd:groupID CDATA #IMPLIED
		ewd:figtype CDATA #IMPLIED
		ewd:code CDATA #IMPLIED
		ewd:figID CDATA #IMPLIED
		ewd:pinNo CDATA #IMPLIED
		ewd:comment CDATA #IMPLIED >
	<!ATTLIST text
		ewd:textID CDATA #IMPLIED >
	<!ATTLIST title
		ewd:textID CDATA #IMPLIED >
]>
<!-- Generator: Shintec Hozumi YS   -->
<svg onload="call_execInitLoadProc_svg('system')" style="overflow:visible;  enable-background:new 0 0 367.357 710.000" viewBox="0 0 367.357 710.000" height="710.000" width="367.357" xml:space="preserve" ewd:ver="L2.1.2.8" xmlns="&ns_svg;" xmlns:a="http://ns.adobe.com/AdobeSVGViewerExtensions/3.0/" xmlns:ewd="http://shcl.co.jp/ewd" xmlns:xlink="&ns_xlink;">
	<script type="text/javascript" xlink:href="../../../../../system/js/ewd/fig/svgfig.js"/>
	<defs>
		<font horiz-adv-x="1229">
			<font-face font-family="Svg Symbol" units-per-em="2048" panose-1="5 5 1 2 1 7 6 2 5 7" ascent="2059" descent="450" alphabetic="0"/>
			<missing-glyph d="M 103,0 l 0,1280 1024,0 0,-1280 -1024,0 z m 32,32 l 960,0 0,1216 -960,0 0,-1216 z"/>
			<glyph unicode="&#xF057;" horiz-adv-x="1573" d="M 1517,0 l -567,0 24,279 q 141,59 207.5,168 66.5,109 66.5,306    0,272 -132.5,417.5 -132.5,145.5 -333.5,145.5 -194,0 -328,-147.5 -134,-147.5 -134,-401.5 0,-200 68.5,-319 68.5,-119     206.5,-169 l 25,-279 -564,0 0,279 35,0 q 3,-61 32,-83 45,-35 137,-35 l 270,0 0,70 q -210,61 -324.5,209 -114.5,148     -114.5,349 0,252 186.5,425 186.5,173 504.5,173 195,0 358.5,-73.5 163.5,-73.5 252,-214.5 88.5,-141 88.5,-310 0,-207     -121.5,-360.5 -121.5,-153.5 -317.5,-197.5 l -8,-70 275,0 q 92,0 128,28 36,28 42,90 l 38,0 0,-279 z"/>
		</font>
	</defs>
<g id="ewd_top">
	<a ewd:code="I59" ewd:figID="1" ewd:figtype="conn" style="cursor:pointer;">
		<path d=" M  229.46,  486.20  L  331.44,  486.20  L  331.44,  435.21  L  229.46,  435.21  L  229.46,  486.20 " style="&st5;"/>
		<title ewd:textID="1">Clock Assembly</title>
	</a>
	<a ewd:code="FUSE6" ewd:figID="2" ewd:figtype="rb" style="cursor:pointer;">
		<path d=" M  233.71,   35.78  L  233.71,   78.27  L  259.21,   78.27  L  259.21,   35.78  L  233.71,   35.78 " style="&st5;"/>
	</a>
	<a ewd:code="3" ewd:figID="3" ewd:figtype="jb" style="cursor:pointer;">
		<path d=" M  297.45,   35.78  L  297.45,  103.77  L  365.44,  103.77  L  365.44,   35.78  L  297.45,   35.78 " style="&st4;"/>
	</a>
	<a ewd:code="3" ewd:figID="4" ewd:figtype="jb" style="cursor:pointer;">
		<path d=" M  229.46,  222.75  L  229.46,  273.74  L  254.96,  273.74  L  254.96,  222.75  L  229.46,  222.75 " style="&st4;"/>
	</a>
	<a ewd:code="FUSE50" ewd:figID="5" ewd:figtype="fuse" style="cursor:pointer;">
		<path d=" M  301.70,   35.78  L  301.70,   78.27  L  327.20,   78.27  L  327.20,   35.78  L  301.70,   35.78 " style="&st7;"/>
	</a>
	<a ewd:code="FUSE6" ewd:figID="6" ewd:figtype="fuse" style="cursor:pointer;">
		<path d=" M  233.71,   35.78  L  233.71,   78.27  L  259.21,   78.27  L  259.21,   35.78  L  233.71,   35.78 " style="&st7;"/>
	</a>
	<a ewd:lineID="1" style="cursor:pointer;">
		<path d=" M  246.46,  596.69  L  246.46,  681.67 " style="stroke:#000000;stroke-width: 5.10 ;&st6;"/>
		<path d=" M  246.46,  596.69  L  246.46,  681.67 " style="stroke:#FFFFFF;stroke-width: 4.53 ;&st6;"/>
		<path d=" M  246.46,  596.69  L  246.46,  681.67 " style="stroke:#000000;stroke-width: 1.13 ;&st6;"/>
	</a>
	<a ewd:lineID="2" style="cursor:pointer;">
		<path d=" M  246.46,  486.20  L  246.46,  579.69 " style="stroke:#000000;stroke-width: 5.10 ;&st6;"/>
		<path d=" M  246.46,  486.20  L  246.46,  579.69 " style="stroke:#FFFFFF;stroke-width: 4.53 ;&st6;"/>
		<path d=" M  246.46,  486.20  L  246.46,  579.69 " style="stroke:#000000;stroke-width: 1.13 ;&st6;"/>
	</a>
	<a ewd:lineID="3" style="cursor:pointer;">
		<path d=" M  246.46,  273.74  L  246.46,  435.21 " style="stroke:#7FC97F;stroke-width: 5.10 ;&st6;"/>
	</a>
	<a ewd:lineID="4" style="cursor:pointer;">
		<path d=" M  246.46,  177.99  L  246.46,  222.75 " style="stroke:#7FC97F;stroke-width: 5.10 ;&st6;"/>
	</a>
	<a ewd:lineID="5" style="cursor:pointer;">
		<path d=" M  246.46,  103.77  L  246.46,  163.26 " style="stroke:#7FC97F;stroke-width: 5.10 ;&st6;"/>
	</a>
	<a ewd:lineID="6" style="cursor:pointer;">
		<path d=" M  314.45,  103.77  L  314.45,  435.21 " style="stroke:#F668B2;stroke-width: 5.10 ;&st6;"/>
	</a>
	<path d=" M  246.46,   69.77  L  246.46,   95.27 " style="stroke-width: 0.85 ;&st7; "/>
	<path d=" M  248.58,   95.27  L  244.33,   95.27 " style="stroke-width: 1.42 ;&st7; "/>
	<path d=" M  248.58,  103.77  L  244.33,  103.77 " style="stroke-width: 1.42 ;&st7; "/>
	<path d=" M  314.45,   69.77  L  314.45,   95.27 " style="stroke-width: 0.85 ;&st7; "/>
	<path d=" M  316.57,   95.27  L  312.32,   95.27 " style="stroke-width: 1.42 ;&st7; "/>
	<path d=" M  316.57,  103.77  L  312.32,  103.77 " style="stroke-width: 1.42 ;&st7; "/>
	<path d=" M  248.58,  222.75  L  244.33,  222.75 " style="stroke-width: 1.42 ;&st7; "/>
	<path d=" M  248.58,  231.25  L  244.33,  231.25 " style="stroke-width: 1.42 ;&st7; "/>
	<path d=" M  248.58,  265.24  L  244.33,  265.24 " style="stroke-width: 1.42 ;&st7; "/>
	<path d=" M  248.58,  273.74  L  244.33,  273.74 " style="stroke-width: 1.42 ;&st7; "/>
	<path d=" M  254.96,  584.66  L  249.99,  579.69 " style="stroke-width: 1.42 ;&st7; "/>
	<path d=" M  237.96,  591.72  L  242.93,  596.69 " style="stroke-width: 1.42 ;&st7; "/>
	<path d=" M  249.99,  596.69  L  254.96,  591.72 " style="stroke-width: 1.42 ;&st7; "/>
	<path d=" M  242.93,  579.69  L  237.96,  584.66 " style="stroke-width: 1.42 ;&st7; "/>
	<path d=" M  254.96,  171.76  L  246.46,  171.76 " style="stroke-width: 1.42 ;&st7; "/>
	<path d=" M  229.46,  486.20  L  331.44,  486.20  L  331.44,  435.21  L  229.46,  435.21  L  229.46,  486.20 " style="stroke-width: 1.42 ;&st7; "/>
	<path d=" M  246.46,   90.37  L  243.63,   87.54  L  243.63,   91.79  L  246.46,   94.62  L  249.29,   91.79  L  249.29,   87.54  L  246.46,   90.37 " style="stroke-width: 0.28 ;&st9;"/>
	<path d=" M  233.71,   35.78  L  233.71,   78.27  L  259.21,   78.27  L  259.21,   35.78  L  233.71,   35.78 " style="stroke-width: 1.42 ;&st7; "/>
	<path d=" M  242.21,  704.33  L  250.71,  704.33 " style="stroke-width: 0.85 ;&st7; "/>
	<path d=" M  246.46,  697.25  L  246.46,  701.50 " style="stroke-width: 0.85 ;&st7; "/>
	<path d=" M  237.96,  701.50  L  254.96,  701.50 " style="stroke-width: 0.85 ;&st7; "/>
	<path d=" M  245.04,  710.00  L  247.88,  710.00 " style="stroke-width: 0.85 ;&st7; "/>
	<path d=" M  243.63,  707.17  L  249.29,  707.17 " style="stroke-width: 0.85 ;&st7; "/>
	<path d=" M  314.45,   90.37  L  311.61,   87.54  L  311.61,   91.79  L  314.45,   94.62  L  317.28,   91.79  L  317.28,   87.54  L  314.45,   90.37 " style="stroke-width: 0.28 ;&st9;"/>
	<path d=" M  301.70,   35.78  L  301.70,   78.27  L  327.20,   78.27  L  327.20,   35.78  L  301.70,   35.78 " style="stroke-width: 1.42 ;&st7; "/>
	<path d=" M  246.46,  236.14  L  249.29,  238.97  L  249.29,  234.73  L  246.46,  231.89  L  243.63,  234.73  L  243.63,  238.97  L  246.46,  236.14 " style="stroke-width: 0.28 ;&st9;"/>
	<path d=" M  246.46,  260.35  L  243.63,  257.51  L  243.63,  261.76  L  246.46,  264.60  L  249.29,  261.76  L  249.29,  257.51  L  246.46,  260.35 " style="stroke-width: 0.28 ;&st9;"/>
	<path d=" M  246.46,  265.24  L  246.46,  231.25 " style="stroke-width: 0.85 ;&st7; "/>
	<path d=" M  250.71,  180.82  L  246.46,  176.57  L  242.21,  180.82 " style="stroke-width: 1.42 ;&st7; "/>
	<path d=" M  250.71,  177.42  L  246.46,  173.17  L  242.21,  177.42 " style="stroke-width: 1.42 ;&st7; "/>
	<path d=" M  246.46,   47.11  C  243.72    48.72   242.81    52.25   244.42    54.99 " style="stroke-width: 1.42 ;&st7; "/>
	<path d=" M  244.42,   54.99  C  244.94    55.87   245.58    56.51   246.46    57.03 " style="stroke-width: 1.42 ;&st7; "/>
	<path d=" M  246.46,   66.94  C  249.20    65.33   250.11    61.80   248.50    59.06 " style="stroke-width: 1.42 ;&st7; "/>
	<path d=" M  248.50,   59.06  C  247.98    58.18   247.34    57.55   246.46    57.03 " style="stroke-width: 1.42 ;&st7; "/>
	<path d=" M  247.88,   45.69  C  247.88    44.91   247.24    44.28   246.46    44.28 " style="stroke-width: 0.85 ;&st7; "/>
	<path d=" M  246.46,   44.28  C  245.68    44.28   245.04    44.91   245.04    45.69 " style="stroke-width: 0.85 ;&st7; "/>
	<path d=" M  245.04,   45.69  C  245.04    46.48   245.68    47.11   246.46    47.11 " style="stroke-width: 0.85 ;&st7; "/>
	<path d=" M  246.46,   47.11  C  247.24    47.11   247.88    46.48   247.88    45.69 " style="stroke-width: 0.85 ;&st7; "/>
	<path d=" M  247.88,   68.36  C  247.88    67.57   247.24    66.94   246.46    66.94 " style="stroke-width: 0.85 ;&st7; "/>
	<path d=" M  246.46,   66.94  C  245.68    66.94   245.04    67.57   245.04    68.36 " style="stroke-width: 0.85 ;&st7; "/>
	<path d=" M  245.04,   68.36  C  245.04    69.14   245.68    69.77   246.46    69.77 " style="stroke-width: 0.85 ;&st7; "/>
	<path d=" M  246.46,   69.77  C  247.24    69.77   247.88    69.14   247.88    68.36 " style="stroke-width: 0.85 ;&st7; "/>
	<path d=" M  244.33,   95.27  C  241.99    95.27   240.08    97.17   240.08    99.52 " style="stroke-width: 1.42 ;&st7; "/>
	<path d=" M  240.08,   99.52  C  240.08   101.87   241.99   103.77   244.33   103.77 " style="stroke-width: 1.42 ;&st7; "/>
	<path d=" M  248.58,  103.77  C  250.93   103.77   252.83   101.87   252.83    99.52 " style="stroke-width: 1.42 ;&st7; "/>
	<path d=" M  252.83,   99.52  C  252.83    97.17   250.93    95.27   248.58    95.27 " style="stroke-width: 1.42 ;&st7; "/>
	<path d=" M  314.45,   47.11  C  311.71    48.72   310.80    52.25   312.41    54.99 " style="stroke-width: 1.42 ;&st7; "/>
	<path d=" M  312.41,   54.99  C  312.93    55.87   313.57    56.51   314.45    57.03 " style="stroke-width: 1.42 ;&st7; "/>
	<path d=" M  314.45,   66.94  C  317.19    65.33   318.10    61.80   316.48    59.06 " style="stroke-width: 1.42 ;&st7; "/>
	<path d=" M  316.48,   59.06  C  315.96    58.18   315.33    57.55   314.45    57.03 " style="stroke-width: 1.42 ;&st7; "/>
	<path d=" M  315.86,   45.69  C  315.86    44.91   315.23    44.28   314.45    44.28 " style="stroke-width: 0.85 ;&st7; "/>
	<path d=" M  314.45,   44.28  C  313.67    44.28   313.03    44.91   313.03    45.69 " style="stroke-width: 0.85 ;&st7; "/>
	<path d=" M  313.03,   45.69  C  313.03    46.48   313.67    47.11   314.45    47.11 " style="stroke-width: 0.85 ;&st7; "/>
	<path d=" M  314.45,   47.11  C  315.23    47.11   315.86    46.48   315.86    45.69 " style="stroke-width: 0.85 ;&st7; "/>
	<path d=" M  315.86,   68.36  C  315.86    67.57   315.23    66.94   314.45    66.94 " style="stroke-width: 0.85 ;&st7; "/>
	<path d=" M  314.45,   66.94  C  313.67    66.94   313.03    67.57   313.03    68.36 " style="stroke-width: 0.85 ;&st7; "/>
	<path d=" M  313.03,   68.36  C  313.03    69.14   313.67    69.77   314.45    69.77 " style="stroke-width: 0.85 ;&st7; "/>
	<path d=" M  314.45,   69.77  C  315.23    69.77   315.86    69.14   315.86    68.36 " style="stroke-width: 0.85 ;&st7; "/>
	<path d=" M  312.32,   95.27  C  309.98    95.27   308.07    97.17   308.07    99.52 " style="stroke-width: 1.42 ;&st7; "/>
	<path d=" M  308.07,   99.52  C  308.07   101.87   309.98   103.77   312.32   103.77 " style="stroke-width: 1.42 ;&st7; "/>
	<path d=" M  316.57,  103.77  C  318.92   103.77   320.82   101.87   320.82    99.52 " style="stroke-width: 1.42 ;&st7; "/>
	<path d=" M  320.82,   99.52  C  320.82    97.17   318.92    95.27   316.57    95.27 " style="stroke-width: 1.42 ;&st7; "/>
	<path d=" M  244.33,  222.75  C  241.99   222.75   240.08   224.65   240.08   227.00 " style="stroke-width: 1.42 ;&st7; "/>
	<path d=" M  240.08,  227.00  C  240.08   229.34   241.99   231.25   244.33   231.25 " style="stroke-width: 1.42 ;&st7; "/>
	<path d=" M  248.58,  231.25  C  250.93   231.25   252.83   229.34   252.83   227.00 " style="stroke-width: 1.42 ;&st7; "/>
	<path d=" M  252.83,  227.00  C  252.83   224.65   250.93   222.75   248.58   222.75 " style="stroke-width: 1.42 ;&st7; "/>
	<path d=" M  244.33,  265.24  C  241.99   265.24   240.08   267.14   240.08   269.49 " style="stroke-width: 1.42 ;&st7; "/>
	<path d=" M  240.08,  269.49  C  240.08   271.84   241.99   273.74   244.33   273.74 " style="stroke-width: 1.42 ;&st7; "/>
	<path d=" M  248.58,  273.74  C  250.93   273.74   252.83   271.84   252.83   269.49 " style="stroke-width: 1.42 ;&st7; "/>
	<path d=" M  252.83,  269.49  C  252.83   267.14   250.93   265.24   248.58   265.24 " style="stroke-width: 1.42 ;&st7; "/>
	<text style="&st18;" transform="matrix(&st16;  263.76  56.17 )">7.5A <tspan dy="6" x="0">DOME</tspan></text>
	<text style="&st18;" transform="matrix(&st16;  244.87  101.49 )">1</text>
	<text style="&st18;" transform="matrix(&st16;  239.67  86.47 )">2</text>
	<text style="&st18;" transform="matrix(&st16;  237.35  32.08 )">(BAT)</text>
	<text ewd:textID="1" style="&st18;" transform="matrix(&st17;  346.16  488.73 )">Clock Assembly</text>
	<text style="&st18;" transform="matrix(&st17;  339.06  488.73 )">I59</text>
	<text style="&st18;" transform="matrix(&st17;  310.75  318.56 )">P</text>
	<text style="&st18;" transform="matrix(&st16;  307.17  442.85 )">ACC</text>
	<text style="&st18;" transform="matrix(&st17;  242.76  320.97 )">LG</text>
	<text style="&st18;" transform="matrix(&st16;  244.13  442.85 )">B</text>
	<text style="&st18;" transform="matrix(&st16;  244.13  482.51 )">E</text>
	<text style="&st18;" transform="matrix(&st16;  331.75  56.17 )">7.5A <tspan dy="6" x="0">ECU-ACC</tspan></text>
	<text style="&st18;" transform="matrix(&st16;  310.14  101.49 )">3B</text>
	<text style="&st18;" transform="matrix(&st16;  297.8  101.49 )">37</text>
	<text style="&st18;" transform="matrix(&st16;  304.84  32.08 )">(ACC)</text>
	<text style="&st18;" transform="matrix(&st16;  242.01  228.97 )">3D</text>
	<text style="&st18;" transform="matrix(&st16;  229.81  228.97 )">40</text>
	<text style="&st18;" transform="matrix(&st16;  242.15  271.46 )">3B</text>
	<text style="&st18;" transform="matrix(&st16;  230.59  271.46 )">17</text>
	<text style="&st18;" transform="matrix(&st17;  242.76  134.0 )">LG</text>
	<text style="&st18;" transform="matrix(&st16;  307.66  431.52 )">2</text>
	<text style="&st18;" transform="matrix(&st16;  240.45  431.52 )">1</text>
	<text style="&st18;" transform="matrix(&st16;  239.67  494.4 )">7</text>
	<text style="&st18;" transform="matrix(&st17;  242.76  638.38 )">W-B</text>
	<text style="&st18;" transform="matrix(&st17;  242.76  536.4 )">W-B</text>
	<text style="&st18;" transform="matrix(&st16;  307.66  86.47 )">2</text>
	<text style="&st18;" transform="matrix(&st16;  231.64  169.48 )">5</text>
	<text style="&st18;" transform="matrix(&st17;  242.76  201.99 )">LG</text>
	<a ewd:code="AA1" ewd:figID="7" ewd:figtype="w2w" ewd:pinNo="5" style="cursor:pointer;">
		<path d=" M  254.96,  163.26  L  237.96,  163.26  L  237.96,  171.76  L  254.96,  171.76  L  254.96,  163.26 " style="&st2;"/>
		<text style="&st8;" transform="matrix(&st16;  239.88  170.0 )"><tspan style="&st18;" x="0" y="0">AA1</tspan></text>
	</a>
	<a ewd:code="I3" ewd:figID="8" ewd:figtype="gp" style="cursor:pointer;">
		<path d=" M  235.84,  681.67  L  257.08,  681.67  L  246.46,  697.25  L  235.84,  681.67 " style="&st2;"/>
		<text style="&st8;" transform="matrix(&st16;  243.34  689.83 )"><tspan style="&st18;" x="0" y="0">I3</tspan></text>
	</a>
	<a ewd:code="1357" ewd:figID="9" ewd:figtype="sp" style="cursor:pointer;">
		<path d=" M  242.21,  579.69  L  250.71,  579.69  L  254.96,  583.94  L  254.96,  592.44  L  250.71,  596.69  L  242.21,  596.69  L  237.96,  592.44  L  237.96,  583.94  L  242.21,  579.69 " style="&st2;"/>
	</a>
</g>
</svg>