﻿<?xml version="1.0" encoding="utf-8"?>
<!DOCTYPE svg PUBLIC "-//W3C//DTD SVG 1.0//EN" "http://www.w3.org/TR/2001/REC-SVG-20010904/DTD/svg10.dtd"[
	<!ENTITY ns_flows "http://ns.adobe.com/Flows/1.0/">
	<!ENTITY ns_svg "http://www.w3.org/2000/svg">
	<!ENTITY ns_xlink "http://www.w3.org/1999/xlink">
	<!ENTITY st0 "font-size:7px;font-family:'MS-PGothic';adobe-font-script:japanese;">
	<!ENTITY st1 "font-size:6px;font-family:'ArialMT';">
	<!-- White fill  -->
	<!ENTITY st2 "fill:#FFFFFF;stroke:#000000; stroke-width:1.41;stroke-linecap:round;stroke-linejoin:round;">
	<!-- Yellow fill  -->
	<!ENTITY st3 "fill:#FFFFCC;stroke:#FFFFCC; stroke-width:0.1;stroke-linecap:round;stroke-linejoin:round;">
	<!-- Gray fill  -->
	<!ENTITY st4 "fill:#CCCCCC;stroke:#CCCCCC; stroke-width:0.1;stroke-linecap:round;stroke-linejoin:round;">
	<!-- Light-blue fill -->
	<!ENTITY st5 "fill:#CCECF4;stroke:#000000; stroke-width:1.133;stroke-linecap:round;stroke-linejoin:round;">
	<!ENTITY st6 "fill:none;stroke-linecap:butt; stroke-linejoin:round;">
	<!ENTITY st7 "fill:none;stroke:#000000;stroke-linecap:round;stroke-linejoin:round;">
	<!ENTITY st8 "enable-background:new    ;">
	<!-- Black fill -->
	<!ENTITY st9 "fill:#000000;stroke:#000000; stroke-linecap:round;stroke-linejoin:round;">
	<!-- SRS note   -->
	<!ENTITY st10 "font-size:9px;font-family:'ArialMT';">
	<!ENTITY st11 "font-size:9px;font-family:'Svg Symbol';">
	<!ENTITY st12 "font-size:6px;font-family:'Svg Symbol';">
	<!ENTITY st13 "fill:none;stroke:#ff0000;stroke-linecap:round;stroke-linejoin:round;">
	<!-- Yellow fill  -->
	<!ENTITY st14 "fill:#FFFF00;stroke:#FFFF00; stroke-width:0.1;stroke-linecap:round;stroke-linejoin:round;">
	<!ENTITY st15 "font-size:6px;font-family:'MS-PGothic';adobe-font-script:japanese;">
	<!ENTITY st16 "1.00 0.00 0.00 1.00">
	<!ENTITY st17 "0.00 -1.00 1.00 0.00">
	<!ENTITY st18 "font-size:6px;font-family:'Arial';">
	<!ENTITY st19 "font-size:9px;font-family:'Arial';">
	<!ENTITY st20 "font-size:6px;font-family:'MS-PGothic','MS PGothic';adobe-font-script:japanese;">
	<!ENTITY st21 "font-size:7px;font-family:'MS-PGothic','MS PGothic';adobe-font-script:japanese;">
	<!ATTLIST svg
		xmlns:ewd CDATA #FIXED "http://shcl.co.jp/ewd"
		xmlns:a CDATA #FIXED "http://ns.adobe.com/AdobeSVGViewerExtensions/3.0/"
		ewd:ver CDATA #IMPLIED
	>
	<!ATTLIST a
		ewd:lineID CDATA #IMPLIED
		ewd:groupID CDATA #IMPLIED
		ewd:figtype CDATA #IMPLIED
		ewd:code CDATA #IMPLIED
		ewd:figID CDATA #IMPLIED
		ewd:pinNo CDATA #IMPLIED
		ewd:comment CDATA #IMPLIED >
	<!ATTLIST g
		ewd:lineID CDATA #IMPLIED
		ewd:groupID CDATA #IMPLIED
		ewd:figtype CDATA #IMPLIED
		ewd:code CDATA #IMPLIED
		ewd:figID CDATA #IMPLIED
		ewd:pinNo CDATA #IMPLIED
		ewd:comment CDATA #IMPLIED >
	<!ATTLIST text
		ewd:textID CDATA #IMPLIED >
	<!ATTLIST title
		ewd:textID CDATA #IMPLIED >
]>
<!-- Generator: Shintec Hozumi YS   -->
<svg onload="call_execInitLoadProc_svg('system')" style="overflow:visible;  enable-background:new 0 0 10343.297 710.000" viewBox="0 0 10343.297 710.000" height="710.000" width="10343.297" xml:space="preserve" ewd:ver="L2.1.2.8" xmlns="&ns_svg;" xmlns:a="http://ns.adobe.com/AdobeSVGViewerExtensions/3.0/" xmlns:ewd="http://shcl.co.jp/ewd" xmlns:xlink="&ns_xlink;">
<path d=" M 5056.65,  214.25  L 5056.65,  231.25 " style="stroke-width: 0.85 ;&st7; " /><path d=" M 5022.66,  222.75  L 5022.66,  231.25 " style="stroke-width: 0.85 ;&st7; " /><path d=" M 5099.15,  222.75  L 5099.15,  231.25 " style="stroke-width: 0.85 ;&st7; " /><path d=" M 5133.14,  214.25  L 5133.14,  231.25 " style="stroke-width: 0.85 ;&st7; " /><path d=" M 5055.46,  213.25  L 5055.19,  213.72  L 5055.09,  214.25  L 5055.19,  214.78  L 5055.46,  215.25  L 5055.87,  215.60  L 5056.38,  215.79  L 5056.92,  215.79  L 5057.43,  215.60  L 5057.85,  215.25  L 5058.12,  214.78  L 5058.21,  214.25  L 5058.12,  213.72  L 5057.85,  213.25  L 5057.43,  212.90  L 5056.92,  212.71  L 5056.38,  212.71  L 5055.87,  212.90  L 5055.46,  213.25  L 5055.85,  213.96  L 5055.85,  214.54  L 5056.23,  214.99  L 5056.80,  215.09  L 5057.30,  214.80  L 5057.50,  214.25  L 5057.30,  213.70  L 5056.80,  213.41  L 5056.23,  213.51  L 5056.65,  214.25 " style="stroke-width: 0.85 ;&st7; " /><path d=" M 5021.47,  221.75  L 5021.19,  222.22  L 5021.10,  222.75  L 5021.19,  223.28  L 5021.47,  223.75  L 5021.88,  224.10  L 5022.39,  224.28  L 5022.93,  224.28  L 5023.44,  224.10  L 5023.85,  223.75  L 5024.12,  223.28  L 5024.22,  222.75  L 5024.12,  222.22  L 5023.85,  221.75  L 5023.44,  221.40  L 5022.93,  221.21  L 5022.39,  221.21  L 5021.88,  221.40  L 5021.47,  221.75  L 5021.86,  222.46  L 5021.86,  223.04  L 5022.23,  223.48  L 5022.81,  223.58  L 5023.31,  223.30  L 5023.51,  222.75  L 5023.31,  222.20  L 5022.81,  221.91  L 5022.23,  222.01  L 5022.66,  222.75 " style="stroke-width: 0.85 ;&st7; " /><path d=" M 5422.09,  222.75  L 5422.09,  231.25 " style="stroke-width: 0.85 ;&st7; " /><path d=" M 5243.62,  231.25  L 5243.62,  205.75  L 5464.58,  205.75  L 5464.58,  231.25  L 5243.62,  231.25 " style="stroke-width: 1.42 ;&st7; " /><path d=" M 5369.91,  221.75  L 5369.64,  222.22  L 5369.54,  222.75  L 5369.64,  223.28  L 5369.91,  223.75  L 5370.32,  224.10  L 5370.83,  224.28  L 5371.37,  224.28  L 5371.88,  224.10  L 5372.29,  223.75  L 5372.56,  223.28  L 5372.66,  222.75  L 5372.56,  222.22  L 5372.29,  221.75  L 5371.88,  221.40  L 5371.37,  221.21  L 5370.83,  221.21  L 5370.32,  221.40  L 5369.91,  221.75  L 5370.30,  222.46  L 5370.30,  223.04  L 5370.68,  223.48  L 5371.25,  223.58  L 5371.75,  223.30  L 5371.95,  222.75  L 5371.75,  222.20  L 5371.25,  221.91  L 5370.68,  222.01  L 5371.10,  222.75 " style="stroke-width: 0.85 ;&st7; " /><path d=" M 5335.91,  213.25  L 5335.64,  213.72  L 5335.55,  214.25  L 5335.64,  214.78  L 5335.91,  215.25  L 5336.33,  215.60  L 5336.84,  215.79  L 5337.38,  215.79  L 5337.89,  215.60  L 5338.30,  215.25  L 5338.57,  214.78  L 5338.66,  214.25  L 5338.57,  213.72  L 5338.30,  213.25  L 5337.89,  212.90  L 5337.38,  212.71  L 5336.84,  212.71  L 5336.33,  212.90  L 5335.91,  213.25  L 5336.31,  213.96  L 5336.31,  214.54  L 5336.68,  214.99  L 5337.25,  215.09  L 5337.76,  214.80  L 5337.96,  214.25  L 5337.76,  213.70  L 5337.25,  213.41  L 5336.68,  213.51  L 5337.11,  214.25 " style="stroke-width: 0.85 ;&st7; " /><path d=" M 5456.09,  214.25  L 5252.12,  214.25 " style="stroke-width: 0.85 ;&st7; " /><path d=" M 5252.12,  214.25  L 5252.12,  231.25 " style="stroke-width: 0.85 ;&st7; " /><path d=" M 5337.11,  214.25  L 5337.11,  231.25 " style="stroke-width: 0.85 ;&st7; " /><path d=" M 5286.11,  222.75  L 5286.11,  231.25 " style="stroke-width: 0.85 ;&st7; " /><path d=" M 5371.10,  222.75  L 5371.10,  231.25 " style="stroke-width: 0.85 ;&st7; " /><path d=" M 5456.09,  214.25  L 5456.09,  231.25 " style="stroke-width: 0.85 ;&st7; " /><path d=" M 5422.09,  222.75  L 5286.11,  222.75 " style="stroke-width: 0.85 ;&st7; " /><path d=" M 5103.68,  235.78  C 5103.68   233.28  5101.65   231.25  5099.15   231.25 " style="stroke-width: 1.42 ;&st7; " /><path d=" M 5099.15,  231.25  C 5096.64   231.25  5094.62   233.28  5094.62   235.78 " style="stroke-width: 1.42 ;&st7; " /><path d=" M 5094.62,  235.78  C 5094.62   238.28  5096.64   240.31  5099.15   240.31 " style="stroke-width: 1.42 ;&st7; " /><path d=" M 5099.15,  240.31  C 5101.65   240.31  5103.68   238.28  5103.68   235.78 " style="stroke-width: 1.42 ;&st7; " /><path d=" M 5137.67,  235.78  C 5137.67   233.28  5135.65   231.25  5133.14   231.25 " style="stroke-width: 1.42 ;&st7; " /><path d=" M 5133.14,  231.25  C 5130.64   231.25  5128.61   233.28  5128.61   235.78 " style="stroke-width: 1.42 ;&st7; " /><path d=" M 5128.61,  235.78  C 5128.61   238.28  5130.64   240.31  5133.14   240.31 " style="stroke-width: 1.42 ;&st7; " /><path d=" M 5133.14,  240.31  C 5135.65   240.31  5137.67   238.28  5137.67   235.78 " style="stroke-width: 1.42 ;&st7; " /><path d=" M 5061.19,  235.78  C 5061.19   233.28  5059.16   231.25  5056.66   231.25 " style="stroke-width: 1.42 ;&st7; " /><path d=" M 5056.66,  231.25  C 5054.15   231.25  5052.12   233.28  5052.12   235.78 " style="stroke-width: 1.42 ;&st7; " /><path d=" M 5052.12,  235.78  C 5052.12   238.28  5054.15   240.31  5056.66   240.31 " style="stroke-width: 1.42 ;&st7; " /><path d=" M 5056.66,  240.31  C 5059.16   240.31  5061.19   238.28  5061.19   235.78 " style="stroke-width: 1.42 ;&st7; " /><path d=" M 5027.19,  235.78  C 5027.19   233.28  5025.16   231.25  5022.66   231.25 " style="stroke-width: 1.42 ;&st7; " /><path d=" M 5022.66,  231.25  C 5020.16   231.25  5018.13   233.28  5018.13   235.78 " style="stroke-width: 1.42 ;&st7; " /><path d=" M 5018.13,  235.78  C 5018.13   238.28  5020.16   240.31  5022.66   240.31 " style="stroke-width: 1.42 ;&st7; " /><path d=" M 5022.66,  240.31  C 5025.16   240.31  5027.19   238.28  5027.19   235.78 " style="stroke-width: 1.42 ;&st7; " /><path d=" M 5375.64,  235.78  C 5375.64   233.28  5373.61   231.25  5371.10   231.25 " style="stroke-width: 1.42 ;&st7; " /><path d=" M 5371.10,  231.25  C 5368.60   231.25  5366.57   233.28  5366.57   235.78 " style="stroke-width: 1.42 ;&st7; " /><path d=" M 5366.57,  235.78  C 5366.57   238.28  5368.60   240.31  5371.10   240.31 " style="stroke-width: 1.42 ;&st7; " /><path d=" M 5371.10,  240.31  C 5373.61   240.31  5375.64   238.28  5375.64   235.78 " style="stroke-width: 1.42 ;&st7; " /><path d=" M 5341.64,  235.78  C 5341.64   233.28  5339.61   231.25  5337.11   231.25 " style="stroke-width: 1.42 ;&st7; " /><path d=" M 5337.11,  231.25  C 5334.61   231.25  5332.58   233.28  5332.58   235.78 " style="stroke-width: 1.42 ;&st7; " /><path d=" M 5332.58,  235.78  C 5332.58   238.28  5334.61   240.31  5337.11   240.31 " style="stroke-width: 1.42 ;&st7; " /><path d=" M 5337.11,  240.31  C 5339.61   240.31  5341.64   238.28  5341.64   235.78 " style="stroke-width: 1.42 ;&st7; " /><path d=" M 5426.63,  235.78  C 5426.63   233.28  5424.60   231.25  5422.09   231.25 " style="stroke-width: 1.42 ;&st7; " /><path d=" M 5422.09,  231.25  C 5419.59   231.25  5417.56   233.28  5417.56   235.78 " style="stroke-width: 1.42 ;&st7; " /><path d=" M 5417.56,  235.78  C 5417.56   238.28  5419.59   240.31  5422.09   240.31 " style="stroke-width: 1.42 ;&st7; " /><path d=" M 5422.09,  240.31  C 5424.60   240.31  5426.63   238.28  5426.63   235.78 " style="stroke-width: 1.42 ;&st7; " /><path d=" M 5460.62,  235.78  C 5460.62   233.28  5458.59   231.25  5456.09   231.25 " style="stroke-width: 1.42 ;&st7; " /><path d=" M 5456.09,  231.25  C 5453.59   231.25  5451.56   233.28  5451.56   235.78 " style="stroke-width: 1.42 ;&st7; " /><path d=" M 5451.56,  235.78  C 5451.56   238.28  5453.59   240.31  5456.09   240.31 " style="stroke-width: 1.42 ;&st7; " /><path d=" M 5456.09,  240.31  C 5458.59   240.31  5460.62   238.28  5460.62   235.78 " style="stroke-width: 1.42 ;&st7; " /><path d=" M 5290.65,  235.78  C 5290.65   233.28  5288.62   231.25  5286.12   231.25 " style="stroke-width: 1.42 ;&st7; " /><path d=" M 5286.12,  231.25  C 5283.61   231.25  5281.58   233.28  5281.58   235.78 " style="stroke-width: 1.42 ;&st7; " /><path d=" M 5281.58,  235.78  C 5281.58   238.28  5283.61   240.31  5286.12   240.31 " style="stroke-width: 1.42 ;&st7; " /><path d=" M 5286.12,  240.31  C 5288.62   240.31  5290.65   238.28  5290.65   235.78 " style="stroke-width: 1.42 ;&st7; " /><path d=" M 5256.66,  235.78  C 5256.66   233.28  5254.63   231.25  5252.12   231.25 " style="stroke-width: 1.42 ;&st7; " /><path d=" M 5252.12,  231.25  C 5249.62   231.25  5247.59   233.28  5247.59   235.78 " style="stroke-width: 1.42 ;&st7; " /><path d=" M 5247.59,  235.78  C 5247.59   238.28  5249.62   240.31  5252.12   240.31 " style="stroke-width: 1.42 ;&st7; " /><path d=" M 5252.12,  240.31  C 5254.63   240.31  5256.66   238.28  5256.66   235.78 " style="stroke-width: 1.42 ;&st7; " /><text style="&st18;" transform="matrix(&st17;  5129.45  277.09 )">W</text><text style="&st18;" transform="matrix(&st17;  5095.45  276.21 )">R</text><text style="&st18;" transform="matrix(&st16;  5054.18  237.75 )">C</text><text style="&st18;" transform="matrix(&st16;  5045.78  237.75 )">2</text><text style="&st18;" transform="matrix(&st16;  5020.19  237.75 )">C</text><text style="&st18;" transform="matrix(&st16;  5012.56  237.75 )">1</text><text style="&st18;" transform="matrix(&st17;  5052.96  277.09 )">W</text><text style="&st18;" transform="matrix(&st17;  5018.96  276.07 )">P</text><text ewd:textID="31" style="&st18;" transform="matrix(&st16;  5011.64  202.05 )">Junction Connector</text><text style="&st18;" transform="matrix(&st16;  5011.64  195.23 )">I93(A),I94(B),I95(C),I109(K)</text><text style="&st18;" transform="matrix(&st16;  5096.82  237.75 )">B</text><text style="&st18;" transform="matrix(&st16;  5089.05  237.75 )">1</text><text style="&st18;" transform="matrix(&st16;  5130.81  237.75 )">B</text><text style="&st18;" transform="matrix(&st16;  5122.27  237.75 )">2</text><text style="&st18;" transform="matrix(&st17;  5030.3  282.99 )">(LHD)</text><text style="&st18;" transform="matrix(&st17;  5064.29  282.99 )">(LHD)</text><text style="&st18;" transform="matrix(&st17;  5106.78  282.99 )">(LHD)</text><text style="&st18;" transform="matrix(&st17;  5140.78  282.99 )">(LHD)</text><text style="&st18;" transform="matrix(&st17;  5367.41  268.03 )">W</text><text style="&st18;" transform="matrix(&st17;  5333.41  267.15 )">R</text><text style="&st18;" transform="matrix(&st17;  5418.4  268.6 )">W</text><text style="&st18;" transform="matrix(&st17;  5452.39  267.57 )">B</text><text style="&st18;" transform="matrix(&st17;  5282.42  268.6 )">W</text><text style="&st18;" transform="matrix(&st17;  5248.43  267.22 )">L</text><text style="&st18;" transform="matrix(&st16;  5242.02  237.75 )">1</text><text style="&st18;" transform="matrix(&st16;  5251.13  237.75 )">I</text><text style="&st18;" transform="matrix(&st16;  5275.24  237.75 )">2</text><text style="&st18;" transform="matrix(&st16;  5285.13  237.75 )">I</text><text style="&st18;" transform="matrix(&st16;  5445.99  237.75 )">1</text><text style="&st18;" transform="matrix(&st16;  5453.97  237.75 )">F</text><text style="&st18;" transform="matrix(&st16;  5411.22  237.75 )">2</text><text style="&st18;" transform="matrix(&st16;  5419.97  237.75 )">F</text><text style="&st18;" transform="matrix(&st16;  5327.01  237.75 )">1</text><text style="&st18;" transform="matrix(&st16;  5334.78  237.75 )">A</text><text style="&st18;" transform="matrix(&st16;  5360.23  237.75 )">2</text><text style="&st18;" transform="matrix(&st16;  5368.77  237.75 )">A</text><text style="&st18;" transform="matrix(&st17;  5472.2  233.77 )">I94(A),I101(F),I106(I)</text><text ewd:textID="31" style="&st18;" transform="matrix(&st17;  5479.3  233.77 )">Junction Connector</text><text style="&st18;" transform="matrix(&st17;  5344.75  274.99 )">(RHD)</text><text style="&st18;" transform="matrix(&st17;  5378.74  274.99 )">(RHD)</text><text style="&st18;" transform="matrix(&st17;  5463.73  274.99 )">(RHD)</text><text style="&st18;" transform="matrix(&st17;  5429.73  274.99 )">(RHD)</text><text style="&st18;" transform="matrix(&st17;  5293.75  274.99 )">(RHD)</text><text style="&st18;" transform="matrix(&st17;  5259.76  274.99 )">(RHD)</text><text style="&st18;" transform="matrix(&st16;  5197.02  550.5 )">W(LHD)</text><text style="&st18;" transform="matrix(&st16;  5146.03  550.5 )">W(LHD)</text><text style="&st18;" transform="matrix(&st16;  5197.9  584.49 )">R(LHD)</text><text style="&st18;" transform="matrix(&st16;  5146.91  584.49 )">R(LHD)</text><text style="&st18;" transform="matrix(&st16;  5197.9  601.49 )">L(RHD)</text><text style="&st18;" transform="matrix(&st16;  5196.52  618.48 )">W(RHD)</text><text style="&st18;" transform="matrix(&st16;  5147.05  652.48 )">P(LHD)</text><text style="&st18;" transform="matrix(&st16;  5146.03  635.48 )">W(LHD)</text><text style="&st18;" transform="matrix(&st16;  5197.02  635.48 )">W(LHD)</text><text style="&st18;" transform="matrix(&st16;  5198.04  652.48 )">P(LHD)</text><text style="&st18;" transform="matrix(&st16;  5145.53  618.48 )">W(RHD)</text><text style="&st18;" transform="matrix(&st16;  5146.91  601.49 )">L(RHD)</text><text style="&st18;" transform="matrix(&st16;  5145.53  108.57 )">W(RHD)</text><text style="&st18;" transform="matrix(&st16;  5144.23  125.57 )">BE(RHD)</text><text style="&st18;" transform="matrix(&st16;  5195.22  125.57 )">BE(RHD)</text><text style="&st18;" transform="matrix(&st16;  5196.52  108.57 )">W(RHD)</text><text ewd:textID="41" style="&st18;" transform="matrix(&st16;  5411.07  54.75 )">Power Management Control ECU</text><text style="&st18;" transform="matrix(&st16;  5411.07  47.64 )">A38(A),A39(B),I3(C),I4(D)</text></svg>