﻿<?xml version="1.0" encoding="utf-8"?>
<!DOCTYPE svg PUBLIC "-//W3C//DTD SVG 1.0//EN" "http://www.w3.org/TR/2001/REC-SVG-20010904/DTD/svg10.dtd"[
	<!ENTITY ns_flows "http://ns.adobe.com/Flows/1.0/">
	<!ENTITY ns_svg "http://www.w3.org/2000/svg">
	<!ENTITY ns_xlink "http://www.w3.org/1999/xlink">
	<!ENTITY st0 "font-size:7px;font-family:'MS-PGothic';adobe-font-script:japanese;">
	<!ENTITY st1 "font-size:6px;font-family:'ArialMT';">
	<!-- White fill  -->
	<!ENTITY st2 "fill:#FFFFFF;stroke:#000000; stroke-width:1.41;stroke-linecap:round;stroke-linejoin:round;">
	<!-- Yellow fill  -->
	<!ENTITY st3 "fill:#FFFFCC;stroke:#FFFFCC; stroke-width:0.1;stroke-linecap:round;stroke-linejoin:round;">
	<!-- Gray fill  -->
	<!ENTITY st4 "fill:#CCCCCC;stroke:#CCCCCC; stroke-width:0.1;stroke-linecap:round;stroke-linejoin:round;">
	<!-- Light-blue fill -->
	<!ENTITY st5 "fill:#CCECF4;stroke:#000000; stroke-width:1.133;stroke-linecap:round;stroke-linejoin:round;">
	<!ENTITY st6 "fill:none;stroke-linecap:butt; stroke-linejoin:round;">
	<!ENTITY st7 "fill:none;stroke:#000000;stroke-linecap:round;stroke-linejoin:round;">
	<!ENTITY st8 "enable-background:new    ;">
	<!-- Black fill -->
	<!ENTITY st9 "fill:#000000;stroke:#000000; stroke-linecap:round;stroke-linejoin:round;">
	<!-- SRS note   -->
	<!ENTITY st10 "font-size:9px;font-family:'ArialMT';">
	<!ENTITY st11 "font-size:9px;font-family:'Svg Symbol';">
	<!ENTITY st12 "font-size:6px;font-family:'Svg Symbol';">
	<!ENTITY st13 "fill:none;stroke:#ff0000;stroke-linecap:round;stroke-linejoin:round;">
	<!-- Yellow fill  -->
	<!ENTITY st14 "fill:#FFFF00;stroke:#FFFF00; stroke-width:0.1;stroke-linecap:round;stroke-linejoin:round;">
	<!ENTITY st15 "font-size:6px;font-family:'MS-PGothic';adobe-font-script:japanese;">
	<!ENTITY st16 "1.00 0.00 0.00 1.00">
	<!ENTITY st17 "0.00 -1.00 1.00 0.00">
	<!ENTITY st18 "font-size:6px;font-family:'Arial';">
	<!ENTITY st19 "font-size:9px;font-family:'Arial';">
	<!ENTITY st20 "font-size:6px;font-family:'MS-PGothic','MS PGothic';adobe-font-script:japanese;">
	<!ENTITY st21 "font-size:7px;font-family:'MS-PGothic','MS PGothic';adobe-font-script:japanese;">
	<!ATTLIST svg
		xmlns:ewd CDATA #FIXED "http://shcl.co.jp/ewd"
		xmlns:a CDATA #FIXED "http://ns.adobe.com/AdobeSVGViewerExtensions/3.0/"
		ewd:ver CDATA #IMPLIED
	>
	<!ATTLIST a
		ewd:lineID CDATA #IMPLIED
		ewd:groupID CDATA #IMPLIED
		ewd:figtype CDATA #IMPLIED
		ewd:code CDATA #IMPLIED
		ewd:figID CDATA #IMPLIED
		ewd:pinNo CDATA #IMPLIED
		ewd:comment CDATA #IMPLIED >
	<!ATTLIST g
		ewd:lineID CDATA #IMPLIED
		ewd:groupID CDATA #IMPLIED
		ewd:figtype CDATA #IMPLIED
		ewd:code CDATA #IMPLIED
		ewd:figID CDATA #IMPLIED
		ewd:pinNo CDATA #IMPLIED
		ewd:comment CDATA #IMPLIED >
	<!ATTLIST text
		ewd:textID CDATA #IMPLIED >
	<!ATTLIST title
		ewd:textID CDATA #IMPLIED >
]>
<!-- Generator: Shintec Hozumi YS   -->
<svg onload="call_execInitLoadProc_svg('system')" style="overflow:visible;  enable-background:new 0 0 3434.135 710.000" viewBox="0 0 3434.135 710.000" height="710.000" width="3434.135" xml:space="preserve" ewd:ver="L2.1.2.8" xmlns="&ns_svg;" xmlns:a="http://ns.adobe.com/AdobeSVGViewerExtensions/3.0/" xmlns:ewd="http://shcl.co.jp/ewd" xmlns:xlink="&ns_xlink;">
<path d=" M 1750.71,  299.24  L 1759.21,  299.24 " style="stroke-width: 1.42 ;&st7; " /><path d=" M 1674.22,  605.18  L 1665.72,  605.18 " style="stroke-width: 1.42 ;&st7; " /><path d=" M 1657.22,  299.24  L 1665.72,  299.24 " style="stroke-width: 1.42 ;&st7; " /><path d=" M 1767.70,  605.18  L 1759.21,  605.18 " style="stroke-width: 1.42 ;&st7; " /><path d=" M 1767.70,  256.74  L 1759.21,  256.74 " style="stroke-width: 1.42 ;&st7; " /><path d=" M 1861.19,  605.18  L 1852.69,  605.18 " style="stroke-width: 1.42 ;&st7; " /><path d=" M 1514.87,  129.26  L 1510.62,  129.26 " style="stroke-width: 1.42 ;&st7; " /><path d=" M 1514.87,  137.76  L 1510.62,  137.76 " style="stroke-width: 1.42 ;&st7; " /><path d=" M 1512.75,  436.63  L 1518.41,  413.97 " style="stroke-width: 1.42 ;&st7; " /><path d=" M 1512.75,  443.71  L 1512.75,  439.46 " style="stroke-width: 0.85 ;&st7; " /><path d=" M 1512.75,  413.97  L 1512.75,  409.72 " style="stroke-width: 0.85 ;&st7; " /><path d=" M 1861.19,  256.74  L 1852.69,  256.74 " style="stroke-width: 1.42 ;&st7; " /><path d=" M 1504.25,  248.24  L 1512.75,  248.24 " style="stroke-width: 1.42 ;&st7; " /><path d=" M 1521.25,  516.67  L 1516.27,  511.70 " style="stroke-width: 1.42 ;&st7; " /><path d=" M 1504.25,  523.73  L 1509.22,  528.70 " style="stroke-width: 1.42 ;&st7; " /><path d=" M 1516.27,  528.70  L 1521.25,  523.73 " style="stroke-width: 1.42 ;&st7; " /><path d=" M 1509.22,  511.70  L 1504.25,  516.67 " style="stroke-width: 1.42 ;&st7; " /><path d=" M 1937.68,  299.24  L 1946.17,  299.24 " style="stroke-width: 1.42 ;&st7; " /><path d=" M 1844.19,  299.24  L 1852.69,  299.24 " style="stroke-width: 1.42 ;&st7; " /><path d=" M 1662.19,  537.20  L 1657.22,  542.17 " style="stroke-width: 1.42 ;&st7; " /><path d=" M 1669.25,  554.19  L 1674.22,  549.22 " style="stroke-width: 1.42 ;&st7; " /><path d=" M 1657.22,  549.22  L 1662.19,  554.19 " style="stroke-width: 1.42 ;&st7; " /><path d=" M 1674.22,  542.17  L 1669.25,  537.20 " style="stroke-width: 1.42 ;&st7; " /><path d=" M 1954.67,  542.17  L 1949.70,  537.20 " style="stroke-width: 1.42 ;&st7; " /><path d=" M 1937.68,  549.22  L 1942.65,  554.19 " style="stroke-width: 1.42 ;&st7; " /><path d=" M 1949.70,  554.19  L 1954.67,  549.22 " style="stroke-width: 1.42 ;&st7; " /><path d=" M 1942.65,  537.20  L 1937.68,  542.17 " style="stroke-width: 1.42 ;&st7; " /><path d=" M 1954.67,  613.68  L 1946.17,  613.68 " style="stroke-width: 1.42 ;&st7; " /><path d=" M 1669.97,  375.72  L 1661.47,  375.72 " style="stroke-width: 0.85 ;&st7; " /><path d=" M 1763.46,  375.72  L 1754.96,  375.72 " style="stroke-width: 0.85 ;&st7; " /><path d=" M 1856.94,  375.72  L 1848.44,  375.72 " style="stroke-width: 0.85 ;&st7; " /><path d=" M 1950.42,  375.72  L 1941.93,  375.72 " style="stroke-width: 0.85 ;&st7; " /><path d=" M 1686.97,  426.71  L 1678.47,  426.71 " style="stroke-width: 0.85 ;&st7; " /><path d=" M 1695.45,  417.05  L 1688.09,  421.30 " style="stroke-width: 0.85 ;&st7; " /><path d=" M 1690.10,  424.77  L 1697.46,  420.52 " style="stroke-width: 0.85 ;&st7; " /><path d=" M 1780.45,  426.71  L 1771.95,  426.71 " style="stroke-width: 0.85 ;&st7; " /><path d=" M 1788.94,  417.05  L 1781.57,  421.30 " style="stroke-width: 0.85 ;&st7; " /><path d=" M 1783.58,  424.77  L 1790.94,  420.52 " style="stroke-width: 0.85 ;&st7; " /><path d=" M 1873.94,  426.71  L 1865.44,  426.71 " style="stroke-width: 0.85 ;&st7; " /><path d=" M 1882.42,  417.05  L 1875.06,  421.30 " style="stroke-width: 0.85 ;&st7; " /><path d=" M 1877.06,  424.77  L 1884.42,  420.52 " style="stroke-width: 0.85 ;&st7; " /><path d=" M 1967.42,  426.71  L 1958.92,  426.71 " style="stroke-width: 0.85 ;&st7; " /><path d=" M 1975.91,  417.05  L 1968.54,  421.30 " style="stroke-width: 0.85 ;&st7; " /><path d=" M 1970.55,  424.77  L 1977.91,  420.52 " style="stroke-width: 0.85 ;&st7; " /><path d=" M 1742.21,  418.22  L 1747.87,  426.71  L 1736.54,  426.71  L 1742.21,  418.22 " style="stroke-width: 0.28 ;&st9;" /><path d=" M 1841.36,  420.83  L 1839.61,  418.22  L 1831.77,  418.22  L 1830.03,  415.60 " style="stroke-width: 0.85 ;&st7; " /><path d=" M 1835.69,  418.22  L 1841.36,  426.71  L 1830.03,  426.71  L 1835.69,  418.22 " style="stroke-width: 0.28 ;&st9;" /><path d=" M 1934.84,  420.83  L 1933.10,  418.22  L 1925.26,  418.22  L 1923.51,  415.60 " style="stroke-width: 0.85 ;&st7; " /><path d=" M 1929.18,  418.22  L 1934.84,  426.71  L 1923.51,  426.71  L 1929.18,  418.22 " style="stroke-width: 0.28 ;&st9;" /><path d=" M 1977.91,  420.52  L 1975.57,  423.56  L 1974.11,  421.02  L 1977.91,  420.52  L 1976.62,  421.26  L 1975.64,  422.54  L 1975.02,  421.47  L 1976.62,  421.26  L 1975.98,  421.63  L 1975.67,  422.03  L 1975.48,  421.70  L 1975.98,  421.63 " style="stroke-width: 0.85 ;&st7; " /><path d=" M 1975.90,  417.05  L 1973.57,  420.09  L 1972.10,  417.55  L 1975.90,  417.05  L 1974.62,  417.79  L 1973.64,  419.07  L 1973.02,  418.00  L 1974.62,  417.79  L 1973.98,  418.16  L 1973.67,  418.56  L 1973.47,  418.23  L 1973.98,  418.16 " style="stroke-width: 0.85 ;&st7; " /><path d=" M 1963.17,  426.71  L 1957.51,  418.22  L 1968.84,  418.22  L 1963.17,  426.71 " style="stroke-width: 0.28 ;&st9;" /><path d=" M 1662.89,  707.17  L 1668.55,  707.17 " style="stroke-width: 0.85 ;&st7; " /><path d=" M 1664.30,  710.00  L 1667.14,  710.00 " style="stroke-width: 0.85 ;&st7; " /><path d=" M 1657.22,  701.50  L 1674.22,  701.50 " style="stroke-width: 0.85 ;&st7; " /><path d=" M 1665.72,  697.25  L 1665.72,  701.50 " style="stroke-width: 0.85 ;&st7; " /><path d=" M 1661.47,  704.33  L 1669.97,  704.33 " style="stroke-width: 0.85 ;&st7; " /><path d=" M 1884.42,  420.52  L 1882.09,  423.56  L 1880.62,  421.02  L 1884.42,  420.52  L 1883.14,  421.26  L 1882.16,  422.54  L 1881.54,  421.47  L 1883.14,  421.26  L 1882.50,  421.63  L 1882.19,  422.03  L 1882.00,  421.70  L 1882.50,  421.63 " style="stroke-width: 0.85 ;&st7; " /><path d=" M 1882.42,  417.05  L 1880.09,  420.09  L 1878.62,  417.55  L 1882.42,  417.05  L 1881.14,  417.79  L 1880.15,  419.07  L 1879.53,  418.00  L 1881.14,  417.79  L 1880.50,  418.16  L 1880.19,  418.56  L 1879.99,  418.23  L 1880.50,  418.16 " style="stroke-width: 0.85 ;&st7; " /><path d=" M 1669.97,  614.25  L 1665.72,  610.00  L 1661.47,  614.25 " style="stroke-width: 1.42 ;&st7; " /><path d=" M 1669.97,  610.85  L 1665.72,  606.60  L 1661.47,  610.85 " style="stroke-width: 1.42 ;&st7; " /><path d=" M 1756.37,  707.17  L 1762.04,  707.17 " style="stroke-width: 0.85 ;&st7; " /><path d=" M 1757.79,  710.00  L 1760.62,  710.00 " style="stroke-width: 0.85 ;&st7; " /><path d=" M 1750.71,  701.50  L 1767.70,  701.50 " style="stroke-width: 0.85 ;&st7; " /><path d=" M 1759.21,  697.25  L 1759.21,  701.50 " style="stroke-width: 0.85 ;&st7; " /><path d=" M 1754.96,  704.33  L 1763.45,  704.33 " style="stroke-width: 0.85 ;&st7; " /><path d=" M 1669.97,  293.57  L 1665.72,  297.82  L 1661.47,  293.57 " style="stroke-width: 1.42 ;&st7; " /><path d=" M 1661.47,  290.17  L 1665.72,  294.42  L 1669.97,  290.17 " style="stroke-width: 1.42 ;&st7; " /><path d=" M 1869.69,  426.71  L 1864.02,  418.22  L 1875.35,  418.22  L 1869.69,  426.71 " style="stroke-width: 0.28 ;&st9;" /><path d=" M 1790.94,  420.52  L 1788.60,  423.56  L 1787.14,  421.02  L 1790.94,  420.52  L 1789.66,  421.26  L 1788.67,  422.54  L 1788.05,  421.47  L 1789.66,  421.26  L 1789.02,  421.63  L 1788.70,  422.03  L 1788.51,  421.70  L 1789.02,  421.63 " style="stroke-width: 0.85 ;&st7; " /><path d=" M 1763.45,  614.25  L 1759.21,  610.00  L 1754.96,  614.25 " style="stroke-width: 1.42 ;&st7; " /><path d=" M 1763.45,  610.85  L 1759.21,  606.60  L 1754.96,  610.85 " style="stroke-width: 1.42 ;&st7; " /><path d=" M 1788.94,  417.05  L 1786.60,  420.09  L 1785.13,  417.55  L 1788.94,  417.05  L 1787.65,  417.79  L 1786.67,  419.07  L 1786.05,  418.00  L 1787.65,  417.79  L 1787.01,  418.16  L 1786.70,  418.56  L 1786.51,  418.23  L 1787.01,  418.16 " style="stroke-width: 0.85 ;&st7; " /><path d=" M 1763.45,  265.81  L 1759.21,  261.56  L 1754.96,  265.81 " style="stroke-width: 1.42 ;&st7; " /><path d=" M 1763.45,  262.41  L 1759.21,  258.16  L 1754.96,  262.41 " style="stroke-width: 1.42 ;&st7; " /><path d=" M 1937.68,  701.50  L 1954.67,  701.50 " style="stroke-width: 0.85 ;&st7; " /><path d=" M 1849.86,  707.17  L 1855.52,  707.17 " style="stroke-width: 0.85 ;&st7; " /><path d=" M 1851.27,  710.00  L 1854.11,  710.00 " style="stroke-width: 0.85 ;&st7; " /><path d=" M 1844.19,  701.50  L 1861.19,  701.50 " style="stroke-width: 0.85 ;&st7; " /><path d=" M 1852.69,  697.25  L 1852.69,  701.50 " style="stroke-width: 0.85 ;&st7; " /><path d=" M 1848.44,  704.33  L 1856.94,  704.33 " style="stroke-width: 0.85 ;&st7; " /><path d=" M 1776.20,  426.71  L 1770.54,  418.22  L 1781.87,  418.22  L 1776.20,  426.71 " style="stroke-width: 0.28 ;&st9;" /><path d=" M 1697.45,  420.52  L 1695.12,  423.56  L 1693.65,  421.02  L 1697.45,  420.52  L 1696.17,  421.26  L 1695.19,  422.54  L 1694.57,  421.47  L 1696.17,  421.26  L 1695.53,  421.63  L 1695.22,  422.03  L 1695.03,  421.70  L 1695.53,  421.63 " style="stroke-width: 0.85 ;&st7; " /><path d=" M 1856.94,  614.25  L 1852.69,  610.00  L 1848.44,  614.25 " style="stroke-width: 1.42 ;&st7; " /><path d=" M 1856.94,  610.85  L 1852.69,  606.60  L 1848.44,  610.85 " style="stroke-width: 1.42 ;&st7; " /><path d=" M 1695.45,  417.05  L 1693.12,  420.09  L 1691.65,  417.55  L 1695.45,  417.05  L 1694.17,  417.79  L 1693.18,  419.07  L 1692.57,  418.00  L 1694.17,  417.79  L 1693.53,  418.16  L 1693.22,  418.56  L 1693.02,  418.23  L 1693.53,  418.16 " style="stroke-width: 0.85 ;&st7; " /><path d=" M 1944.76,  710.00  L 1947.59,  710.00 " style="stroke-width: 0.85 ;&st7; " /><path d=" M 1943.34,  707.17  L 1949.01,  707.17 " style="stroke-width: 0.85 ;&st7; " /><path d=" M 1946.17,  697.25  L 1946.17,  701.50 " style="stroke-width: 0.85 ;&st7; " /><path d=" M 1941.92,  704.33  L 1950.42,  704.33 " style="stroke-width: 0.85 ;&st7; " /><path d=" M 1682.72,  426.71  L 1677.05,  418.22  L 1688.38,  418.22  L 1682.72,  426.71 " style="stroke-width: 0.28 ;&st9;" /><path d=" M 1654.39,  420.83  L 1652.64,  418.22  L 1644.80,  418.22  L 1643.06,  415.60 " style="stroke-width: 0.85 ;&st7; " /><path d=" M 1648.72,  418.22  L 1654.39,  426.71  L 1643.06,  426.71  L 1648.72,  418.22 " style="stroke-width: 0.28 ;&st9;" /><path d=" M 1665.72,  350.23  L 1665.72,  384.22  L 1668.55,  385.64  L 1662.89,  388.47  L 1668.55,  391.30  L 1662.89,  394.14  L 1668.55,  396.97  L 1662.89,  399.80  L 1665.72,  401.22  L 1665.72,  409.72 " style="stroke-width: 0.85 ;&st7; " /><path d=" M 1759.21,  409.72  L 1759.21,  401.22  L 1756.37,  399.80  L 1762.04,  396.97  L 1756.37,  394.14  L 1762.04,  391.30  L 1756.37,  388.47  L 1762.04,  385.64  L 1759.21,  384.22  L 1759.21,  350.23 " style="stroke-width: 0.85 ;&st7; " /><path d=" M 1852.69,  409.72  L 1852.69,  401.22  L 1849.86,  399.80  L 1855.52,  396.97  L 1849.86,  394.14  L 1855.52,  391.30  L 1849.86,  388.47  L 1855.52,  385.64  L 1852.69,  384.22  L 1852.69,  350.23 " style="stroke-width: 0.85 ;&st7; " /><path d=" M 1946.17,  409.72  L 1946.17,  401.22  L 1943.34,  399.80  L 1949.01,  396.97  L 1943.34,  394.14  L 1949.01,  391.30  L 1943.34,  388.47  L 1949.01,  385.64  L 1946.17,  384.22  L 1946.17,  350.23 " style="stroke-width: 0.85 ;&st7; " /><path d=" M 1946.17,  375.72  L 1940.51,  367.22  L 1951.84,  367.22  L 1946.17,  375.72 " style="stroke-width: 0.28 ;&st9;" /><path d=" M 1852.69,  375.72  L 1847.02,  367.22  L 1858.36,  367.22  L 1852.69,  375.72 " style="stroke-width: 0.28 ;&st9;" /><path d=" M 1759.21,  375.72  L 1753.54,  367.22  L 1764.87,  367.22  L 1759.21,  375.72 " style="stroke-width: 0.28 ;&st9;" /><path d=" M 1512.75,  124.37  L 1509.91,  121.54  L 1509.91,  125.79  L 1512.75,  128.62  L 1515.58,  125.79  L 1515.58,  121.54  L 1512.75,  124.37 " style="stroke-width: 0.28 ;&st9;" /><path d=" M 1512.75,   78.27  L 1512.75,  129.26 " style="stroke-width: 0.85 ;&st7; " /><path d=" M 1512.75,  697.25  L 1512.75,  701.50 " style="stroke-width: 0.85 ;&st7; " /><path d=" M 1504.25,  701.50  L 1521.25,  701.50 " style="stroke-width: 0.85 ;&st7; " /><path d=" M 1508.50,  704.33  L 1517.00,  704.33 " style="stroke-width: 0.85 ;&st7; " /><path d=" M 1509.91,  707.17  L 1515.58,  707.17 " style="stroke-width: 0.85 ;&st7; " /><path d=" M 1511.33,  710.00  L 1514.16,  710.00 " style="stroke-width: 0.85 ;&st7; " /><path d=" M 1517.00,  242.58  L 1512.75,  246.83  L 1508.50,  242.58 " style="stroke-width: 1.42 ;&st7; " /><path d=" M 1508.50,  239.18  L 1512.75,  243.43  L 1517.00,  239.18 " style="stroke-width: 1.42 ;&st7; " /><path d=" M 1856.94,  265.81  L 1852.69,  261.56  L 1848.44,  265.81 " style="stroke-width: 1.42 ;&st7; " /><path d=" M 1856.94,  262.41  L 1852.69,  258.16  L 1848.44,  262.41 " style="stroke-width: 1.42 ;&st7; " /><path d=" M 1950.42,  293.57  L 1946.17,  297.82  L 1941.92,  293.57 " style="stroke-width: 1.42 ;&st7; " /><path d=" M 1941.92,  290.17  L 1946.17,  294.42  L 1950.42,  290.17 " style="stroke-width: 1.42 ;&st7; " /><path d=" M 1848.44,  290.17  L 1852.69,  294.42  L 1856.94,  290.17 " style="stroke-width: 1.42 ;&st7; " /><path d=" M 1856.94,  293.57  L 1852.69,  297.82  L 1848.44,  293.57 " style="stroke-width: 1.42 ;&st7; " /><path d=" M 1763.45,  293.57  L 1759.21,  297.82  L 1754.96,  293.57 " style="stroke-width: 1.42 ;&st7; " /><path d=" M 1754.96,  290.17  L 1759.21,  294.42  L 1763.45,  290.17 " style="stroke-width: 1.42 ;&st7; " /><path d=" M 1665.72,  375.72  L 1660.06,  367.22  L 1671.39,  367.22  L 1665.72,  375.72 " style="stroke-width: 0.28 ;&st9;" /><path d=" M 1912.18,  350.23  L 1912.18,  469.21  L 1980.17,  469.21  L 1980.17,  350.23  L 1912.18,  350.23 " style="stroke-width: 1.42 ;&st7; " /><path d=" M 1950.42,  619.35  L 1946.17,  615.10  L 1941.92,  619.35 " style="stroke-width: 1.42 ;&st7; " /><path d=" M 1950.42,  622.75  L 1946.17,  618.50  L 1941.92,  622.75 " style="stroke-width: 1.42 ;&st7; " /><path d=" M 1818.70,  350.23  L 1818.70,  469.21  L 1886.68,  469.21  L 1886.68,  350.23  L 1818.70,  350.23 " style="stroke-width: 1.42 ;&st7; " /><path d=" M 1725.21,  350.23  L 1725.21,  469.21  L 1793.20,  469.21  L 1793.20,  350.23  L 1725.21,  350.23 " style="stroke-width: 1.42 ;&st7; " /><path d=" M 1631.73,  350.23  L 1631.73,  469.21  L 1699.72,  469.21  L 1699.72,  350.23  L 1631.73,  350.23 " style="stroke-width: 1.42 ;&st7; " /><path d=" M 1512.75,  392.72  L 1512.75,  409.72 " style="stroke-width: 0.85 ;&st7; " /><path d=" M 1747.87,  420.83  L 1746.13,  418.22  L 1738.29,  418.22  L 1736.55,  415.60 " style="stroke-width: 0.85 ;&st7; " /><path d=" M 1665.72,  409.72  L 1648.72,  409.72  L 1648.72,  435.21  L 1665.72,  435.21 " style="stroke-width: 0.85 ;&st7; " /><path d=" M 1665.72,  409.72  L 1682.72,  409.72  L 1682.72,  435.21  L 1665.72,  435.21 " style="stroke-width: 0.85 ;&st7; " /><path d=" M 1852.69,  409.72  L 1835.69,  409.72  L 1835.69,  435.21  L 1852.69,  435.21 " style="stroke-width: 0.85 ;&st7; " /><path d=" M 1852.69,  409.72  L 1869.69,  409.72  L 1869.69,  435.21  L 1852.69,  435.21 " style="stroke-width: 0.85 ;&st7; " /><path d=" M 1946.17,  435.21  L 1946.17,  443.71  L 1949.01,  445.13  L 1943.34,  447.96  L 1949.01,  450.79  L 1943.34,  453.63  L 1949.01,  456.46  L 1943.34,  459.29  L 1946.17,  460.71  L 1946.17,  469.21 " style="stroke-width: 0.85 ;&st7; " /><path d=" M 1759.21,  409.72  L 1776.20,  409.72  L 1776.20,  435.21  L 1759.21,  435.21 " style="stroke-width: 0.85 ;&st7; " /><path d=" M 1759.21,  409.72  L 1742.21,  409.72  L 1742.21,  435.21  L 1759.21,  435.21 " style="stroke-width: 0.85 ;&st7; " /><path d=" M 1946.17,  409.72  L 1929.18,  409.72  L 1929.18,  435.21  L 1946.17,  435.21 " style="stroke-width: 0.85 ;&st7; " /><path d=" M 1946.17,  409.72  L 1963.17,  409.72  L 1963.17,  435.21  L 1946.17,  435.21 " style="stroke-width: 0.85 ;&st7; " /><path d=" M 1851.50,  434.21  L 1851.23,  434.68  L 1851.13,  435.21  L 1851.23,  435.75  L 1851.50,  436.22  L 1851.91,  436.56  L 1852.42,  436.75  L 1852.96,  436.75  L 1853.47,  436.56  L 1853.88,  436.22  L 1854.15,  435.75  L 1854.25,  435.21  L 1854.15,  434.68  L 1853.88,  434.21  L 1853.47,  433.86  L 1852.96,  433.68  L 1852.42,  433.68  L 1851.91,  433.86  L 1851.50,  434.21  L 1851.89,  434.92  L 1851.89,  435.50  L 1852.26,  435.95  L 1852.84,  436.05  L 1853.34,  435.76  L 1853.54,  435.21  L 1853.34,  434.67  L 1852.84,  434.38  L 1852.26,  434.48  L 1852.69,  435.21 " style="stroke-width: 0.85 ;&st7; " /><path d=" M 1944.98,  434.21  L 1944.71,  434.68  L 1944.62,  435.21  L 1944.71,  435.75  L 1944.98,  436.22  L 1945.39,  436.56  L 1945.90,  436.75  L 1946.45,  436.75  L 1946.95,  436.56  L 1947.37,  436.22  L 1947.64,  435.75  L 1947.73,  435.21  L 1947.64,  434.68  L 1947.37,  434.21  L 1946.95,  433.86  L 1946.45,  433.68  L 1945.90,  433.68  L 1945.39,  433.86  L 1944.98,  434.21  L 1945.38,  434.92  L 1945.38,  435.50  L 1945.75,  435.95  L 1946.32,  436.05  L 1946.83,  435.76  L 1947.02,  435.21  L 1946.83,  434.67  L 1946.32,  434.38  L 1945.75,  434.48  L 1946.17,  435.21 " style="stroke-width: 0.85 ;&st7; " /><path d=" M 1758.01,  434.21  L 1757.74,  434.68  L 1757.65,  435.21  L 1757.74,  435.75  L 1758.01,  436.22  L 1758.43,  436.56  L 1758.93,  436.75  L 1759.48,  436.75  L 1759.98,  436.56  L 1760.40,  436.22  L 1760.67,  435.75  L 1760.76,  435.21  L 1760.67,  434.68  L 1760.40,  434.21  L 1759.98,  433.86  L 1759.48,  433.68  L 1758.93,  433.68  L 1758.43,  433.86  L 1758.01,  434.21  L 1758.41,  434.92  L 1758.41,  435.50  L 1758.78,  435.95  L 1759.35,  436.05  L 1759.86,  435.76  L 1760.06,  435.21  L 1759.86,  434.67  L 1759.35,  434.38  L 1758.78,  434.48  L 1759.21,  435.21 " style="stroke-width: 0.85 ;&st7; " /><path d=" M 1664.53,  434.21  L 1664.26,  434.68  L 1664.16,  435.21  L 1664.26,  435.75  L 1664.53,  436.22  L 1664.94,  436.56  L 1665.45,  436.75  L 1665.99,  436.75  L 1666.50,  436.56  L 1666.91,  436.22  L 1667.19,  435.75  L 1667.28,  435.21  L 1667.19,  434.68  L 1666.91,  434.21  L 1666.50,  433.86  L 1665.99,  433.68  L 1665.45,  433.68  L 1664.94,  433.86  L 1664.53,  434.21  L 1664.92,  434.92  L 1664.92,  435.50  L 1665.30,  435.95  L 1665.87,  436.05  L 1666.37,  435.76  L 1666.57,  435.21  L 1666.37,  434.67  L 1665.87,  434.38  L 1665.30,  434.48  L 1665.72,  435.21 " style="stroke-width: 0.85 ;&st7; " /><path d=" M 1852.69,  435.21  L 1852.69,  443.71  L 1855.52,  445.13  L 1849.86,  447.96  L 1855.52,  450.79  L 1849.86,  453.63  L 1855.52,  456.46  L 1849.86,  459.29  L 1852.69,  460.71  L 1852.69,  469.21 " style="stroke-width: 0.85 ;&st7; " /><path d=" M 1759.21,  435.21  L 1759.21,  443.71  L 1762.04,  445.13  L 1756.37,  447.96  L 1762.04,  450.79  L 1756.37,  453.63  L 1762.04,  456.46  L 1756.37,  459.29  L 1759.21,  460.71  L 1759.21,  469.21 " style="stroke-width: 0.85 ;&st7; " /><path d=" M 1665.72,  435.21  L 1665.72,  443.71  L 1668.55,  445.13  L 1662.89,  447.96  L 1668.55,  450.79  L 1662.89,  453.63  L 1668.55,  456.46  L 1662.89,  459.29  L 1665.72,  460.71  L 1665.72,  469.21 " style="stroke-width: 0.85 ;&st7; " /><path d=" M 1944.98,  408.71  L 1944.71,  409.18  L 1944.62,  409.72  L 1944.71,  410.25  L 1944.98,  410.72  L 1945.39,  411.07  L 1945.90,  411.25  L 1946.45,  411.25  L 1946.95,  411.07  L 1947.37,  410.72  L 1947.64,  410.25  L 1947.73,  409.72  L 1947.64,  409.18  L 1947.37,  408.71  L 1946.95,  408.37  L 1946.45,  408.18  L 1945.90,  408.18  L 1945.39,  408.37  L 1944.98,  408.71  L 1945.38,  409.43  L 1945.38,  410.01  L 1945.75,  410.45  L 1946.32,  410.55  L 1946.83,  410.26  L 1947.02,  409.72  L 1946.83,  409.17  L 1946.32,  408.88  L 1945.75,  408.98  L 1946.17,  409.72 " style="stroke-width: 0.85 ;&st7; " /><path d=" M 1851.50,  408.71  L 1851.23,  409.18  L 1851.13,  409.72  L 1851.23,  410.25  L 1851.50,  410.72  L 1851.91,  411.07  L 1852.42,  411.25  L 1852.96,  411.25  L 1853.47,  411.07  L 1853.88,  410.72  L 1854.15,  410.25  L 1854.25,  409.72  L 1854.15,  409.18  L 1853.88,  408.71  L 1853.47,  408.37  L 1852.96,  408.18  L 1852.42,  408.18  L 1851.91,  408.37  L 1851.50,  408.71  L 1851.89,  409.43  L 1851.89,  410.01  L 1852.26,  410.45  L 1852.84,  410.55  L 1853.34,  410.26  L 1853.54,  409.72  L 1853.34,  409.17  L 1852.84,  408.88  L 1852.26,  408.98  L 1852.69,  409.72 " style="stroke-width: 0.85 ;&st7; " /><path d=" M 1758.01,  408.71  L 1757.74,  409.18  L 1757.65,  409.72  L 1757.74,  410.25  L 1758.01,  410.72  L 1758.43,  411.07  L 1758.93,  411.25  L 1759.48,  411.25  L 1759.98,  411.07  L 1760.40,  410.72  L 1760.67,  410.25  L 1760.76,  409.72  L 1760.67,  409.18  L 1760.40,  408.71  L 1759.98,  408.37  L 1759.48,  408.18  L 1758.93,  408.18  L 1758.43,  408.37  L 1758.01,  408.71  L 1758.41,  409.43  L 1758.41,  410.01  L 1758.78,  410.45  L 1759.35,  410.55  L 1759.86,  410.26  L 1760.06,  409.72  L 1759.86,  409.17  L 1759.35,  408.88  L 1758.78,  408.98  L 1759.21,  409.72 " style="stroke-width: 0.85 ;&st7; " /><path d=" M 1664.53,  408.71  L 1664.26,  409.18  L 1664.16,  409.72  L 1664.26,  410.25  L 1664.53,  410.72  L 1664.94,  411.07  L 1665.45,  411.25  L 1665.99,  411.25  L 1666.50,  411.07  L 1666.91,  410.72  L 1667.19,  410.25  L 1667.28,  409.72  L 1667.19,  409.18  L 1666.91,  408.71  L 1666.50,  408.37  L 1665.99,  408.18  L 1665.45,  408.18  L 1664.94,  408.37  L 1664.53,  408.71  L 1664.92,  409.43  L 1664.92,  410.01  L 1665.30,  410.45  L 1665.87,  410.55  L 1666.37,  410.26  L 1666.57,  409.72  L 1666.37,  409.17  L 1665.87,  408.88  L 1665.30,  408.98  L 1665.72,  409.72 " style="stroke-width: 0.85 ;&st7; " /><path d=" M 1512.75,  443.71  L 1512.75,  460.71 " style="stroke-width: 0.85 ;&st7; " /><path d=" M 1665.72,  154.76  L 1665.72,  171.76 " style="stroke-width: 0.85 ;&st7; " /><path d=" M 1657.22,  154.76  L 1954.67,  154.76  L 1954.67,  171.76  L 1657.22,  171.76  L 1657.22,  154.76 " style="stroke-width: 1.42 ;&st7; " /><path d=" M 1665.72,  163.26  L 1946.17,  163.26  L 1946.17,  171.76 " style="stroke-width: 0.85 ;&st7; " /><path d=" M 1759.21,  163.26  L 1759.21,  171.76 " style="stroke-width: 0.85 ;&st7; " /><path d=" M 1664.53,  162.26  L 1664.26,  162.73  L 1664.16,  163.26  L 1664.26,  163.79  L 1664.53,  164.26  L 1664.94,  164.61  L 1665.45,  164.79  L 1665.99,  164.79  L 1666.50,  164.61  L 1666.91,  164.26  L 1667.19,  163.79  L 1667.28,  163.26  L 1667.19,  162.73  L 1666.91,  162.26  L 1666.50,  161.91  L 1665.99,  161.72  L 1665.45,  161.72  L 1664.94,  161.91  L 1664.53,  162.26  L 1664.92,  162.97  L 1664.92,  163.55  L 1665.30,  163.99  L 1665.87,  164.09  L 1666.37,  163.80  L 1666.57,  163.26  L 1666.37,  162.71  L 1665.87,  162.42  L 1665.30,  162.52  L 1665.72,  163.26 " style="stroke-width: 0.85 ;&st7; " /><path d=" M 1758.01,  162.26  L 1757.74,  162.73  L 1757.65,  163.26  L 1757.74,  163.79  L 1758.01,  164.26  L 1758.43,  164.61  L 1758.93,  164.79  L 1759.48,  164.79  L 1759.98,  164.61  L 1760.40,  164.26  L 1760.67,  163.79  L 1760.76,  163.26  L 1760.67,  162.73  L 1760.40,  162.26  L 1759.98,  161.91  L 1759.48,  161.72  L 1758.93,  161.72  L 1758.43,  161.91  L 1758.01,  162.26  L 1758.41,  162.97  L 1758.41,  163.55  L 1758.78,  163.99  L 1759.35,  164.09  L 1759.86,  163.80  L 1760.06,  163.26  L 1759.86,  162.71  L 1759.35,  162.42  L 1758.78,  162.52  L 1759.21,  163.26 " style="stroke-width: 0.85 ;&st7; " /><path d=" M 1852.69,  163.26  L 1852.69,  171.76 " style="stroke-width: 0.85 ;&st7; " /><path d=" M 1851.50,  162.26  L 1851.23,  162.73  L 1851.13,  163.26  L 1851.23,  163.79  L 1851.50,  164.26  L 1851.91,  164.61  L 1852.42,  164.79  L 1852.96,  164.79  L 1853.47,  164.61  L 1853.88,  164.26  L 1854.15,  163.79  L 1854.25,  163.26  L 1854.15,  162.73  L 1853.88,  162.26  L 1853.47,  161.91  L 1852.96,  161.72  L 1852.42,  161.72  L 1851.91,  161.91  L 1851.50,  162.26  L 1851.89,  162.97  L 1851.89,  163.55  L 1852.26,  163.99  L 1852.84,  164.09  L 1853.34,  163.80  L 1853.54,  163.26  L 1853.34,  162.71  L 1852.84,  162.42  L 1852.26,  162.52  L 1852.69,  163.26 " style="stroke-width: 0.85 ;&st7; " /><path d=" M 1674.22,  176.29  L 1742.21,  176.29 " style="stroke-width: 0.85 ;&st7;stroke-dasharray:3, 1.5;" /><path d=" M 1767.70,  176.29  L 1835.69,  176.29 " style="stroke-width: 0.85 ;&st7;stroke-dasharray:3, 1.5;" /><path d=" M 1861.19,  176.29  L 1929.18,  176.29 " style="stroke-width: 0.85 ;&st7;stroke-dasharray:3, 1.5;" /><path d=" M 1674.22,  185.35  L 1742.21,  185.35 " style="stroke-width: 0.85 ;&st7;stroke-dasharray:3, 1.5;" /><path d=" M 1767.70,  185.35  L 1835.69,  185.35 " style="stroke-width: 0.85 ;&st7;stroke-dasharray:3, 1.5;" /><path d=" M 1861.19,  185.35  L 1933.43,  185.35 " style="stroke-width: 0.85 ;&st7;stroke-dasharray:3, 1.5;" /><path d=" M 1510.62,  129.26  C 1508.28   129.26  1506.37   131.17  1506.37   133.51 " style="stroke-width: 1.42 ;&st7; " /><path d=" M 1506.37,  133.51  C 1506.37   135.86  1508.28   137.76  1510.62   137.76 " style="stroke-width: 1.42 ;&st7; " /><path d=" M 1514.87,  137.76  C 1517.22   137.76  1519.12   135.86  1519.12   133.51 " style="stroke-width: 1.42 ;&st7; " /><path d=" M 1519.12,  133.51  C 1519.12   131.17  1517.22   129.26  1514.87   129.26 " style="stroke-width: 1.42 ;&st7; " /><path d=" M 1514.16,  438.05  C 1514.16   437.26  1513.53   436.63  1512.75   436.63 " style="stroke-width: 0.85 ;&st7; " /><path d=" M 1512.75,  436.63  C 1511.96   436.63  1511.33   437.26  1511.33   438.05 " style="stroke-width: 0.85 ;&st7; " /><path d=" M 1511.33,  438.05  C 1511.33   438.83  1511.96   439.46  1512.75   439.46 " style="stroke-width: 0.85 ;&st7; " /><path d=" M 1512.75,  439.46  C 1513.53   439.46  1514.16   438.83  1514.16   438.05 " style="stroke-width: 0.85 ;&st7; " /><path d=" M 1514.16,  415.38  C 1514.16   414.60  1513.53   413.97  1512.75   413.97 " style="stroke-width: 0.85 ;&st7; " /><path d=" M 1512.75,  413.97  C 1511.96   413.97  1511.33   414.60  1511.33   415.38 " style="stroke-width: 0.85 ;&st7; " /><path d=" M 1511.33,  415.38  C 1511.33   416.16  1511.96   416.80  1512.75   416.80 " style="stroke-width: 0.85 ;&st7; " /><path d=" M 1512.75,  416.80  C 1513.53   416.80  1514.16   416.16  1514.16   415.38 " style="stroke-width: 0.85 ;&st7; " /><path d=" M 1670.25,   82.80  C 1670.25    80.30  1668.22    78.27  1665.72    78.27 " style="stroke-width: 1.42 ;&st7; " /><path d=" M 1665.72,   78.27  C 1663.22    78.27  1661.19    80.30  1661.19    82.80 " style="stroke-width: 1.42 ;&st7; " /><path d=" M 1661.19,   82.80  C 1661.19    85.31  1663.22    87.34  1665.72    87.34 " style="stroke-width: 1.42 ;&st7; " /><path d=" M 1665.72,   87.34  C 1668.22    87.34  1670.25    85.31  1670.25    82.80 " style="stroke-width: 1.42 ;&st7; " /><path d=" M 1670.25,  150.23  C 1670.25   147.72  1668.22   145.69  1665.72   145.69 " style="stroke-width: 1.42 ;&st7; " /><path d=" M 1665.72,  145.69  C 1663.22   145.69  1661.19   147.72  1661.19   150.23 " style="stroke-width: 1.42 ;&st7; " /><path d=" M 1661.19,  150.23  C 1661.19   152.73  1663.22   154.76  1665.72   154.76 " style="stroke-width: 1.42 ;&st7; " /><path d=" M 1665.72,  154.76  C 1668.22   154.76  1670.25   152.73  1670.25   150.23 " style="stroke-width: 1.42 ;&st7; " /><path d=" M 1670.25,  141.16  C 1670.25   138.66  1668.22   136.63  1665.72   136.63 " style="stroke-width: 1.42 ;&st7; " /><path d=" M 1665.72,  136.63  C 1663.22   136.63  1661.19   138.66  1661.19   141.16 " style="stroke-width: 1.42 ;&st7; " /><path d=" M 1661.19,  141.16  C 1661.19   143.66  1663.22   145.69  1665.72   145.69 " style="stroke-width: 1.42 ;&st7; " /><path d=" M 1665.72,  145.69  C 1668.22   145.69  1670.25   143.66  1670.25   141.16 " style="stroke-width: 1.42 ;&st7; " /><path d=" M 1950.71,  185.35  C 1950.71   182.85  1948.68   180.82  1946.17   180.82 " style="stroke-width: 1.42 ;&st7; " /><path d=" M 1946.17,  180.82  C 1943.67   180.82  1941.64   182.85  1941.64   185.35 " style="stroke-width: 1.42 ;&st7; " /><path d=" M 1941.64,  185.35  C 1941.64   187.86  1943.67   189.89  1946.17   189.89 " style="stroke-width: 1.42 ;&st7; " /><path d=" M 1946.17,  189.89  C 1948.68   189.89  1950.71   187.86  1950.71   185.35 " style="stroke-width: 1.42 ;&st7; " /><path d=" M 1950.71,  176.29  C 1950.71   173.79  1948.68   171.76  1946.17   171.76 " style="stroke-width: 1.42 ;&st7; " /><path d=" M 1946.17,  171.76  C 1943.67   171.76  1941.64   173.79  1941.64   176.29 " style="stroke-width: 1.42 ;&st7; " /><path d=" M 1941.64,  176.29  C 1941.64   178.79  1943.67   180.82  1946.17   180.82 " style="stroke-width: 1.42 ;&st7; " /><path d=" M 1946.17,  180.82  C 1948.68   180.82  1950.71   178.79  1950.71   176.29 " style="stroke-width: 1.42 ;&st7; " /><path d=" M 1857.22,  185.35  C 1857.22   182.85  1855.19   180.82  1852.69   180.82 " style="stroke-width: 1.42 ;&st7; " /><path d=" M 1852.69,  180.82  C 1850.19   180.82  1848.16   182.85  1848.16   185.35 " style="stroke-width: 1.42 ;&st7; " /><path d=" M 1848.16,  185.35  C 1848.16   187.86  1850.19   189.89  1852.69   189.89 " style="stroke-width: 1.42 ;&st7; " /><path d=" M 1852.69,  189.89  C 1855.19   189.89  1857.22   187.86  1857.22   185.35 " style="stroke-width: 1.42 ;&st7; " /><path d=" M 1857.22,  176.29  C 1857.22   173.79  1855.19   171.76  1852.69   171.76 " style="stroke-width: 1.42 ;&st7; " /><path d=" M 1852.69,  171.76  C 1850.19   171.76  1848.16   173.79  1848.16   176.29 " style="stroke-width: 1.42 ;&st7; " /><path d=" M 1848.16,  176.29  C 1848.16   178.79  1850.19   180.82  1852.69   180.82 " style="stroke-width: 1.42 ;&st7; " /><path d=" M 1852.69,  180.82  C 1855.19   180.82  1857.22   178.79  1857.22   176.29 " style="stroke-width: 1.42 ;&st7; " /><path d=" M 1763.74,  185.35  C 1763.74   182.85  1761.71   180.82  1759.21   180.82 " style="stroke-width: 1.42 ;&st7; " /><path d=" M 1759.21,  180.82  C 1756.70   180.82  1754.67   182.85  1754.67   185.35 " style="stroke-width: 1.42 ;&st7; " /><path d=" M 1754.67,  185.35  C 1754.67   187.86  1756.70   189.89  1759.21   189.89 " style="stroke-width: 1.42 ;&st7; " /><path d=" M 1759.21,  189.89  C 1761.71   189.89  1763.74   187.86  1763.74   185.35 " style="stroke-width: 1.42 ;&st7; " /><path d=" M 1763.74,  176.29  C 1763.74   173.79  1761.71   171.76  1759.21   171.76 " style="stroke-width: 1.42 ;&st7; " /><path d=" M 1759.21,  171.76  C 1756.70   171.76  1754.67   173.79  1754.67   176.29 " style="stroke-width: 1.42 ;&st7; " /><path d=" M 1754.67,  176.29  C 1754.67   178.79  1756.70   180.82  1759.21   180.82 " style="stroke-width: 1.42 ;&st7; " /><path d=" M 1759.21,  180.82  C 1761.71   180.82  1763.74   178.79  1763.74   176.29 " style="stroke-width: 1.42 ;&st7; " /><path d=" M 1670.25,  185.35  C 1670.25   182.85  1668.22   180.82  1665.72   180.82 " style="stroke-width: 1.42 ;&st7; " /><path d=" M 1665.72,  180.82  C 1663.22   180.82  1661.19   182.85  1661.19   185.35 " style="stroke-width: 1.42 ;&st7; " /><path d=" M 1661.19,  185.35  C 1661.19   187.86  1663.22   189.89  1665.72   189.89 " style="stroke-width: 1.42 ;&st7; " /><path d=" M 1665.72,  189.89  C 1668.22   189.89  1670.25   187.86  1670.25   185.35 " style="stroke-width: 1.42 ;&st7; " /><path d=" M 1670.25,  176.29  C 1670.25   173.79  1668.22   171.76  1665.72   171.76 " style="stroke-width: 1.42 ;&st7; " /><path d=" M 1665.72,  171.76  C 1663.22   171.76  1661.19   173.79  1661.19   176.29 " style="stroke-width: 1.42 ;&st7; " /><path d=" M 1661.19,  176.29  C 1661.19   178.79  1663.22   180.82  1665.72   180.82 " style="stroke-width: 1.42 ;&st7; " /><path d=" M 1665.72,  180.82  C 1668.22   180.82  1670.25   178.79  1670.25   176.29 " style="stroke-width: 1.42 ;&st7; " /><text style="&st18;" transform="matrix(&st17;  1662.03  578.89 )">W-B</text><text style="&st18;" transform="matrix(&st16;  1650.91  305.45 )">4</text><text style="&st18;" transform="matrix(&st16;  1647.73  602.9 )">13</text><text style="&st18;" transform="matrix(&st16;  1741.21  602.9 )">21</text><text style="&st18;" transform="matrix(&st16;  1745.17  254.46 )">1</text><text style="&st18;" transform="matrix(&st16;  1834.7  602.9 )">21</text><text style="&st18;" transform="matrix(&st16;  1503.21  74.58 )">LGCY</text><text style="&st18;" transform="matrix(&st16;  1508.3  135.48 )">3C</text><text style="&st18;" transform="matrix(&st16;  1500.06  135.48 )">9</text><text style="&st18;" transform="matrix(&st16;  1505.96  468.9 )">2</text><text style="&st18;" transform="matrix(&st16;  1505.96  389.03 )">3</text><text style="&st18;" transform="matrix(&st17;  1848.99  505.53 )">B</text><text ewd:textID="21" style="&st18;" transform="matrix(&st17;  1535.96  463.23 )">Luggage Compartment Door Lock Assembly</text><text style="&st18;" transform="matrix(&st17;  1528.86  463.23 )">T3</text><text style="&st18;" transform="matrix(&st17;  1942.48  510.9 )">W-B</text><text style="&st18;" transform="matrix(&st16;  1505.96  86.47 )">4</text><text style="&st18;" transform="matrix(&st17;  1509.05  621.38 )">W-B</text><text style="&st18;" transform="matrix(&st16;  1928.18  305.45 )">19</text><text style="&st18;" transform="matrix(&st16;  1837.88  305.45 )">5</text><text style="&st18;" transform="matrix(&st16;  1744.39  305.45 )">5</text><text style="&st18;" transform="matrix(&st16;  1835.47  254.46 )">11</text><text style="&st18;" transform="matrix(&st17;  1848.99  280.74 )">G</text><text style="&st18;" transform="matrix(&st16;  1956.09  611.4 )">(LHD)</text><text style="&st18;" transform="matrix(&st16;  1956.09  602.9 )">(RHD)</text><text style="&st18;" transform="matrix(&st16;  1931.36  602.9 )">7</text><text style="&st18;" transform="matrix(&st16;  1928.18  611.4 )">13</text><text style="&st18;" transform="matrix(&st17;  1942.48  578.89 )">W-B</text><text style="&st18;" transform="matrix(&st16;  1569.71  24.98 )">I12(A),I13(B)</text><text ewd:textID="22" style="&st18;" transform="matrix(&st16;  1569.71  32.08 )">Main Body ECU</text><text style="&st18;" transform="matrix(&st17;  1662.03  655.38 )">W-B</text><text style="&st18;" transform="matrix(&st17;  1755.51  650.01 )">B</text><text style="&st18;" transform="matrix(&st17;  1848.99  650.01 )">B</text><text style="&st18;" transform="matrix(&st17;  1942.48  655.38 )">W-B</text><text style="&st18;" transform="matrix(&st17;  1755.51  505.53 )">B</text><text style="&st18;" transform="matrix(&st17;  1662.03  510.9 )">W-B</text><text style="&st18;" transform="matrix(&st17;  1942.48  251.0 )">G</text><text style="&st18;" transform="matrix(&st17;  1848.99  225.5 )">G</text><text style="&st18;" transform="matrix(&st17;  1662.03  251.0 )">G</text><text style="&st18;" transform="matrix(&st17;  1662.03  327.49 )">G</text><text style="&st18;" transform="matrix(&st17;  1942.48  327.49 )">G</text><text style="&st18;" transform="matrix(&st17;  1848.99  327.49 )">G</text><text style="&st18;" transform="matrix(&st17;  1509.05  166.61 )">W</text><text style="&st18;" transform="matrix(&st17;  1509.05  294.09 )">W</text><text style="&st18;" transform="matrix(&st17;  1755.51  327.49 )">G</text><text style="&st18;" transform="matrix(&st17;  1509.05  493.9 )">W-B</text><text style="&st18;" transform="matrix(&st17;  1755.51  280.74 )">G</text><text style="&st18;" transform="matrix(&st17;  1755.51  225.5 )">G</text><text style="&st18;" transform="matrix(&st16;  1500.94  400.91 )">D+</text><text style="&st18;" transform="matrix(&st16;  1505.25  457.02 )">E</text><text style="&st18;" transform="matrix(&st16;  1654.85  84.77 )">4</text><text style="&st18;" transform="matrix(&st16;  1663.39  84.77 )">A</text><text style="&st18;" transform="matrix(&st16;  1656.18  74.58 )">OSPT</text><text ewd:textID="19" style="&st18;" transform="matrix(&st16;  1714.19  151.06 )">Junction Connector</text><text style="&st18;" transform="matrix(&st16;  1714.19  143.96 )">I129(A)</text><text style="&st18;" transform="matrix(&st17;  1662.03  111.37 )">W</text><text style="&st18;" transform="matrix(&st16;  1671.7  152.2 )">(*4)</text><text style="&st18;" transform="matrix(&st16;  1663.39  152.2 )">A</text><text style="&st18;" transform="matrix(&st16;  1654.85  152.2 )">7</text><text style="&st18;" transform="matrix(&st16;  1671.7  143.13 )">(*3)</text><text style="&st18;" transform="matrix(&st16;  1663.39  143.13 )">A</text><text style="&st18;" transform="matrix(&st16;  1651.67  143.13 )">18</text><text style="&st18;" transform="matrix(&st16;  1952.15  187.32 )">(*4)</text><text style="&st18;" transform="matrix(&st16;  1943.84  187.32 )">A</text><text style="&st18;" transform="matrix(&st16;  1935.3  187.32 )">9</text><text style="&st18;" transform="matrix(&st16;  1952.15  178.26 )">(*3)</text><text style="&st18;" transform="matrix(&st16;  1943.84  178.26 )">A</text><text style="&st18;" transform="matrix(&st16;  1931.34  178.26 )">20</text><text style="&st18;" transform="matrix(&st16;  1850.36  187.32 )">A</text><text style="&st18;" transform="matrix(&st16;  1839.41  187.32 )">11</text><text style="&st18;" transform="matrix(&st16;  1850.36  178.26 )">A</text><text style="&st18;" transform="matrix(&st16;  1837.86  178.26 )">22</text><text style="&st18;" transform="matrix(&st16;  1756.87  187.32 )">A</text><text style="&st18;" transform="matrix(&st16;  1745.15  187.32 )">10</text><text style="&st18;" transform="matrix(&st16;  1756.87  178.26 )">A</text><text style="&st18;" transform="matrix(&st16;  1745.15  178.26 )">21</text><text style="&st18;" transform="matrix(&st16;  1663.39  187.32 )">A</text><text style="&st18;" transform="matrix(&st16;  1654.85  187.32 )">8</text><text style="&st18;" transform="matrix(&st16;  1663.39  178.26 )">A</text><text style="&st18;" transform="matrix(&st16;  1651.67  178.26 )">19</text><text ewd:textID="7" style="&st18;" transform="matrix(&st17;  1506.22  440.84 )">Courtesy</text><text style="&st18;" transform="matrix(&st16;  1752.42  477.4 )">2</text><text style="&st18;" transform="matrix(&st16;  1845.9  477.4 )">2</text><text style="&st18;" transform="matrix(&st16;  1939.39  477.4 )">2</text><text style="&st18;" transform="matrix(&st16;  1659.71  346.54 )">1</text><text style="&st18;" transform="matrix(&st16;  1753.19  346.54 )">1</text><text style="&st18;" transform="matrix(&st16;  1846.68  346.54 )">1</text><text style="&st18;" transform="matrix(&st16;  1940.16  346.54 )">1</text><text style="&st18;" transform="matrix(&st16;  1658.93  477.4 )">2</text><text style="&st18;" transform="matrix(&st17;  1707.33  471.73 )">K8</text><text style="&st18;" transform="matrix(&st17;  1800.81  471.73 )">M3</text><text style="&st18;" transform="matrix(&st17;  1894.3  471.73 )">L3</text><text style="&st18;" transform="matrix(&st17;  1987.78  471.73 )">J8</text><text style="&st18;" transform="matrix(&st16;  1668.55  465.52 )">-</text><text style="&st18;" transform="matrix(&st16;  1762.04  465.52 )">-</text><text style="&st18;" transform="matrix(&st16;  1855.52  465.52 )">-</text><text style="&st18;" transform="matrix(&st16;  1949.01  465.52 )">-</text><text style="&st18;" transform="matrix(&st16;  1668.55  358.42 )">+</text><text style="&st18;" transform="matrix(&st16;  1762.04  358.42 )">+</text><text style="&st18;" transform="matrix(&st16;  1855.52  358.42 )">+</text><text style="&st18;" transform="matrix(&st16;  1949.01  358.42 )">+</text><text ewd:textID="14" style="&st18;" transform="matrix(&st17;  1994.89  471.73 )">Front Door Inside Handle Illumination Light Assembly RH</text><text ewd:textID="13" style="&st18;" transform="matrix(&st17;  1714.43  471.73 )">Front Door Inside Handle Illumination Light Assembly LH</text><text ewd:textID="29" style="&st18;" transform="matrix(&st17;  1901.4  471.73 )">Rear Door Inside Handle Illumination Light Assembly RH</text><text ewd:textID="28" style="&st18;" transform="matrix(&st17;  1807.92  471.73 )">Rear Door Inside Handle Illumination Light Assembly LH</text></svg>