﻿<?xml version="1.0" encoding="utf-8"?>
<!DOCTYPE svg PUBLIC "-//W3C//DTD SVG 1.0//EN" "http://www.w3.org/TR/2001/REC-SVG-20010904/DTD/svg10.dtd"[
	<!ENTITY ns_flows "http://ns.adobe.com/Flows/1.0/">
	<!ENTITY ns_svg "http://www.w3.org/2000/svg">
	<!ENTITY ns_xlink "http://www.w3.org/1999/xlink">
	<!ENTITY st0 "font-size:7px;font-family:'MS-PGothic';adobe-font-script:japanese;">
	<!ENTITY st1 "font-size:6px;font-family:'ArialMT';">
	<!-- White fill  -->
	<!ENTITY st2 "fill:#FFFFFF;stroke:#000000; stroke-width:1.41;stroke-linecap:round;stroke-linejoin:round;">
	<!-- Yellow fill  -->
	<!ENTITY st3 "fill:#FFFFCC;stroke:#FFFFCC; stroke-width:0.1;stroke-linecap:round;stroke-linejoin:round;">
	<!-- Gray fill  -->
	<!ENTITY st4 "fill:#CCCCCC;stroke:#CCCCCC; stroke-width:0.1;stroke-linecap:round;stroke-linejoin:round;">
	<!-- Light-blue fill -->
	<!ENTITY st5 "fill:#CCECF4;stroke:#000000; stroke-width:1.133;stroke-linecap:round;stroke-linejoin:round;">
	<!ENTITY st6 "fill:none;stroke-linecap:butt; stroke-linejoin:round;">
	<!ENTITY st7 "fill:none;stroke:#000000;stroke-linecap:round;stroke-linejoin:round;">
	<!ENTITY st8 "enable-background:new    ;">
	<!-- Black fill -->
	<!ENTITY st9 "fill:#000000;stroke:#000000; stroke-linecap:round;stroke-linejoin:round;">
	<!-- SRS note   -->
	<!ENTITY st10 "font-size:9px;font-family:'ArialMT';">
	<!ENTITY st11 "font-size:9px;font-family:'Svg Symbol';">
	<!ENTITY st12 "font-size:6px;font-family:'Svg Symbol';">
	<!ENTITY st13 "fill:none;stroke:#ff0000;stroke-linecap:round;stroke-linejoin:round;">
	<!-- Yellow fill  -->
	<!ENTITY st14 "fill:#FFFF00;stroke:#FFFF00; stroke-width:0.1;stroke-linecap:round;stroke-linejoin:round;">
	<!ENTITY st15 "font-size:6px;font-family:'MS-PGothic';adobe-font-script:japanese;">
	<!ENTITY st16 "1.00 0.00 0.00 1.00">
	<!ENTITY st17 "0.00 -1.00 1.00 0.00">
	<!ENTITY st18 "font-size:6px;font-family:'Arial';">
	<!ENTITY st19 "font-size:9px;font-family:'Arial';">
	<!ENTITY st20 "font-size:6px;font-family:'MS-PGothic','MS PGothic';adobe-font-script:japanese;">
	<!ENTITY st21 "font-size:7px;font-family:'MS-PGothic','MS PGothic';adobe-font-script:japanese;">
	<!ATTLIST svg
		xmlns:ewd CDATA #FIXED "http://shcl.co.jp/ewd"
		xmlns:a CDATA #FIXED "http://ns.adobe.com/AdobeSVGViewerExtensions/3.0/"
		ewd:ver CDATA #IMPLIED
	>
	<!ATTLIST a
		ewd:lineID CDATA #IMPLIED
		ewd:groupID CDATA #IMPLIED
		ewd:figtype CDATA #IMPLIED
		ewd:code CDATA #IMPLIED
		ewd:figID CDATA #IMPLIED
		ewd:pinNo CDATA #IMPLIED
		ewd:comment CDATA #IMPLIED >
	<!ATTLIST g
		ewd:lineID CDATA #IMPLIED
		ewd:groupID CDATA #IMPLIED
		ewd:figtype CDATA #IMPLIED
		ewd:code CDATA #IMPLIED
		ewd:figID CDATA #IMPLIED
		ewd:pinNo CDATA #IMPLIED
		ewd:comment CDATA #IMPLIED >
	<!ATTLIST text
		ewd:textID CDATA #IMPLIED >
	<!ATTLIST title
		ewd:textID CDATA #IMPLIED >
]>
<!-- Generator: Shintec Hozumi YS   -->
<svg onload="call_execInitLoadProc_svg('system')" style="overflow:visible;  enable-background:new 0 0 6536.116 710.000" viewBox="0 0 6536.116 710.000" height="710.000" width="6536.116" xml:space="preserve" ewd:ver="L2.1.2.8" xmlns="&ns_svg;" xmlns:a="http://ns.adobe.com/AdobeSVGViewerExtensions/3.0/" xmlns:ewd="http://shcl.co.jp/ewd" xmlns:xlink="&ns_xlink;">
<path d=" M 2451.12,  316.23  L 2456.09,  311.26 " style="stroke-width: 1.42 ;&st7; " /><path d=" M 2444.06,  299.24  L 2439.09,  304.21 " style="stroke-width: 1.42 ;&st7; " /><path d=" M 2447.59,  567.66  L 2442.62,  562.69 " style="stroke-width: 1.42 ;&st7; " /><path d=" M 2430.59,  574.72  L 2435.56,  579.69 " style="stroke-width: 1.42 ;&st7; " /><path d=" M 2442.62,  579.69  L 2447.59,  574.72 " style="stroke-width: 1.42 ;&st7; " /><path d=" M 2435.57,  562.69  L 2430.59,  567.66 " style="stroke-width: 1.42 ;&st7; " /><path d=" M 2269.12,  304.21  L 2264.15,  299.24 " style="stroke-width: 1.42 ;&st7; " /><path d=" M 2252.12,  311.26  L 2257.09,  316.23 " style="stroke-width: 1.42 ;&st7; " /><path d=" M 2264.15,  316.23  L 2269.12,  311.26 " style="stroke-width: 1.42 ;&st7; " /><path d=" M 2257.10,  299.24  L 2252.12,  304.21 " style="stroke-width: 1.42 ;&st7; " /><path d=" M 2260.62,  176.01  L 2260.62,  180.26 " style="stroke-width: 0.85 ;&st7; " /><path d=" M 2260.62,  163.26  L 2260.62,  167.51 " style="stroke-width: 0.85 ;&st7; " /><path d=" M 2396.60,  184.50  L 2396.60,  188.75 " style="stroke-width: 0.85 ;&st7; " /><path d=" M 2396.60,  171.76  L 2396.60,  176.01 " style="stroke-width: 0.85 ;&st7; " /><path d=" M 2447.59,  184.50  L 2447.59,  188.75 " style="stroke-width: 0.85 ;&st7; " /><path d=" M 2447.59,  171.76  L 2447.59,  176.01 " style="stroke-width: 0.85 ;&st7; " /><path d=" M 2252.12,  477.71  L 2260.01,  477.71 " style="stroke-width: 0.85 ;&st7; " /><path d=" M 2439.09,  486.20  L 2439.09,  477.71 " style="stroke-width: 0.85 ;&st7; " /><path d=" M 2439.09,  477.71  L 2446.98,  477.71 " style="stroke-width: 0.85 ;&st7; " /><path d=" M 2430.59,  461.44  L 2430.59,  469.21 " style="stroke-width: 0.85 ;&st7; " /><path d=" M 2116.15,  176.01  L 2116.15,  180.26 " style="stroke-width: 0.85 ;&st7; " /><path d=" M 2116.15,  163.26  L 2116.15,  167.51 " style="stroke-width: 0.85 ;&st7; " /><path d=" M 2447.59,  461.44  L 2447.59,  469.21 " style="stroke-width: 0.85 ;&st7; " /><path d=" M 2431.21,  477.71  L 2439.09,  477.71 " style="stroke-width: 0.85 ;&st7; " /><path d=" M 2252.12,  486.20  L 2252.12,  477.71 " style="stroke-width: 0.85 ;&st7; " /><path d=" M 2244.24,  477.71  L 2252.12,  477.71 " style="stroke-width: 0.85 ;&st7; " /><path d=" M 2260.62,  461.44  L 2260.62,  469.21 " style="stroke-width: 0.85 ;&st7; " /><path d=" M 2243.63,  461.44  L 2243.63,  469.21 " style="stroke-width: 0.85 ;&st7; " /><path d=" M 2405.10,   91.74  L 2400.13,   86.77 " style="stroke-width: 1.42 ;&st7; " /><path d=" M 2388.10,   98.80  L 2393.07,  103.77 " style="stroke-width: 1.42 ;&st7; " /><path d=" M 2400.13,  103.77  L 2405.10,   98.80 " style="stroke-width: 1.42 ;&st7; " /><path d=" M 2393.07,   86.77  L 2388.10,   91.74 " style="stroke-width: 1.42 ;&st7; " /><path d=" M 2388.10,  278.71  L 2383.13,  273.74 " style="stroke-width: 1.42 ;&st7; " /><path d=" M 2371.10,  285.77  L 2376.07,  290.74 " style="stroke-width: 1.42 ;&st7; " /><path d=" M 2383.13,  290.74  L 2388.10,  285.77 " style="stroke-width: 1.42 ;&st7; " /><path d=" M 2376.08,  273.74  L 2371.10,  278.71 " style="stroke-width: 1.42 ;&st7; " /><path d=" M 2405.10,  304.21  L 2400.13,  299.24 " style="stroke-width: 1.42 ;&st7; " /><path d=" M 2388.10,  311.26  L 2393.07,  316.23 " style="stroke-width: 1.42 ;&st7; " /><path d=" M 2400.13,  316.23  L 2405.10,  311.26 " style="stroke-width: 1.42 ;&st7; " /><path d=" M 2393.07,  299.24  L 2388.10,  304.21 " style="stroke-width: 1.42 ;&st7; " /><path d=" M 2286.12,  278.71  L 2281.15,  273.74 " style="stroke-width: 1.42 ;&st7; " /><path d=" M 2269.12,  285.77  L 2274.09,  290.74 " style="stroke-width: 1.42 ;&st7; " /><path d=" M 2281.15,  290.74  L 2286.12,  285.77 " style="stroke-width: 1.42 ;&st7; " /><path d=" M 2274.09,  273.74  L 2269.12,  278.71 " style="stroke-width: 1.42 ;&st7; " /><path d=" M 2201.13,  346.70  L 2196.16,  341.73 " style="stroke-width: 1.42 ;&st7; " /><path d=" M 2184.14,  353.76  L 2189.10,  358.73 " style="stroke-width: 1.42 ;&st7; " /><path d=" M 2196.16,  358.73  L 2201.13,  353.76 " style="stroke-width: 1.42 ;&st7; " /><path d=" M 2189.11,  341.73  L 2184.14,  346.70 " style="stroke-width: 1.42 ;&st7; " /><path d=" M 2201.13,  278.71  L 2196.16,  273.74 " style="stroke-width: 1.42 ;&st7; " /><path d=" M 2184.14,  285.77  L 2189.10,  290.74 " style="stroke-width: 1.42 ;&st7; " /><path d=" M 2196.16,  290.74  L 2201.13,  285.77 " style="stroke-width: 1.42 ;&st7; " /><path d=" M 2189.11,  273.74  L 2184.14,  278.71 " style="stroke-width: 1.42 ;&st7; " /><path d=" M 2124.65,  304.21  L 2119.67,  299.24 " style="stroke-width: 1.42 ;&st7; " /><path d=" M 2107.65,  311.26  L 2112.62,  316.23 " style="stroke-width: 1.42 ;&st7; " /><path d=" M 2119.67,  316.23  L 2124.65,  311.26 " style="stroke-width: 1.42 ;&st7; " /><path d=" M 2112.62,  299.24  L 2107.65,  304.21 " style="stroke-width: 1.42 ;&st7; " /><path d=" M 2456.09,  304.21  L 2451.12,  299.24 " style="stroke-width: 1.42 ;&st7; " /><path d=" M 2439.09,  311.26  L 2444.06,  316.23 " style="stroke-width: 1.42 ;&st7; " /><path d=" M 2141.64,  163.26  L 2192.63,  163.26  L 2192.63,  180.26  L 2141.64,  180.26  L 2141.64,  163.26 " style="stroke-width: 1.42 ;&st7; " /><path d=" M 2116.15,  214.25  L 2133.14,  197.25  L 2167.14,  197.25  L 2167.14,  180.26 " style="stroke-width: 0.85 ;&st7; " /><path d=" M 2116.15,  129.26  L 2133.14,  146.26  L 2167.14,  146.26  L 2167.14,  163.26 " style="stroke-width: 0.85 ;&st7; " /><path d=" M 2286.12,  163.26  L 2337.11,  163.26  L 2337.11,  180.26  L 2286.12,  180.26  L 2286.12,  163.26 " style="stroke-width: 1.42 ;&st7; " /><path d=" M 2260.62,  214.25  L 2277.62,  197.25  L 2311.61,  197.25  L 2311.61,  180.26 " style="stroke-width: 0.85 ;&st7; " /><path d=" M 2260.62,  129.26  L 2277.62,  146.26  L 2311.61,  146.26  L 2311.61,  163.26 " style="stroke-width: 0.85 ;&st7; " /><path d=" M 2303.11,  460.71  L 2303.11,  435.21 " style="stroke-width: 0.85 ;&st7; " /><path d=" M 2235.13,  214.25  L 2235.13,  129.26  L 2354.11,  129.26  L 2354.11,  214.25  L 2235.13,  214.25 " style="stroke-width: 1.42 ;&st7; " /><path d=" M 2260.62,  163.26  L 2260.62,  129.26 " style="stroke-width: 0.85 ;&st7; " /><path d=" M 2260.62,  214.25  L 2260.62,  180.26 " style="stroke-width: 0.85 ;&st7; " /><path d=" M 2437.68,  710.00  L 2440.51,  710.00 " style="stroke-width: 0.85 ;&st7; " /><path d=" M 2436.26,  707.17  L 2441.92,  707.17 " style="stroke-width: 0.85 ;&st7; " /><path d=" M 2434.84,  704.33  L 2443.34,  704.33 " style="stroke-width: 0.85 ;&st7; " /><path d=" M 2430.59,  701.50  L 2447.59,  701.50 " style="stroke-width: 0.85 ;&st7; " /><path d=" M 2439.09,  697.25  L 2439.09,  701.50 " style="stroke-width: 0.85 ;&st7; " /><path d=" M 2294.62,  460.71  L 2345.61,  460.71  L 2345.61,  477.71  L 2294.62,  477.71  L 2294.62,  460.71 " style="stroke-width: 1.42 ;&st7; " /><path d=" M 2252.12,  520.20  L 2260.62,  511.70  L 2320.11,  511.70  L 2320.11,  477.71 " style="stroke-width: 0.85 ;&st7; " /><path d=" M 2490.08,  460.71  L 2490.08,  435.21 " style="stroke-width: 0.85 ;&st7; " /><path d=" M 2439.09,  520.20  L 2447.59,  511.70  L 2507.08,  511.70  L 2507.08,  477.71 " style="stroke-width: 0.85 ;&st7; " /><path d=" M 2481.58,  460.71  L 2532.58,  460.71  L 2532.58,  477.71  L 2481.58,  477.71  L 2481.58,  460.71 " style="stroke-width: 1.42 ;&st7; " /><path d=" M 2447.59,  409.72  L 2456.09,  418.22  L 2524.08,  418.22  L 2524.08,  460.71 " style="stroke-width: 0.85 ;&st7; " /><path d=" M 2439.09,  486.20  L 2439.09,  520.20 " style="stroke-width: 0.85 ;&st7; " /><path d=" M 2430.59,  460.71  L 2430.59,  435.21 " style="stroke-width: 0.85 ;&st7; " /><path d=" M 2447.59,  460.71  L 2447.59,  409.72 " style="stroke-width: 0.85 ;&st7; " /><path d=" M 2437.90,  476.70  L 2437.63,  477.17  L 2437.53,  477.71  L 2437.63,  478.24  L 2437.90,  478.71  L 2438.31,  479.05  L 2438.82,  479.24  L 2439.36,  479.24  L 2439.87,  479.05  L 2440.28,  478.71  L 2440.56,  478.24  L 2440.65,  477.71  L 2440.56,  477.17  L 2440.28,  476.70  L 2439.87,  476.36  L 2439.36,  476.17  L 2438.82,  476.17  L 2438.31,  476.36  L 2437.90,  476.70  L 2438.29,  477.41  L 2438.29,  478.00  L 2438.67,  478.44  L 2439.24,  478.54  L 2439.74,  478.25  L 2439.94,  477.71  L 2439.74,  477.16  L 2439.24,  476.87  L 2438.67,  476.97  L 2439.09,  477.71 " style="stroke-width: 0.85 ;&st7; " /><path d=" M 2439.09,  486.20  L 2443.34,  486.20 " style="stroke-width: 1.42 ;&st7; " /><path d=" M 2439.09,  460.71  L 2443.34,  460.71 " style="stroke-width: 1.42 ;&st7; " /><path d=" M 2439.09,  486.20  L 2434.84,  486.20 " style="stroke-width: 1.42 ;&st7; " /><path d=" M 2439.09,  460.71  L 2434.84,  460.71 " style="stroke-width: 1.42 ;&st7; " /><path d=" M 2405.10,  520.20  L 2405.10,  409.72  L 2549.57,  409.72  L 2549.57,  520.20  L 2405.10,  520.20 " style="stroke-width: 1.42 ;&st7; " /><path d=" M 2116.15,  214.25  L 2116.15,  180.26 " style="stroke-width: 0.85 ;&st7; " /><path d=" M 2116.15,  163.26  L 2116.15,  129.26 " style="stroke-width: 0.85 ;&st7; " /><path d=" M 2090.65,  214.25  L 2090.65,  129.26  L 2209.63,  129.26  L 2209.63,  214.25  L 2090.65,  214.25 " style="stroke-width: 1.42 ;&st7; " /><path d=" M 2218.13,  520.20  L 2218.13,  409.72  L 2362.60,  409.72  L 2362.60,  520.20  L 2218.13,  520.20 " style="stroke-width: 1.42 ;&st7; " /><path d=" M 2252.12,  460.71  L 2247.87,  460.71 " style="stroke-width: 1.42 ;&st7; " /><path d=" M 2252.12,  486.20  L 2247.87,  486.20 " style="stroke-width: 1.42 ;&st7; " /><path d=" M 2252.12,  460.71  L 2256.37,  460.71 " style="stroke-width: 1.42 ;&st7; " /><path d=" M 2252.12,  486.20  L 2256.37,  486.20 " style="stroke-width: 1.42 ;&st7; " /><path d=" M 2250.93,  476.70  L 2250.66,  477.17  L 2250.56,  477.71  L 2250.66,  478.24  L 2250.93,  478.71  L 2251.34,  479.05  L 2251.85,  479.24  L 2252.39,  479.24  L 2252.90,  479.05  L 2253.32,  478.71  L 2253.59,  478.24  L 2253.68,  477.71  L 2253.59,  477.17  L 2253.32,  476.70  L 2252.90,  476.36  L 2252.39,  476.17  L 2251.85,  476.17  L 2251.34,  476.36  L 2250.93,  476.70  L 2251.32,  477.41  L 2251.32,  478.00  L 2251.70,  478.44  L 2252.27,  478.54  L 2252.77,  478.25  L 2252.97,  477.71  L 2252.77,  477.16  L 2252.27,  476.87  L 2251.70,  476.97  L 2252.12,  477.71 " style="stroke-width: 0.85 ;&st7; " /><path d=" M 2260.62,  460.71  L 2260.62,  409.72 " style="stroke-width: 0.85 ;&st7; " /><path d=" M 2243.62,  460.71  L 2243.62,  435.21 " style="stroke-width: 0.85 ;&st7; " /><path d=" M 2252.12,  486.20  L 2252.12,  520.20 " style="stroke-width: 0.85 ;&st7; " /><path d=" M 2260.62,  409.72  L 2269.12,  418.22  L 2337.11,  418.22  L 2337.11,  460.71 " style="stroke-width: 0.85 ;&st7; " /><path d=" M 2456.09,  180.26  C 2456.09   175.56  2452.28   171.76  2447.59   171.76 " style="stroke-width: 1.42 ;&st7; " /><path d=" M 2447.59,  171.76  C 2442.90   171.76  2439.09   175.56  2439.09   180.26 " style="stroke-width: 1.42 ;&st7; " /><path d=" M 2439.09,  180.26  C 2439.09   184.95  2442.90   188.75  2447.59   188.75 " style="stroke-width: 1.42 ;&st7; " /><path d=" M 2447.59,  188.75  C 2452.28   188.75  2456.09   184.95  2456.09   180.26 " style="stroke-width: 1.42 ;&st7; " /><path d=" M 2445.18,  180.26  C 2445.97   181.59  2447.70   182.04  2449.04   181.25 " style="stroke-width: 0.85 ;&st7; " /><path d=" M 2449.04,  181.25  C 2450.38   180.46  2450.82   178.73  2450.03   177.39 " style="stroke-width: 0.85 ;&st7; " /><path d=" M 2450.03,  177.39  C 2449.51   176.50  2448.62   176.00  2447.59   176.00 " style="stroke-width: 0.85 ;&st7; " /><path d=" M 2447.59,  184.50  C 2449.15   184.51  2450.41   183.26  2450.42   181.71 " style="stroke-width: 0.85 ;&st7; " /><path d=" M 2450.42,  181.71  C 2450.43   180.15  2449.18   178.88  2447.63   178.87 " style="stroke-width: 0.85 ;&st7; " /><path d=" M 2447.63,  178.87  C 2446.59   178.87  2445.71   179.37  2445.18   180.26 " style="stroke-width: 0.85 ;&st7; " /><path d=" M 2269.12,  171.76  C 2269.12   167.06  2265.32   163.26  2260.62   163.26 " style="stroke-width: 1.42 ;&st7; " /><path d=" M 2260.62,  163.26  C 2255.93   163.26  2252.12   167.06  2252.12   171.76 " style="stroke-width: 1.42 ;&st7; " /><path d=" M 2252.12,  171.76  C 2252.12   176.45  2255.93   180.26  2260.62   180.26 " style="stroke-width: 1.42 ;&st7; " /><path d=" M 2260.62,  180.26  C 2265.32   180.26  2269.12   176.45  2269.12   171.76 " style="stroke-width: 1.42 ;&st7; " /><path d=" M 2446.88,  477.71  C 2448.44   477.71  2449.71   476.46  2449.72   474.91 " style="stroke-width: 0.85 ;&st7; " /><path d=" M 2449.72,  474.91  C 2449.73   473.35  2448.47   472.08  2446.92   472.07 " style="stroke-width: 0.85 ;&st7; " /><path d=" M 2446.92,  472.07  C 2445.88   472.07  2445.00   472.57  2444.48   473.46 " style="stroke-width: 0.85 ;&st7; " /><path d=" M 2430.59,  469.29  C 2429.09   469.67  2428.17   471.21  2428.55   472.71 " style="stroke-width: 0.85 ;&st7; " /><path d=" M 2428.55,  472.71  C 2428.94   474.22  2430.47   475.14  2431.98   474.75 " style="stroke-width: 0.85 ;&st7; " /><path d=" M 2431.98,  474.75  C 2432.73   474.56  2433.31   474.13  2433.71   473.46 " style="stroke-width: 0.85 ;&st7; " /><path d=" M 2433.71,  473.46  C 2432.92   472.12  2431.19   471.67  2429.85   472.46 " style="stroke-width: 0.85 ;&st7; " /><path d=" M 2429.85,  472.46  C 2428.51   473.26  2428.07   474.98  2428.86   476.32 " style="stroke-width: 0.85 ;&st7; " /><path d=" M 2428.86,  476.32  C 2429.39   477.21  2430.27   477.71  2431.30   477.71 " style="stroke-width: 0.85 ;&st7; " /><path d=" M 2444.47,  473.46  C 2445.27   474.80  2446.99   475.24  2448.33   474.45 " style="stroke-width: 0.85 ;&st7; " /><path d=" M 2448.33,  474.45  C 2449.67   473.66  2450.12   471.93  2449.32   470.59 " style="stroke-width: 0.85 ;&st7; " /><path d=" M 2449.32,  470.59  C 2448.93   469.92  2448.35   469.48  2447.59   469.29 " style="stroke-width: 0.85 ;&st7; " /><path d=" M 2124.65,  171.76  C 2124.65   167.06  2120.84   163.26  2116.15   163.26 " style="stroke-width: 1.42 ;&st7; " /><path d=" M 2116.15,  163.26  C 2111.45   163.26  2107.65   167.06  2107.65   171.76 " style="stroke-width: 1.42 ;&st7; " /><path d=" M 2107.65,  171.76  C 2107.65   176.45  2111.45   180.26  2116.15   180.26 " style="stroke-width: 1.42 ;&st7; " /><path d=" M 2116.15,  180.26  C 2120.84   180.26  2124.65   176.45  2124.65   171.76 " style="stroke-width: 1.42 ;&st7; " /><path d=" M 2116.15,  176.01  C 2117.70   176.02  2118.97   174.76  2118.98   173.21 " style="stroke-width: 0.85 ;&st7; " /><path d=" M 2118.98,  173.21  C 2118.99   171.65  2117.74   170.38  2116.18   170.37 " style="stroke-width: 0.85 ;&st7; " /><path d=" M 2116.18,  170.37  C 2115.15   170.37  2114.26   170.87  2113.74   171.76 " style="stroke-width: 0.85 ;&st7; " /><path d=" M 2434.84,  460.71  C 2427.80   460.71  2422.10   466.42  2422.10   473.46 " style="stroke-width: 1.42 ;&st7; " /><path d=" M 2422.10,  473.46  C 2422.10   480.50  2427.80   486.20  2434.84   486.20 " style="stroke-width: 1.42 ;&st7; " /><path d=" M 2443.34,  486.20  C 2450.38   486.20  2456.09   480.50  2456.09   473.46 " style="stroke-width: 1.42 ;&st7; " /><path d=" M 2456.09,  473.46  C 2456.09   466.42  2450.38   460.71  2443.34   460.71 " style="stroke-width: 1.42 ;&st7; " /><path d=" M 2430.59,  435.21  C 2428.38   433.39  2425.25   433.45  2423.11   435.35 " style="stroke-width: 1.42 ;&st7; " /><path d=" M 2430.59,  435.21  C 2432.81   437.03  2435.94   436.98  2438.08   435.07 " style="stroke-width: 1.42 ;&st7; " /><path d=" M 2243.63,  435.21  C 2245.84   437.03  2248.97   436.98  2251.11   435.07 " style="stroke-width: 1.42 ;&st7; " /><path d=" M 2243.63,  435.21  C 2241.41   433.39  2238.28   433.45  2236.14   435.35 " style="stroke-width: 1.42 ;&st7; " /><path d=" M 2256.37,  486.20  C 2263.41   486.20  2269.12   480.50  2269.12   473.46 " style="stroke-width: 1.42 ;&st7; " /><path d=" M 2269.12,  473.46  C 2269.12   466.42  2263.41   460.71  2256.37   460.71 " style="stroke-width: 1.42 ;&st7; " /><path d=" M 2247.87,  460.71  C 2240.83   460.71  2235.13   466.42  2235.13   473.46 " style="stroke-width: 1.42 ;&st7; " /><path d=" M 2235.13,  473.46  C 2235.13   480.50  2240.83   486.20  2247.87   486.20 " style="stroke-width: 1.42 ;&st7; " /><path d=" M 2257.51,  473.46  C 2258.30   474.80  2260.03   475.24  2261.36   474.45 " style="stroke-width: 0.85 ;&st7; " /><path d=" M 2261.36,  474.45  C 2262.70   473.66  2263.15   471.93  2262.36   470.59 " style="stroke-width: 0.85 ;&st7; " /><path d=" M 2262.36,  470.59  C 2261.96   469.92  2261.38   469.48  2260.62   469.29 " style="stroke-width: 0.85 ;&st7; " /><path d=" M 2246.74,  473.46  C 2245.95   472.12  2244.22   471.67  2242.88   472.46 " style="stroke-width: 0.85 ;&st7; " /><path d=" M 2242.88,  472.46  C 2241.54   473.26  2241.10   474.98  2241.89   476.32 " style="stroke-width: 0.85 ;&st7; " /><path d=" M 2241.89,  476.32  C 2242.42   477.21  2243.30   477.71  2244.33   477.71 " style="stroke-width: 0.85 ;&st7; " /><path d=" M 2243.63,  469.29  C 2242.12   469.67  2241.20   471.21  2241.59   472.71 " style="stroke-width: 0.85 ;&st7; " /><path d=" M 2241.59,  472.71  C 2241.97   474.22  2243.50   475.14  2245.01   474.75 " style="stroke-width: 0.85 ;&st7; " /><path d=" M 2245.01,  474.75  C 2245.77   474.56  2246.34   474.13  2246.74   473.46 " style="stroke-width: 0.85 ;&st7; " /><path d=" M 2259.91,  477.71  C 2261.47   477.71  2262.74   476.46  2262.75   474.91 " style="stroke-width: 0.85 ;&st7; " /><path d=" M 2262.75,  474.91  C 2262.76   473.35  2261.50   472.08  2259.95   472.07 " style="stroke-width: 0.85 ;&st7; " /><path d=" M 2259.95,  472.07  C 2258.92   472.07  2258.03   472.57  2257.51   473.46 " style="stroke-width: 0.85 ;&st7; " /><path d=" M 2490.08,  435.21  C 2487.87   433.39  2484.74   433.45  2482.60   435.35 " style="stroke-width: 1.42 ;&st7; " /><path d=" M 2490.08,  435.21  C 2492.30   437.03  2495.43   436.98  2497.57   435.07 " style="stroke-width: 1.42 ;&st7; " /><path d=" M 2303.12,  435.21  C 2300.90   433.39  2297.77   433.45  2295.63   435.35 " style="stroke-width: 1.42 ;&st7; " /><path d=" M 2113.74,  171.76  C 2114.53   173.10  2116.26   173.54  2117.60   172.75 " style="stroke-width: 0.85 ;&st7; " /><path d=" M 2117.60,  172.75  C 2118.94   171.96  2119.38   170.23  2118.59   168.89 " style="stroke-width: 0.85 ;&st7; " /><path d=" M 2118.59,  168.89  C 2118.06   168.00  2117.18   167.50  2116.15   167.51 " style="stroke-width: 0.85 ;&st7; " /><path d=" M 2265.15,  405.18  C 2265.15   402.68  2263.13   400.65  2260.62   400.65 " style="stroke-width: 1.42 ;&st7; " /><path d=" M 2260.62,  400.65  C 2258.12   400.65  2256.09   402.68  2256.09   405.18 " style="stroke-width: 1.42 ;&st7; " /><path d=" M 2256.09,  405.18  C 2256.09   407.69  2258.12   409.72  2260.62   409.72 " style="stroke-width: 1.42 ;&st7; " /><path d=" M 2260.62,  409.72  C 2263.13   409.72  2265.15   407.69  2265.15   405.18 " style="stroke-width: 1.42 ;&st7; " /><path d=" M 2265.15,  396.12  C 2265.15   393.62  2263.13   391.59  2260.62   391.59 " style="stroke-width: 1.42 ;&st7; " /><path d=" M 2260.62,  391.59  C 2258.12   391.59  2256.09   393.62  2256.09   396.12 " style="stroke-width: 1.42 ;&st7; " /><path d=" M 2256.09,  396.12  C 2256.09   398.62  2258.12   400.65  2260.62   400.65 " style="stroke-width: 1.42 ;&st7; " /><path d=" M 2260.62,  400.65  C 2263.13   400.65  2265.15   398.62  2265.15   396.12 " style="stroke-width: 1.42 ;&st7; " /><path d=" M 2452.12,  405.18  C 2452.12   402.68  2450.09   400.65  2447.59   400.65 " style="stroke-width: 1.42 ;&st7; " /><path d=" M 2447.59,  400.65  C 2445.09   400.65  2443.06   402.68  2443.06   405.18 " style="stroke-width: 1.42 ;&st7; " /><path d=" M 2443.06,  405.18  C 2443.06   407.69  2445.09   409.72  2447.59   409.72 " style="stroke-width: 1.42 ;&st7; " /><path d=" M 2447.59,  409.72  C 2450.09   409.72  2452.12   407.69  2452.12   405.18 " style="stroke-width: 1.42 ;&st7; " /><path d=" M 2452.12,  396.12  C 2452.12   393.62  2450.09   391.59  2447.59   391.59 " style="stroke-width: 1.42 ;&st7; " /><path d=" M 2447.59,  391.59  C 2445.09   391.59  2443.06   393.62  2443.06   396.12 " style="stroke-width: 1.42 ;&st7; " /><path d=" M 2443.06,  396.12  C 2443.06   398.62  2445.09   400.65  2447.59   400.65 " style="stroke-width: 1.42 ;&st7; " /><path d=" M 2447.59,  400.65  C 2450.09   400.65  2452.12   398.62  2452.12   396.12 " style="stroke-width: 1.42 ;&st7; " /><path d=" M 2256.66,  533.80  C 2256.66   531.29  2254.63   529.26  2252.12   529.26 " style="stroke-width: 1.42 ;&st7; " /><path d=" M 2252.12,  529.26  C 2249.62   529.26  2247.59   531.29  2247.59   533.80 " style="stroke-width: 1.42 ;&st7; " /><path d=" M 2247.59,  533.80  C 2247.59   536.30  2249.62   538.33  2252.12   538.33 " style="stroke-width: 1.42 ;&st7; " /><path d=" M 2252.12,  538.33  C 2254.63   538.33  2256.66   536.30  2256.66   533.80 " style="stroke-width: 1.42 ;&st7; " /><path d=" M 2256.66,  524.73  C 2256.66   522.23  2254.63   520.20  2252.12   520.20 " style="stroke-width: 1.42 ;&st7; " /><path d=" M 2252.12,  520.20  C 2249.62   520.20  2247.59   522.23  2247.59   524.73 " style="stroke-width: 1.42 ;&st7; " /><path d=" M 2247.59,  524.73  C 2247.59   527.23  2249.62   529.26  2252.12   529.26 " style="stroke-width: 1.42 ;&st7; " /><path d=" M 2252.12,  529.26  C 2254.63   529.26  2256.66   527.23  2256.66   524.73 " style="stroke-width: 1.42 ;&st7; " /><path d=" M 2443.63,  533.80  C 2443.63   531.29  2441.60   529.26  2439.09   529.26 " style="stroke-width: 1.42 ;&st7; " /><path d=" M 2439.09,  529.26  C 2436.59   529.26  2434.56   531.29  2434.56   533.80 " style="stroke-width: 1.42 ;&st7; " /><path d=" M 2434.56,  533.80  C 2434.56   536.30  2436.59   538.33  2439.09   538.33 " style="stroke-width: 1.42 ;&st7; " /><path d=" M 2439.09,  538.33  C 2441.60   538.33  2443.63   536.30  2443.63   533.80 " style="stroke-width: 1.42 ;&st7; " /><path d=" M 2443.63,  524.73  C 2443.63   522.23  2441.60   520.20  2439.09   520.20 " style="stroke-width: 1.42 ;&st7; " /><path d=" M 2439.09,  520.20  C 2436.59   520.20  2434.56   522.23  2434.56   524.73 " style="stroke-width: 1.42 ;&st7; " /><path d=" M 2434.56,  524.73  C 2434.56   527.23  2436.59   529.26  2439.09   529.26 " style="stroke-width: 1.42 ;&st7; " /><path d=" M 2439.09,  529.26  C 2441.60   529.26  2443.63   527.23  2443.63   524.73 " style="stroke-width: 1.42 ;&st7; " /><path d=" M 2303.12,  435.21  C 2305.33   437.03  2308.46   436.98  2310.60   435.07 " style="stroke-width: 1.42 ;&st7; " /><path d=" M 2258.21,  171.76  C 2259.01   173.10  2260.73   173.54  2262.07   172.75 " style="stroke-width: 0.85 ;&st7; " /><path d=" M 2262.07,  172.75  C 2263.41   171.96  2263.86   170.23  2263.06   168.89 " style="stroke-width: 0.85 ;&st7; " /><path d=" M 2263.06,  168.89  C 2262.54   168.00  2261.66   167.50  2260.62   167.51 " style="stroke-width: 0.85 ;&st7; " /><path d=" M 2260.62,  176.01  C 2262.18   176.02  2263.45   174.76  2263.46   173.21 " style="stroke-width: 0.85 ;&st7; " /><path d=" M 2263.46,  173.21  C 2263.46   171.65  2262.21   170.38  2260.66   170.37 " style="stroke-width: 0.85 ;&st7; " /><path d=" M 2260.66,  170.37  C 2259.62   170.37  2258.74   170.87  2258.22   171.76 " style="stroke-width: 0.85 ;&st7; " /><path d=" M 2405.10,  180.26  C 2405.10   175.56  2401.29   171.76  2396.60   171.76 " style="stroke-width: 1.42 ;&st7; " /><path d=" M 2396.60,  171.76  C 2391.91   171.76  2388.10   175.56  2388.10   180.26 " style="stroke-width: 1.42 ;&st7; " /><path d=" M 2388.10,  180.26  C 2388.10   184.95  2391.91   188.75  2396.60   188.75 " style="stroke-width: 1.42 ;&st7; " /><path d=" M 2396.60,  188.75  C 2401.29   188.75  2405.10   184.95  2405.10   180.26 " style="stroke-width: 1.42 ;&st7; " /><path d=" M 2394.19,  180.26  C 2394.98   181.59  2396.71   182.04  2398.05   181.25 " style="stroke-width: 0.85 ;&st7; " /><path d=" M 2398.05,  181.25  C 2399.39   180.46  2399.83   178.73  2399.04   177.39 " style="stroke-width: 0.85 ;&st7; " /><path d=" M 2399.04,  177.39  C 2398.52   176.50  2397.63   176.00  2396.60   176.00 " style="stroke-width: 0.85 ;&st7; " /><path d=" M 2396.60,  184.50  C 2398.15   184.51  2399.42   183.26  2399.43   181.71 " style="stroke-width: 0.85 ;&st7; " /><path d=" M 2399.43,  181.71  C 2399.44   180.15  2398.19   178.88  2396.63   178.87 " style="stroke-width: 0.85 ;&st7; " /><path d=" M 2396.63,  178.87  C 2395.60   178.87  2394.72   179.37  2394.19   180.26 " style="stroke-width: 0.85 ;&st7; " /><text style="&st18;" transform="matrix(&st16;  2045.4  618.48 )">G</text><text style="&st18;" transform="matrix(&st16;  2096.39  618.48 )">G</text><text style="&st18;" transform="matrix(&st16;  2037.24  643.98 )">G(*30)</text><text style="&st18;" transform="matrix(&st16;  2088.23  643.98 )">G(*30)</text><text style="&st18;" transform="matrix(&st17;  2217.24  216.77 )">T7</text><text ewd:textID="44" style="&st18;" transform="matrix(&st17;  2224.35  216.77 )">Rear Light Assembly LH</text><text style="&st18;" transform="matrix(&st17;  2316.42  507.11 )">(*33)</text><text ewd:textID="45" style="&st18;" transform="matrix(&st17;  2368.82  216.77 )">Rear Light Assembly RH</text><text style="&st18;" transform="matrix(&st17;  2361.72  216.77 )">T1</text><text style="&st18;" transform="matrix(&st16;  2390.59  196.95 )">1</text><text style="&st18;" transform="matrix(&st16;  2389.81  168.07 )">2</text><text style="&st18;" transform="matrix(&st16;  2441.58  196.95 )">1</text><text style="&st18;" transform="matrix(&st16;  2440.8  168.07 )">2</text><text ewd:textID="34" style="&st18;" transform="matrix(&st17;  2419.82  191.28 )">License Plate Light <tspan dy="6" x="0">Assembly LH</tspan></text><text style="&st18;" transform="matrix(&st17;  2412.71  191.28 )">T5</text><text ewd:textID="35" style="&st18;" transform="matrix(&st17;  2470.81  191.28 )">License Plate Light <tspan dy="6" x="0">Assembly RH</tspan></text><text style="&st18;" transform="matrix(&st17;  2463.7  191.28 )">T2</text><text style="&st18;" transform="matrix(&st17;  2443.9  365.73 )">G</text><text style="&st18;" transform="matrix(&st17;  2256.93  365.73 )">G</text><text style="&st18;" transform="matrix(&st17;  2112.45  267.66 )">G(*29)</text><text style="&st18;" transform="matrix(&st17;  2256.93  267.66 )">G(*29)</text><text style="&st18;" transform="matrix(&st17;  2392.91  267.66 )">G(*29)</text><text style="&st18;" transform="matrix(&st17;  2443.9  259.5 )">G</text><text style="&st18;" transform="matrix(&st17;  2392.9  136.96 )">W-B</text><text style="&st18;" transform="matrix(&st17;  2443.9  136.96 )">W-B</text><text style="&st18;" transform="matrix(&st16;  2109.36  222.44 )">2</text><text style="&st18;" transform="matrix(&st16;  2253.83  222.44 )">2</text><text style="&st18;" transform="matrix(&st16;  2253.83  125.57 )">3</text><text style="&st18;" transform="matrix(&st16;  2109.36  125.57 )">3</text><text style="&st18;" transform="matrix(&st17;  2112.45  357.23 )">G</text><text ewd:textID="59" style="&st18;" transform="matrix(&st17;  2248.43  177.3 )">Tail</text><text style="&st18;" transform="matrix(&st17;  2435.4  557.64 )">W-B</text><text style="&st18;" transform="matrix(&st17;  2248.43  561.89 )">W-B</text><text style="&st18;" transform="matrix(&st17;  2435.4  663.88 )">W-B</text><text style="&st18;" transform="matrix(&st16;  2218.93  91.57 )">W-B</text><text style="&st18;" transform="matrix(&st16;  2266.6  407.15 )">(*30)</text><text style="&st18;" transform="matrix(&st16;  2258.29  407.15 )">B</text><text style="&st18;" transform="matrix(&st16;  2249.75  407.15 )">2</text><text style="&st18;" transform="matrix(&st16;  2266.6  398.09 )">(*29)</text><text style="&st18;" transform="matrix(&st16;  2258.29  398.09 )">A</text><text style="&st18;" transform="matrix(&st16;  2249.75  398.09 )">2</text><text style="&st18;" transform="matrix(&st16;  2453.56  407.15 )">(*30)</text><text style="&st18;" transform="matrix(&st16;  2445.26  407.15 )">B</text><text style="&st18;" transform="matrix(&st16;  2436.71  407.15 )">2</text><text style="&st18;" transform="matrix(&st16;  2453.56  398.09 )">(*29)</text><text style="&st18;" transform="matrix(&st16;  2445.26  398.09 )">A</text><text style="&st18;" transform="matrix(&st16;  2436.71  398.09 )">2</text><text style="&st18;" transform="matrix(&st16;  2258.1  535.77 )">(*30)</text><text style="&st18;" transform="matrix(&st16;  2249.79  535.77 )">B</text><text style="&st18;" transform="matrix(&st16;  2241.25  535.77 )">3</text><text style="&st18;" transform="matrix(&st16;  2258.1  526.7 )">(*29)</text><text style="&st18;" transform="matrix(&st16;  2249.79  526.7 )">A</text><text style="&st18;" transform="matrix(&st16;  2242.02  526.7 )">1</text><text style="&st18;" transform="matrix(&st16;  2445.07  535.77 )">(*30)</text><text style="&st18;" transform="matrix(&st16;  2436.76  535.77 )">B</text><text style="&st18;" transform="matrix(&st16;  2428.22  535.77 )">3</text><text style="&st18;" transform="matrix(&st16;  2445.07  526.7 )">(*29)</text><text style="&st18;" transform="matrix(&st16;  2436.76  526.7 )">A</text><text style="&st18;" transform="matrix(&st16;  2428.99  526.7 )">1</text><text style="&st18;" transform="matrix(&st16;  2223.87  304.04 )">G</text><text style="&st18;" transform="matrix(&st16;  2218.47  315.37 )">(*29)</text><text style="&st18;" transform="matrix(&st16;  2223.87  363.53 )">G</text><text style="&st18;" transform="matrix(&st16;  2218.47  374.86 )">(*30)</text><text style="&st18;" transform="matrix(&st16;  2325.86  304.04 )">G</text><text style="&st18;" transform="matrix(&st16;  2320.45  315.37 )">(*29)</text><text style="&st18;" transform="matrix(&st16;  2419.34  304.04 )">G</text><text style="&st18;" transform="matrix(&st16;  2413.94  315.37 )">(*29)</text><text style="&st18;" transform="matrix(&st16;  2325.86  346.53 )">G</text><text style="&st18;" transform="matrix(&st16;  2320.45  357.86 )">(*30)</text><text style="&st18;" transform="matrix(&st16;  2223.87  278.54 )">G</text><text style="&st18;" transform="matrix(&st16;  2218.47  289.87 )">(*30)</text><text style="&st18;" transform="matrix(&st16;  2325.86  278.54 )">G</text><text style="&st18;" transform="matrix(&st16;  2320.45  289.87 )">(*30)</text><text style="&st18;" transform="matrix(&st17;  2188.94  267.66 )">G(*30)</text><text style="&st18;" transform="matrix(&st17;  2273.93  267.66 )">G(*30)</text><text style="&st18;" transform="matrix(&st17;  2375.91  267.66 )">G(*30)</text><text style="&st18;" transform="matrix(&st17;  2426.9  267.66 )">G(*30)</text><text style="&st18;" transform="matrix(&st17;  2123.78  362.64 )">(*29)</text><text style="&st18;" transform="matrix(&st17;  2188.94  327.49 )">G</text><text style="&st18;" transform="matrix(&st17;  2200.27  332.89 )">(*30)</text><text style="&st18;" transform="matrix(&st17;  2455.23  371.13 )">(*29)</text><text style="&st18;" transform="matrix(&st17;  2455.23  264.9 )">(*29)</text><text style="&st18;" transform="matrix(&st17;  2268.26  371.13 )">(*29)</text><text style="&st18;" transform="matrix(&st17;  2299.42  456.12 )">(*33)</text><text style="&st18;" transform="matrix(&st16;  2244.63  516.51 )">E</text><text style="&st18;" transform="matrix(&st16;  2249.59  417.91 )">TL</text><text style="&st18;" transform="matrix(&st17;  2333.41  456.12 )">(*33)</text><text ewd:textID="60" style="&st18;" transform="matrix(&st16;  2306.27  471.18 )">Tail/Stop</text><text style="&st18;" transform="matrix(&st17;  2248.43  507.11 )">(*32)</text><text style="&st18;" transform="matrix(&st17;  2256.93  456.12 )">(*32)</text><text style="&st18;" transform="matrix(&st17;  2239.93  456.12 )">(*32)</text><text style="&st18;" transform="matrix(&st17;  2486.39  456.12 )">(*33)</text><text style="&st18;" transform="matrix(&st16;  2431.6  516.51 )">E</text><text style="&st18;" transform="matrix(&st16;  2436.56  417.91 )">TL</text><text ewd:textID="60" style="&st18;" transform="matrix(&st16;  2493.23  471.18 )">Tail/Stop</text><text style="&st18;" transform="matrix(&st17;  2435.4  507.11 )">(*32)</text><text style="&st18;" transform="matrix(&st17;  2443.9  456.12 )">(*32)</text><text style="&st18;" transform="matrix(&st17;  2426.9  456.12 )">(*32)</text><text ewd:textID="59" style="&st18;" transform="matrix(&st17;  2463.73  479.0 )">Tail</text><text ewd:textID="57" style="&st18;" transform="matrix(&st17;  2418.4  480.73 )">Stop</text><text ewd:textID="59" style="&st18;" transform="matrix(&st17;  2276.76  479.0 )">Tail</text><text ewd:textID="43" style="&st18;" transform="matrix(&st17;  2377.32  522.72 )">Rear Combination Light Assembly RH</text><text style="&st18;" transform="matrix(&st17;  2370.22  522.72 )">T12(A),T17(B)</text><text ewd:textID="57" style="&st18;" transform="matrix(&st17;  2231.43  480.73 )">Stop</text><text style="&st18;" transform="matrix(&st16;  2320.91  108.57 )">W-B</text><text ewd:textID="59" style="&st18;" transform="matrix(&st17;  2103.95  177.3 )">Tail</text><text style="&st18;" transform="matrix(&st17;  2256.93  158.67 )">(*32)</text><text ewd:textID="59" style="&st18;" transform="matrix(&st16;  2306.07  173.73 )">Tail</text><text style="&st18;" transform="matrix(&st16;  2253.13  210.56 )">B</text><text style="&st18;" transform="matrix(&st17;  2256.93  201.16 )">(*32)</text><text style="&st18;" transform="matrix(&st16;  2253.13  137.46 )">E</text><text style="&st18;" transform="matrix(&st16;  2286.46  142.56 )">(*33)</text><text style="&st18;" transform="matrix(&st16;  2286.46  193.56 )">(*33)</text><text style="&st18;" transform="matrix(&st17;  2112.45  158.67 )">(*32)</text><text ewd:textID="59" style="&st18;" transform="matrix(&st16;  2161.59  173.73 )">Tail</text><text style="&st18;" transform="matrix(&st16;  2108.65  210.56 )">B</text><text style="&st18;" transform="matrix(&st17;  2112.45  201.16 )">(*32)</text><text style="&st18;" transform="matrix(&st16;  2108.65  137.46 )">E</text><text style="&st18;" transform="matrix(&st16;  2141.98  142.56 )">(*33)</text><text style="&st18;" transform="matrix(&st16;  2141.98  193.56 )">(*33)</text><text style="&st18;" transform="matrix(&st17;  2188.94  403.97 )">G</text><text style="&st18;" transform="matrix(&st17;  2200.27  409.38 )">(*30)</text><text style="&st18;" transform="matrix(&st16;  2045.4  592.99 )">G</text><text style="&st18;" transform="matrix(&st16;  2096.39  592.99 )">G</text><text style="&st18;" transform="matrix(&st16;  2096.39  660.98 )">G</text><text style="&st18;" transform="matrix(&st16;  2045.4  660.98 )">G</text><text style="&st18;" transform="matrix(&st16;  2040.0  672.31 )">(*29)</text><text style="&st18;" transform="matrix(&st16;  2090.99  672.31 )">(*29)</text><text ewd:textID="37" style="&st18;" transform="matrix(&st16;  2147.62  32.08 )">Main Body ECU</text><text style="&st18;" transform="matrix(&st16;  2147.62  24.98 )">I12(A),I13(B)</text><text ewd:textID="3" style="&st18;" transform="matrix(&st16;  2215.6  641.15 )">*26 :From Sep. 2012 Production</text><text ewd:textID="11" style="&st18;" transform="matrix(&st16;  2215.6  683.64 )">*34 :From Sep. 2012 Production <tspan dy="8.5" x="14.17">until Sep. 2014 Production</tspan></text><text ewd:textID="7" style="&st18;" transform="matrix(&st16;  2215.6  658.14 )">*30 :From Sep. 2014 Production</text><text ewd:textID="6" style="&st18;" transform="matrix(&st16;  2215.6  649.65 )">*29 :Before Sep. 2014 Production</text><text ewd:textID="10" style="&st18;" transform="matrix(&st16;  2215.6  675.14 )">*33 :LED Type</text><text ewd:textID="9" style="&st18;" transform="matrix(&st16;  2215.6  666.64 )">*32 :Bulb Type</text></svg>