﻿<?xml version="1.0" encoding="utf-8"?>
<!DOCTYPE svg PUBLIC "-//W3C//DTD SVG 1.0//EN" "http://www.w3.org/TR/2001/REC-SVG-20010904/DTD/svg10.dtd"[
	<!ENTITY ns_flows "http://ns.adobe.com/Flows/1.0/">
	<!ENTITY ns_svg "http://www.w3.org/2000/svg">
	<!ENTITY ns_xlink "http://www.w3.org/1999/xlink">
	<!ENTITY st0 "font-size:7px;font-family:'MS-PGothic';adobe-font-script:japanese;">
	<!ENTITY st1 "font-size:6px;font-family:'ArialMT';">
	<!-- White fill  -->
	<!ENTITY st2 "fill:#FFFFFF;stroke:#000000; stroke-width:1.41;stroke-linecap:round;stroke-linejoin:round;">
	<!-- Yellow fill  -->
	<!ENTITY st3 "fill:#FFFFCC;stroke:#FFFFCC; stroke-width:0.1;stroke-linecap:round;stroke-linejoin:round;">
	<!-- Gray fill  -->
	<!ENTITY st4 "fill:#CCCCCC;stroke:#CCCCCC; stroke-width:0.1;stroke-linecap:round;stroke-linejoin:round;">
	<!-- Light-blue fill -->
	<!ENTITY st5 "fill:#CCECF4;stroke:#000000; stroke-width:1.133;stroke-linecap:round;stroke-linejoin:round;">
	<!ENTITY st6 "fill:none;stroke-linecap:butt; stroke-linejoin:round;">
	<!ENTITY st7 "fill:none;stroke:#000000;stroke-linecap:round;stroke-linejoin:round;">
	<!ENTITY st8 "enable-background:new    ;">
	<!-- Black fill -->
	<!ENTITY st9 "fill:#000000;stroke:#000000; stroke-linecap:round;stroke-linejoin:round;">
	<!-- SRS note   -->
	<!ENTITY st10 "font-size:9px;font-family:'ArialMT';">
	<!ENTITY st11 "font-size:9px;font-family:'Svg Symbol';">
	<!ENTITY st12 "font-size:6px;font-family:'Svg Symbol';">
	<!ENTITY st13 "fill:none;stroke:#ff0000;stroke-linecap:round;stroke-linejoin:round;">
	<!-- Yellow fill  -->
	<!ENTITY st14 "fill:#FFFF00;stroke:#FFFF00; stroke-width:0.1;stroke-linecap:round;stroke-linejoin:round;">
	<!ENTITY st15 "font-size:6px;font-family:'MS-PGothic';adobe-font-script:japanese;">
	<!ENTITY st16 "1.00 0.00 0.00 1.00">
	<!ENTITY st17 "0.00 -1.00 1.00 0.00">
	<!ENTITY st18 "font-size:6px;font-family:'Arial';">
	<!ENTITY st19 "font-size:9px;font-family:'Arial';">
	<!ENTITY st20 "font-size:6px;font-family:'MS-PGothic','MS PGothic';adobe-font-script:japanese;">
	<!ENTITY st21 "font-size:7px;font-family:'MS-PGothic','MS PGothic';adobe-font-script:japanese;">
	<!ATTLIST svg
		xmlns:ewd CDATA #FIXED "http://shcl.co.jp/ewd"
		xmlns:a CDATA #FIXED "http://ns.adobe.com/AdobeSVGViewerExtensions/3.0/"
		ewd:ver CDATA #IMPLIED
	>
	<!ATTLIST a
		ewd:lineID CDATA #IMPLIED
		ewd:groupID CDATA #IMPLIED
		ewd:figtype CDATA #IMPLIED
		ewd:code CDATA #IMPLIED
		ewd:figID CDATA #IMPLIED
		ewd:pinNo CDATA #IMPLIED
		ewd:comment CDATA #IMPLIED >
	<!ATTLIST g
		ewd:lineID CDATA #IMPLIED
		ewd:groupID CDATA #IMPLIED
		ewd:figtype CDATA #IMPLIED
		ewd:code CDATA #IMPLIED
		ewd:figID CDATA #IMPLIED
		ewd:pinNo CDATA #IMPLIED
		ewd:comment CDATA #IMPLIED >
	<!ATTLIST text
		ewd:textID CDATA #IMPLIED >
	<!ATTLIST title
		ewd:textID CDATA #IMPLIED >
]>
<!-- Generator: Shintec Hozumi YS   -->
<svg onload="call_execInitLoadProc_svg('system')" style="overflow:visible;  enable-background:new 0 0 1014.703 710.000" viewBox="0 0 1014.703 710.000" height="710.000" width="1014.703" xml:space="preserve" ewd:ver="L2.1.2.8" xmlns="&ns_svg;" xmlns:a="http://ns.adobe.com/AdobeSVGViewerExtensions/3.0/" xmlns:ewd="http://shcl.co.jp/ewd" xmlns:xlink="&ns_xlink;"><script type="text/javascript" xlink:href="../../../../../system/js/ewd/fig/svgfig.js" xmlns:xlink="http://www.w3.org/1999/xlink" /><defs><font horiz-adv-x="1229"><font-face font-family="Svg Symbol" units-per-em="2048" panose-1="5 5 1 2 1 7 6 2 5 7" ascent="2059" descent="450" alphabetic="0" /><missing-glyph d="M 103,0 l 0,1280 1024,0 0,-1280 -1024,0 z m 32,32 l 960,0 0,1216 -960,0 0,-1216 z" /><glyph unicode="" horiz-adv-x="1573" d="M 1517,0 l -567,0 24,279 q 141,59 207.5,168 66.5,109 66.5,306    0,272 -132.5,417.5 -132.5,145.5 -333.5,145.5 -194,0 -328,-147.5 -134,-147.5 -134,-401.5 0,-200 68.5,-319 68.5,-119     206.5,-169 l 25,-279 -564,0 0,279 35,0 q 3,-61 32,-83 45,-35 137,-35 l 270,0 0,70 q -210,61 -324.5,209 -114.5,148     -114.5,349 0,252 186.5,425 186.5,173 504.5,173 195,0 358.5,-73.5 163.5,-73.5 252,-214.5 88.5,-141 88.5,-310 0,-207     -121.5,-360.5 -121.5,-153.5 -317.5,-197.5 l -8,-70 275,0 q 92,0 128,28 36,28 42,90 l 38,0 0,-279 z" /></font></defs>
<g id="ewd_top"><a ewd:code="2" ewd:figID="1" ewd:figtype="rb" style="cursor:pointer;"><path d=" M  220.96,  239.75  L  263.46,  239.75  L  263.46,  273.74  L  220.96,  273.74  L  220.96,  239.75 " style="&st5;" /></a><a ewd:code="N26" ewd:figID="2" ewd:figtype="conn" style="cursor:pointer;"><path d=" M  237.96,  596.69  L  237.96,  647.68  L  348.44,  647.68  L  348.44,  596.69  L  237.96,  596.69 " style="&st5;" /><title ewd:textID="11">Radio Setting Condenser (Center Stop Light)</title></a><a ewd:code="T15" ewd:figID="3" ewd:figtype="conn" style="cursor:pointer;"><path d=" M  815.86,  341.73  L  832.86,  341.73  L  832.86,  358.73  L  815.86,  358.73  L  815.86,  341.73 " style="&st5;" /><title ewd:textID="10">Junction Connector</title></a><a ewd:code="N43" ewd:figID="4" ewd:figtype="conn" style="cursor:pointer;"><path d=" M  365.44,  426.71  L  365.44,  452.21  L  382.44,  452.21  L  382.44,  426.71  L  365.44,  426.71 " style="&st5;" /><title ewd:textID="9">Diode (Stop Light)</title></a><a ewd:code="N22" ewd:figID="5" ewd:figtype="conn" style="cursor:pointer;"><path d=" M  399.43,  571.19  L  399.43,  613.68  L  433.43,  613.68  L  433.43,  571.19  L  399.43,  571.19 " style="&st5;" /><title ewd:textID="8">Center Stop Light Set</title></a><a ewd:code="T12,T17" ewd:figID="6" ewd:figtype="conn" style="cursor:pointer;"><path d=" M  620.40,  265.24  L  620.40,  154.76  L  764.87,  154.76  L  764.87,  265.24  L  620.40,  265.24 " style="&st5;" /><title ewd:textID="13">Rear Combination Light Assembly RH</title></a><a ewd:code="T16,T9" ewd:figID="7" ewd:figtype="conn" style="cursor:pointer;"><path d=" M  849.86,  265.24  L  849.86,  154.76  L  994.33,  154.76  L  994.33,  265.24  L  849.86,  265.24 " style="&st5;" /><title ewd:textID="12">Rear Combination Light Assembly LH</title></a><a ewd:code="A33" ewd:figID="8" ewd:figtype="conn" style="cursor:pointer;"><path d=" M  144.48,  307.73  L  144.48,  273.74  L  127.48,  273.74  L  127.48,  307.73  L  144.48,  307.73 " style="&st5;" /><title ewd:textID="16">Stop Light Switch Assembly</title></a><a ewd:code="A71" ewd:figID="9" ewd:figtype="conn" style="cursor:pointer;"><path d=" M  127.48,  384.22  L  127.48,  401.22  L  203.97,  401.22  L  203.97,  384.22  L  127.48,  384.22 " style="&st5;" /><title ewd:textID="10">Junction Connector</title></a><a ewd:code="N41" ewd:figID="10" ewd:figtype="conn" style="cursor:pointer;"><path d=" M  288.95,  520.20  L  305.95,  520.20  L  305.95,  537.20  L  288.95,  537.20  L  288.95,  520.20 " style="&st5;" /><title ewd:textID="10">Junction Connector</title></a><a ewd:code="A77" ewd:figID="11" ewd:figtype="conn" style="cursor:pointer;"><path d=" M   17.00,  265.24  L   17.00,  299.24  L   84.99,  299.24  L   84.99,  265.24  L   17.00,  265.24 " style="&st5;" /><title ewd:textID="16">Stop Light Switch Assembly</title></a><a ewd:code="3" ewd:figID="12" ewd:figtype="jb" style="cursor:pointer;"><path d=" M  118.98,   35.78  L  118.98,  120.77  L  237.96,  120.77  L  237.96,   35.78  L  118.98,   35.78 " style="&st4;" /></a><a ewd:code="FUSE55" ewd:figID="13" ewd:figtype="fuse" style="cursor:pointer;"><path d=" M  123.23,   35.78  L  123.23,   78.27  L  148.73,   78.27  L  148.73,   35.78  L  123.23,   35.78 " style="&st7;" /></a><a ewd:lineID="1" style="cursor:pointer;"><path d=" M   33.99,  681.67  L   33.99,  494.70 " style="stroke:#000000;stroke-width: 5.10 ;&st6;" /><path d=" M   33.99,  681.67  L   33.99,  494.70 " style="stroke:#FFFFFF;stroke-width: 4.53 ;&st6;" /><path d=" M   33.99,  681.67  L   33.99,  494.70 " style="stroke:#000000;stroke-width: 1.13 ;&st6;" /></a><a ewd:lineID="2" style="cursor:pointer;"><path d=" M   33.99,  299.24  L   33.99,  477.71 " style="stroke:#000000;stroke-width: 5.10 ;&st6;" /><path d=" M   33.99,  299.24  L   33.99,  477.71 " style="stroke:#FFFFFF;stroke-width: 4.53 ;&st6;" /></a><a ewd:lineID="3" style="cursor:pointer;"><path d=" M   67.99,  299.24  L   67.99,  358.73  L  127.48,  358.73  L  135.98,  367.22  L  135.98,  375.16 " style="stroke:#FF0000;stroke-width: 5.10 ;&st6;" /></a><a ewd:lineID="4" style="cursor:pointer;"><path d=" M   67.99,  265.24  L   67.99,  137.76  L  127.48,  137.76  L  135.98,  129.26  L  135.98,  120.77 " style="stroke:#00A0C6;stroke-width: 5.10 ;&st6;" /></a><a ewd:lineID="5" style="cursor:pointer;"><path d=" M  135.98,  375.16  L  135.98,  307.73 " style="stroke:#FF0000;stroke-width: 5.10 ;&st6;" /></a><a ewd:lineID="6" style="cursor:pointer;"><path d=" M  135.98,  120.77  L  135.98,  273.74 " style="stroke:#00A0C6;stroke-width: 5.10 ;&st6;" /></a><a ewd:lineID="7" style="cursor:pointer;"><path d=" M  195.47,  375.16  L  195.47,  307.73 " style="stroke:#00A0C6;stroke-width: 5.10 ;&st6;" /></a><a ewd:lineID="8" style="cursor:pointer;"><path d=" M  195.47,  375.16  L  195.47,  367.22  L  178.47,  350.23  L  178.47,  197.25  L  322.95,  197.25  L  322.95,  358.73 " style="stroke:#7FC97F;stroke-width: 5.10 ;&st6;" /></a><a ewd:lineID="9" style="cursor:pointer;"><path d=" M  322.95,  358.73  L  322.95,  350.23  L  305.95,  333.23  L  229.46,  333.23  L  229.46,  307.73 " style="stroke:#999999;stroke-width: 5.10 ;&st6;" /></a><a ewd:lineID="10" style="cursor:pointer;"><path d=" M  229.46,  120.77  L  229.46,  205.75 " style="stroke:#FF0000;stroke-width: 5.10 ;&st6;" /></a><a ewd:lineID="11" style="cursor:pointer;"><path d=" M  297.45,  537.20  L  297.45,  571.19  L  305.95,  571.19  L  322.95,  588.19  L  322.95,  596.69 " style="stroke:#00A0C6;stroke-width: 5.10 ;&st6;" /></a><a ewd:lineID="12" style="cursor:pointer;"><path d=" M  297.45,  520.20  L  297.45,  384.22  L  314.45,  384.22  L  322.95,  375.72  L  322.95,  373.46 " style="stroke:#00A0C6;stroke-width: 5.10 ;&st6;" /></a><a ewd:lineID="13" style="cursor:pointer;"><path d=" M  798.87,  441.44  L  798.87,  528.70  L  305.95,  528.70 " style="stroke:#00A0C6;stroke-width: 5.10 ;&st6;" /></a><a ewd:lineID="14" style="cursor:pointer;"><path d=" M  322.95,  596.69  L  322.95,  503.20 " style="stroke:#00A0C6;stroke-width: 5.10 ;&st6;" /></a><a ewd:lineID="15" style="cursor:pointer;"><path d=" M  322.95,  596.69  L  322.95,  588.19  L  339.94,  571.19  L  339.94,  545.69  L  416.43,  545.69  L  416.43,  571.19 " style="stroke:#00A0C6;stroke-width: 5.10 ;&st6;" /></a><a ewd:lineID="16" style="cursor:pointer;"><path d=" M  322.95,  373.46  L  322.95,  486.20 " style="stroke:#00A0C6;stroke-width: 5.10 ;&st6;" /></a><a ewd:lineID="17" style="cursor:pointer;"><path d=" M  373.94,  426.71  L  373.94,  384.22  L  331.44,  384.22  L  322.95,  375.72  L  322.95,  373.46 " style="stroke:#00A0C6;stroke-width: 5.10 ;&st6;" /></a><a ewd:lineID="18" style="cursor:pointer;"><path d=" M  373.94,  452.21  L  373.94,  477.71  L  339.94,  477.71  L  328.96,  488.69 " style="stroke:#00A0C6;stroke-width: 5.10 ;&st6;" /></a><a ewd:lineID="19" style="cursor:pointer;"><path d=" M  331.44,  494.70  L  781.87,  494.70  L  781.87,  460.71  L  798.87,  443.71  L  798.87,  441.44 " style="stroke:#00A0C6;stroke-width: 5.10 ;&st6;" /></a><a ewd:lineID="20" style="cursor:pointer;"><path d=" M  416.43,  681.67  L  416.43,  613.68 " style="stroke:#000000;stroke-width: 5.10 ;&st6;" /><path d=" M  416.43,  681.67  L  416.43,  613.68 " style="stroke:#FFFFFF;stroke-width: 4.53 ;&st6;" /><path d=" M  416.43,  681.67  L  416.43,  613.68 " style="stroke:#000000;stroke-width: 1.13 ;&st6;" /></a><a ewd:lineID="21" style="cursor:pointer;"><path d=" M  790.37,  367.22  L  577.90,  367.22  L  577.90,   95.27  L  645.89,   95.27  L  645.89,  136.63 " style="stroke:#00A0C6;stroke-width: 5.10 ;&st6;" /></a><a ewd:lineID="22" style="cursor:pointer;"><path d=" M  815.86,  350.23  L  603.40,  350.23  L  603.40,  112.27  L  628.89,  112.27  L  645.89,  129.26  L  645.89,  136.63 " style="stroke:#00A0C6;stroke-width: 5.10 ;&st6;" /></a><a ewd:lineID="23" style="cursor:pointer;"><path d=" M  654.39,  283.37  L  654.39,  324.73  L  875.35,  324.73 " style="stroke:#000000;stroke-width: 5.10 ;&st6;" /><path d=" M  654.39,  283.37  L  654.39,  324.73  L  875.35,  324.73 " style="stroke:#FFFFFF;stroke-width: 4.53 ;&st6;" /><path d=" M  654.39,  283.37  L  654.39,  324.73  L  875.35,  324.73 " style="stroke:#000000;stroke-width: 1.13 ;&st6;" /></a><a ewd:lineID="24" style="cursor:pointer;"><path d=" M  798.87,  426.71  L  798.87,  375.72 " style="stroke:#00A0C6;stroke-width: 5.10 ;&st6;" /></a><a ewd:lineID="25" style="cursor:pointer;"><path d=" M  824.36,  358.73  L  824.36,  409.72  L  807.37,  409.72  L  798.87,  418.22  L  798.87,  426.71 " style="stroke:#00A0C6;stroke-width: 5.10 ;&st6;" /></a><a ewd:lineID="26" style="cursor:pointer;"><path d=" M  798.87,  358.73  L  798.87,   95.27  L  875.35,   95.27  L  875.35,  136.63 " style="stroke:#00A0C6;stroke-width: 5.10 ;&st6;" /></a><a ewd:lineID="27" style="cursor:pointer;"><path d=" M  824.36,  341.73  L  824.36,  112.27  L  858.36,  112.27  L  875.35,  129.26  L  875.35,  136.63 " style="stroke:#00A0C6;stroke-width: 5.10 ;&st6;" /></a><a ewd:lineID="28" style="cursor:pointer;"><path d=" M  883.85,  681.67  L  883.85,  333.23 " style="stroke:#000000;stroke-width: 5.10 ;&st6;" /><path d=" M  883.85,  681.67  L  883.85,  333.23 " style="stroke:#FFFFFF;stroke-width: 4.53 ;&st6;" /><path d=" M  883.85,  681.67  L  883.85,  333.23 " style="stroke:#000000;stroke-width: 1.13 ;&st6;" /></a><a ewd:lineID="29" style="cursor:pointer;"><path d=" M  883.85,  283.37  L  883.85,  316.23 " style="stroke:#000000;stroke-width: 5.10 ;&st6;" /><path d=" M  883.85,  283.37  L  883.85,  316.23 " style="stroke:#FFFFFF;stroke-width: 4.53 ;&st6;" /><path d=" M  883.85,  283.37  L  883.85,  316.23 " style="stroke:#000000;stroke-width: 1.13 ;&st6;" /></a><a ewd:code="TN1" ewd:figID="14" ewd:figtype="w2w" ewd:pinNo="8" style="cursor:pointer;"><path d=" M  807.37,  426.71  L  790.37,  426.71  L  790.37,  435.21  L  807.37,  435.21  L  807.37,  426.71 " style="&st2;" /><text style="&st8;" transform="matrix(&st16;  792.36  433.46 )"><tspan style="&st18;" x="0" y="0">TN1</tspan></text></a><a ewd:code="AN1" ewd:figID="15" ewd:figtype="w2w" ewd:pinNo="11" style="cursor:pointer;"><path d=" M  331.44,  358.73  L  314.45,  358.73  L  314.45,  367.22  L  331.44,  367.22  L  331.44,  358.73 " style="&st2;" /><text style="&st8;" transform="matrix(&st16;  316.22  365.47 )"><tspan style="&st18;" x="0" y="0">AN1</tspan></text></a><a ewd:code="A1" ewd:figID="16" ewd:figtype="gp" style="cursor:pointer;"><path d=" M   23.37,  681.67  L   44.62,  681.67  L   33.99,  697.25  L   23.37,  681.67 " style="&st2;" /><text style="&st8;" transform="matrix(&st16;  29.87  689.83 )"><tspan style="&st18;" x="0" y="0">A1</tspan></text></a><a ewd:code="N1" ewd:figID="17" ewd:figtype="gp" style="cursor:pointer;"><path d=" M  405.81,  681.67  L  427.05,  681.67  L  416.43,  697.25  L  405.81,  681.67 " style="&st2;" /><text style="&st8;" transform="matrix(&st16;  412.15  689.83 )"><tspan style="&st18;" x="0" y="0">N1</tspan></text></a><a ewd:code="T1" ewd:figID="18" ewd:figtype="gp" style="cursor:pointer;"><path d=" M  873.23,  681.67  L  894.48,  681.67  L  883.85,  697.25  L  873.23,  681.67 " style="&st2;" /><text style="&st8;" transform="matrix(&st16;  879.95  689.83 )"><tspan style="&st18;" x="0" y="0">T1</tspan></text></a><a ewd:code="2221" ewd:figID="19" ewd:figtype="sp" style="cursor:pointer;"><path d=" M  318.70,  486.20  L  327.20,  486.20  L  331.44,  490.45  L  331.44,  498.95  L  327.20,  503.20  L  318.70,  503.20  L  314.45,  498.95  L  314.45,  490.45  L  318.70,  486.20 " style="&st2;" /></a><a ewd:code="2149" ewd:figID="20" ewd:figtype="sp" style="cursor:pointer;"><path d=" M  794.62,  358.73  L  803.12,  358.73  L  807.37,  362.97  L  807.37,  371.47  L  803.12,  375.72  L  794.62,  375.72  L  790.37,  371.47  L  790.37,  362.97  L  794.62,  358.73 " style="&st2;" /></a><a ewd:code="709" ewd:figID="21" ewd:figtype="sp" style="cursor:pointer;"><path d=" M   29.75,  477.71  L   38.24,  477.71  L   42.49,  481.95  L   42.49,  490.45  L   38.24,  494.70  L   29.75,  494.70  L   25.50,  490.45  L   25.50,  481.95  L   29.75,  477.71 " style="&st2;" /></a><a ewd:code="4225" ewd:figID="22" ewd:figtype="sp" style="cursor:pointer;"><path d=" M  879.60,  316.23  L  888.10,  316.23  L  892.35,  320.48  L  892.35,  328.98  L  888.10,  333.23  L  879.60,  333.23  L  875.35,  328.98  L  875.35,  320.48  L  879.60,  316.23 " style="&st2;" /></a></g></svg>