﻿<?xml version="1.0" encoding="utf-8"?>
<!DOCTYPE svg PUBLIC "-//W3C//DTD SVG 1.0//EN" "http://www.w3.org/TR/2001/REC-SVG-20010904/DTD/svg10.dtd"[
	<!ENTITY ns_flows "http://ns.adobe.com/Flows/1.0/">
	<!ENTITY ns_svg "http://www.w3.org/2000/svg">
	<!ENTITY ns_xlink "http://www.w3.org/1999/xlink">
	<!ENTITY st0 "font-size:7px;font-family:'MS-PGothic';adobe-font-script:japanese;">
	<!ENTITY st1 "font-size:6px;font-family:'ArialMT';">
	<!-- White fill  -->
	<!ENTITY st2 "fill:#FFFFFF;stroke:#000000; stroke-width:1.41;stroke-linecap:round;stroke-linejoin:round;">
	<!-- Yellow fill  -->
	<!ENTITY st3 "fill:#FFFFCC;stroke:#FFFFCC; stroke-width:0.1;stroke-linecap:round;stroke-linejoin:round;">
	<!-- Gray fill  -->
	<!ENTITY st4 "fill:#CCCCCC;stroke:#CCCCCC; stroke-width:0.1;stroke-linecap:round;stroke-linejoin:round;">
	<!-- Light-blue fill -->
	<!ENTITY st5 "fill:#CCECF4;stroke:#000000; stroke-width:1.133;stroke-linecap:round;stroke-linejoin:round;">
	<!ENTITY st6 "fill:none;stroke-linecap:butt; stroke-linejoin:round;">
	<!ENTITY st7 "fill:none;stroke:#000000;stroke-linecap:round;stroke-linejoin:round;">
	<!ENTITY st8 "enable-background:new    ;">
	<!-- Black fill -->
	<!ENTITY st9 "fill:#000000;stroke:#000000; stroke-linecap:round;stroke-linejoin:round;">
	<!-- SRS note   -->
	<!ENTITY st10 "font-size:9px;font-family:'ArialMT';">
	<!ENTITY st11 "font-size:9px;font-family:'Svg Symbol';">
	<!ENTITY st12 "font-size:6px;font-family:'Svg Symbol';">
	<!ENTITY st13 "fill:none;stroke:#ff0000;stroke-linecap:round;stroke-linejoin:round;">
	<!-- Yellow fill  -->
	<!ENTITY st14 "fill:#FFFF00;stroke:#FFFF00; stroke-width:0.1;stroke-linecap:round;stroke-linejoin:round;">
	<!ENTITY st15 "font-size:6px;font-family:'MS-PGothic';adobe-font-script:japanese;">
	<!ENTITY st16 "1.00 0.00 0.00 1.00">
	<!ENTITY st17 "0.00 -1.00 1.00 0.00">
	<!ENTITY st18 "font-size:6px;font-family:'Arial';">
	<!ENTITY st19 "font-size:9px;font-family:'Arial';">
	<!ENTITY st20 "font-size:6px;font-family:'MS-PGothic','MS PGothic';adobe-font-script:japanese;">
	<!ENTITY st21 "font-size:7px;font-family:'MS-PGothic','MS PGothic';adobe-font-script:japanese;">
	<!ATTLIST svg
		xmlns:ewd CDATA #FIXED "http://shcl.co.jp/ewd"
		xmlns:a CDATA #FIXED "http://ns.adobe.com/AdobeSVGViewerExtensions/3.0/"
		ewd:ver CDATA #IMPLIED
	>
	<!ATTLIST a
		ewd:lineID CDATA #IMPLIED
		ewd:groupID CDATA #IMPLIED
		ewd:figtype CDATA #IMPLIED
		ewd:code CDATA #IMPLIED
		ewd:figID CDATA #IMPLIED
		ewd:pinNo CDATA #IMPLIED
		ewd:comment CDATA #IMPLIED >
	<!ATTLIST g
		ewd:lineID CDATA #IMPLIED
		ewd:groupID CDATA #IMPLIED
		ewd:figtype CDATA #IMPLIED
		ewd:code CDATA #IMPLIED
		ewd:figID CDATA #IMPLIED
		ewd:pinNo CDATA #IMPLIED
		ewd:comment CDATA #IMPLIED >
	<!ATTLIST text
		ewd:textID CDATA #IMPLIED >
	<!ATTLIST title
		ewd:textID CDATA #IMPLIED >
]>
<!-- Generator: Shintec Hozumi YS   -->
<svg onload="call_execInitLoadProc_svg('system')" style="overflow:visible;  enable-background:new 0 0 4012.038 710.000" viewBox="0 0 4012.038 710.000" height="710.000" width="4012.038" xml:space="preserve" ewd:ver="L2.1.2.8" xmlns="&ns_svg;" xmlns:a="http://ns.adobe.com/AdobeSVGViewerExtensions/3.0/" xmlns:ewd="http://shcl.co.jp/ewd" xmlns:xlink="&ns_xlink;">
<path d=" M 2668.55,  460.71  L 2719.54,  460.71  L 2719.54,  443.71  L 2668.55,  443.71  L 2668.55,  460.71 " style="stroke-width: 1.42 ;&st7; " /><path d=" M 2677.05,  443.71  L 2677.05,  460.71 " style="stroke-width: 0.85 ;&st7; " /><path d=" M 2711.05,  443.71  L 2711.05,  460.71 " style="stroke-width: 0.85 ;&st7; " /><path d=" M 2668.55,  333.23  L 2813.03,  333.23  L 2813.03,  307.73  L 2668.55,  307.73  L 2668.55,  333.23 " style="stroke-width: 1.42 ;&st7; " /><path d=" M 2677.05,  307.73  L 2677.05,  333.23 " style="stroke-width: 0.85 ;&st7; " /><path d=" M 2711.05,  307.73  L 2711.05,  333.23 " style="stroke-width: 0.85 ;&st7; " /><path d=" M 2753.54,  197.25  L 2821.53,  197.25  L 2821.53,  163.26  L 2753.54,  163.26  L 2753.54,  197.25 " style="stroke-width: 1.42 ;&st7; " /><path d=" M 2675.86,  323.73  L 2675.59,  324.20  L 2675.49,  324.73  L 2675.59,  325.26  L 2675.86,  325.73  L 2676.27,  326.08  L 2676.78,  326.27  L 2677.32,  326.27  L 2677.83,  326.08  L 2678.24,  325.73  L 2678.52,  325.26  L 2678.61,  324.73  L 2678.52,  324.20  L 2678.24,  323.73  L 2677.83,  323.38  L 2677.32,  323.20  L 2676.78,  323.20  L 2676.27,  323.38  L 2675.86,  323.73  L 2676.25,  324.44  L 2676.25,  325.02  L 2676.63,  325.47  L 2677.20,  325.57  L 2677.70,  325.28  L 2677.90,  324.73  L 2677.70,  324.18  L 2677.20,  323.90  L 2676.63,  323.99  L 2677.05,  324.73 " style="stroke-width: 0.85 ;&st7; " /><path d=" M 2677.05,  324.73  L 2804.53,  324.73  L 2804.53,  307.73 " style="stroke-width: 0.85 ;&st7; " /><path d=" M 2711.05,  316.23  L 2770.54,  316.23  L 2770.54,  307.73 " style="stroke-width: 0.85 ;&st7; " /><path d=" M 2709.85,  315.23  L 2709.58,  315.70  L 2709.49,  316.23  L 2709.58,  316.77  L 2709.85,  317.24  L 2710.27,  317.58  L 2710.77,  317.77  L 2711.32,  317.77  L 2711.82,  317.58  L 2712.24,  317.24  L 2712.51,  316.77  L 2712.60,  316.23  L 2712.51,  315.70  L 2712.24,  315.23  L 2711.82,  314.88  L 2711.32,  314.70  L 2710.77,  314.70  L 2710.27,  314.88  L 2709.85,  315.23  L 2710.25,  315.94  L 2710.25,  316.52  L 2710.62,  316.97  L 2711.19,  317.07  L 2711.70,  316.78  L 2711.90,  316.23  L 2711.70,  315.69  L 2711.19,  315.40  L 2710.62,  315.50  L 2711.05,  316.23 " style="stroke-width: 0.85 ;&st7; " /><path d=" M 2872.52,  469.21  L 3000.00,  469.21  L 3000.00,  443.71  L 2872.52,  443.71  L 2872.52,  469.21 " style="stroke-width: 1.42 ;&st7; " /><path d=" M 2881.02,  443.71  L 2881.02,  460.71  L 2991.50,  460.71 " style="stroke-width: 0.85 ;&st7; " /><path d=" M 2957.50,  443.71  L 2957.50,  469.21 " style="stroke-width: 0.85 ;&st7; " /><path d=" M 2991.50,  443.71  L 2991.50,  469.21 " style="stroke-width: 0.85 ;&st7; " /><path d=" M 2949.01,  324.73  L 3000.00,  324.73  L 3000.00,  307.73  L 2949.01,  307.73  L 2949.01,  324.73 " style="stroke-width: 1.42 ;&st7; " /><path d=" M 2957.50,  307.73  L 2957.50,  324.73 " style="stroke-width: 0.85 ;&st7; " /><path d=" M 2991.50,  307.73  L 2991.50,  324.73 " style="stroke-width: 0.85 ;&st7; " /><path d=" M 2956.31,  451.21  L 2956.04,  451.68  L 2955.95,  452.21  L 2956.04,  452.74  L 2956.31,  453.21  L 2956.73,  453.56  L 2957.24,  453.75  L 2957.77,  453.75  L 2958.28,  453.56  L 2958.70,  453.21  L 2958.97,  452.74  L 2959.06,  452.21  L 2958.97,  451.68  L 2958.70,  451.21  L 2958.28,  450.86  L 2957.77,  450.67  L 2957.24,  450.67  L 2956.73,  450.86  L 2956.31,  451.21  L 2956.71,  451.92  L 2956.71,  452.50  L 2957.08,  452.95  L 2957.65,  453.05  L 2958.16,  452.76  L 2958.35,  452.21  L 2958.16,  451.66  L 2957.65,  451.37  L 2957.08,  451.47  L 2957.50,  452.21 " style="stroke-width: 0.85 ;&st7; " /><path d=" M 2990.31,  459.71  L 2990.03,  460.18  L 2989.94,  460.71  L 2990.03,  461.24  L 2990.31,  461.71  L 2990.72,  462.06  L 2991.23,  462.24  L 2991.77,  462.24  L 2992.28,  462.06  L 2992.69,  461.71  L 2992.96,  461.24  L 2993.06,  460.71  L 2992.96,  460.18  L 2992.69,  459.71  L 2992.28,  459.36  L 2991.77,  459.17  L 2991.23,  459.17  L 2990.72,  459.36  L 2990.31,  459.71  L 2990.70,  460.42  L 2990.70,  461.00  L 2991.07,  461.44  L 2991.65,  461.54  L 2992.15,  461.26  L 2992.35,  460.71  L 2992.15,  460.16  L 2991.65,  459.87  L 2991.07,  459.97  L 2991.50,  460.71 " style="stroke-width: 0.85 ;&st7; " /><path d=" M 2915.01,  443.71  L 2915.01,  452.21  L 2957.50,  452.21 " style="stroke-width: 0.85 ;&st7; " /><path d=" M 2779.03,  210.85  L 2787.53,  210.85 " style="stroke-width: 0.85 ;&st7;stroke-dasharray:3, 1.5;" /><path d=" M 2779.03,  201.79  L 2787.53,  201.79 " style="stroke-width: 0.85 ;&st7;stroke-dasharray:3, 1.5;" /><path d=" M 2996.03,  439.18  C 2996.03   436.68  2994.00   434.65  2991.50   434.65 " style="stroke-width: 1.42 ;&st7; " /><path d=" M 2991.50,  434.65  C 2989.00   434.65  2986.97   436.68  2986.97   439.18 " style="stroke-width: 1.42 ;&st7; " /><path d=" M 2986.97,  439.18  C 2986.97   441.68  2989.00   443.71  2991.50   443.71 " style="stroke-width: 1.42 ;&st7; " /><path d=" M 2991.50,  443.71  C 2994.00   443.71  2996.03   441.68  2996.03   439.18 " style="stroke-width: 1.42 ;&st7; " /><path d=" M 2962.04,  439.18  C 2962.04   436.68  2960.01   434.65  2957.51   434.65 " style="stroke-width: 1.42 ;&st7; " /><path d=" M 2957.51,  434.65  C 2955.00   434.65  2952.97   436.68  2952.97   439.18 " style="stroke-width: 1.42 ;&st7; " /><path d=" M 2952.97,  439.18  C 2952.97   441.68  2955.00   443.71  2957.51   443.71 " style="stroke-width: 1.42 ;&st7; " /><path d=" M 2957.51,  443.71  C 2960.01   443.71  2962.04   441.68  2962.04   439.18 " style="stroke-width: 1.42 ;&st7; " /><path d=" M 2962.04,  303.20  C 2962.04   300.70  2960.01   298.67  2957.51   298.67 " style="stroke-width: 1.42 ;&st7; " /><path d=" M 2957.51,  298.67  C 2955.00   298.67  2952.97   300.70  2952.97   303.20 " style="stroke-width: 1.42 ;&st7; " /><path d=" M 2952.97,  303.20  C 2952.97   305.70  2955.00   307.73  2957.51   307.73 " style="stroke-width: 1.42 ;&st7; " /><path d=" M 2957.51,  307.73  C 2960.01   307.73  2962.04   305.70  2962.04   303.20 " style="stroke-width: 1.42 ;&st7; " /><path d=" M 2996.03,  303.20  C 2996.03   300.70  2994.00   298.67  2991.50   298.67 " style="stroke-width: 1.42 ;&st7; " /><path d=" M 2991.50,  298.67  C 2989.00   298.67  2986.97   300.70  2986.97   303.20 " style="stroke-width: 1.42 ;&st7; " /><path d=" M 2986.97,  303.20  C 2986.97   305.70  2989.00   307.73  2991.50   307.73 " style="stroke-width: 1.42 ;&st7; " /><path d=" M 2991.50,  307.73  C 2994.00   307.73  2996.03   305.70  2996.03   303.20 " style="stroke-width: 1.42 ;&st7; " /><path d=" M 2996.03,  329.26  C 2996.03   326.76  2994.00   324.73  2991.50   324.73 " style="stroke-width: 1.42 ;&st7; " /><path d=" M 2991.50,  324.73  C 2989.00   324.73  2986.97   326.76  2986.97   329.26 " style="stroke-width: 1.42 ;&st7; " /><path d=" M 2986.97,  329.26  C 2986.97   331.77  2989.00   333.80  2991.50   333.80 " style="stroke-width: 1.42 ;&st7; " /><path d=" M 2991.50,  333.80  C 2994.00   333.80  2996.03   331.77  2996.03   329.26 " style="stroke-width: 1.42 ;&st7; " /><path d=" M 2962.04,  329.26  C 2962.04   326.76  2960.01   324.73  2957.51   324.73 " style="stroke-width: 1.42 ;&st7; " /><path d=" M 2957.51,  324.73  C 2955.00   324.73  2952.97   326.76  2952.97   329.26 " style="stroke-width: 1.42 ;&st7; " /><path d=" M 2952.97,  329.26  C 2952.97   331.77  2955.00   333.80  2957.51   333.80 " style="stroke-width: 1.42 ;&st7; " /><path d=" M 2957.51,  333.80  C 2960.01   333.80  2962.04   331.77  2962.04   329.26 " style="stroke-width: 1.42 ;&st7; " /><path d=" M 2962.04,  473.74  C 2962.04   471.24  2960.01   469.21  2957.51   469.21 " style="stroke-width: 1.42 ;&st7; " /><path d=" M 2957.51,  469.21  C 2955.00   469.21  2952.97   471.24  2952.97   473.74 " style="stroke-width: 1.42 ;&st7; " /><path d=" M 2952.97,  473.74  C 2952.97   476.24  2955.00   478.27  2957.51   478.27 " style="stroke-width: 1.42 ;&st7; " /><path d=" M 2957.51,  478.27  C 2960.01   478.27  2962.04   476.24  2962.04   473.74 " style="stroke-width: 1.42 ;&st7; " /><path d=" M 2996.03,  473.74  C 2996.03   471.24  2994.00   469.21  2991.50   469.21 " style="stroke-width: 1.42 ;&st7; " /><path d=" M 2991.50,  469.21  C 2989.00   469.21  2986.97   471.24  2986.97   473.74 " style="stroke-width: 1.42 ;&st7; " /><path d=" M 2986.97,  473.74  C 2986.97   476.24  2989.00   478.27  2991.50   478.27 " style="stroke-width: 1.42 ;&st7; " /><path d=" M 2991.50,  478.27  C 2994.00   478.27  2996.03   476.24  2996.03   473.74 " style="stroke-width: 1.42 ;&st7; " /><path d=" M 2885.55,  439.18  C 2885.55   436.68  2883.52   434.65  2881.02   434.65 " style="stroke-width: 1.42 ;&st7; " /><path d=" M 2881.02,  434.65  C 2878.52   434.65  2876.49   436.68  2876.49   439.18 " style="stroke-width: 1.42 ;&st7; " /><path d=" M 2876.49,  439.18  C 2876.49   441.68  2878.52   443.71  2881.02   443.71 " style="stroke-width: 1.42 ;&st7; " /><path d=" M 2881.02,  443.71  C 2883.52   443.71  2885.55   441.68  2885.55   439.18 " style="stroke-width: 1.42 ;&st7; " /><path d=" M 2919.55,  439.18  C 2919.55   436.68  2917.52   434.65  2915.01   434.65 " style="stroke-width: 1.42 ;&st7; " /><path d=" M 2915.01,  434.65  C 2912.51   434.65  2910.48   436.68  2910.48   439.18 " style="stroke-width: 1.42 ;&st7; " /><path d=" M 2910.48,  439.18  C 2910.48   441.68  2912.51   443.71  2915.01   443.71 " style="stroke-width: 1.42 ;&st7; " /><path d=" M 2915.01,  443.71  C 2917.52   443.71  2919.55   441.68  2919.55   439.18 " style="stroke-width: 1.42 ;&st7; " /><path d=" M 2809.06,  210.85  C 2809.06   208.35  2807.03   206.32  2804.53   206.32 " style="stroke-width: 1.42 ;&st7; " /><path d=" M 2804.53,  206.32  C 2802.03   206.32  2800.00   208.35  2800.00   210.85 " style="stroke-width: 1.42 ;&st7; " /><path d=" M 2800.00,  210.85  C 2800.00   213.35  2802.03   215.38  2804.53   215.38 " style="stroke-width: 1.42 ;&st7; " /><path d=" M 2804.53,  215.38  C 2807.03   215.38  2809.06   213.35  2809.06   210.85 " style="stroke-width: 1.42 ;&st7; " /><path d=" M 2775.07,  210.85  C 2775.07   208.35  2773.04   206.32  2770.54   206.32 " style="stroke-width: 1.42 ;&st7; " /><path d=" M 2770.54,  206.32  C 2768.03   206.32  2766.00   208.35  2766.00   210.85 " style="stroke-width: 1.42 ;&st7; " /><path d=" M 2766.00,  210.85  C 2766.00   213.35  2768.03   215.38  2770.54   215.38 " style="stroke-width: 1.42 ;&st7; " /><path d=" M 2770.54,  215.38  C 2773.04   215.38  2775.07   213.35  2775.07   210.85 " style="stroke-width: 1.42 ;&st7; " /><path d=" M 2715.58,  439.18  C 2715.58   436.68  2713.55   434.65  2711.05   434.65 " style="stroke-width: 1.42 ;&st7; " /><path d=" M 2711.05,  434.65  C 2708.54   434.65  2706.51   436.68  2706.51   439.18 " style="stroke-width: 1.42 ;&st7; " /><path d=" M 2706.51,  439.18  C 2706.51   441.68  2708.54   443.71  2711.05   443.71 " style="stroke-width: 1.42 ;&st7; " /><path d=" M 2711.05,  443.71  C 2713.55   443.71  2715.58   441.68  2715.58   439.18 " style="stroke-width: 1.42 ;&st7; " /><path d=" M 2681.59,  439.18  C 2681.59   436.68  2679.56   434.65  2677.05   434.65 " style="stroke-width: 1.42 ;&st7; " /><path d=" M 2677.05,  434.65  C 2674.55   434.65  2672.52   436.68  2672.52   439.18 " style="stroke-width: 1.42 ;&st7; " /><path d=" M 2672.52,  439.18  C 2672.52   441.68  2674.55   443.71  2677.05   443.71 " style="stroke-width: 1.42 ;&st7; " /><path d=" M 2677.05,  443.71  C 2679.56   443.71  2681.59   441.68  2681.59   439.18 " style="stroke-width: 1.42 ;&st7; " /><path d=" M 2681.59,  303.20  C 2681.59   300.70  2679.56   298.67  2677.05   298.67 " style="stroke-width: 1.42 ;&st7; " /><path d=" M 2677.05,  298.67  C 2674.55   298.67  2672.52   300.70  2672.52   303.20 " style="stroke-width: 1.42 ;&st7; " /><path d=" M 2672.52,  303.20  C 2672.52   305.70  2674.55   307.73  2677.05   307.73 " style="stroke-width: 1.42 ;&st7; " /><path d=" M 2677.05,  307.73  C 2679.56   307.73  2681.59   305.70  2681.59   303.20 " style="stroke-width: 1.42 ;&st7; " /><path d=" M 2715.58,  303.20  C 2715.58   300.70  2713.55   298.67  2711.05   298.67 " style="stroke-width: 1.42 ;&st7; " /><path d=" M 2711.05,  298.67  C 2708.54   298.67  2706.51   300.70  2706.51   303.20 " style="stroke-width: 1.42 ;&st7; " /><path d=" M 2706.51,  303.20  C 2706.51   305.70  2708.54   307.73  2711.05   307.73 " style="stroke-width: 1.42 ;&st7; " /><path d=" M 2711.05,  307.73  C 2713.55   307.73  2715.58   305.70  2715.58   303.20 " style="stroke-width: 1.42 ;&st7; " /><path d=" M 2775.07,  303.20  C 2775.07   300.70  2773.04   298.67  2770.54   298.67 " style="stroke-width: 1.42 ;&st7; " /><path d=" M 2770.54,  298.67  C 2768.03   298.67  2766.00   300.70  2766.00   303.20 " style="stroke-width: 1.42 ;&st7; " /><path d=" M 2766.00,  303.20  C 2766.00   305.70  2768.03   307.73  2770.54   307.73 " style="stroke-width: 1.42 ;&st7; " /><path d=" M 2770.54,  307.73  C 2773.04   307.73  2775.07   305.70  2775.07   303.20 " style="stroke-width: 1.42 ;&st7; " /><path d=" M 2809.06,  303.20  C 2809.06   300.70  2807.03   298.67  2804.53   298.67 " style="stroke-width: 1.42 ;&st7; " /><path d=" M 2804.53,  298.67  C 2802.03   298.67  2800.00   300.70  2800.00   303.20 " style="stroke-width: 1.42 ;&st7; " /><path d=" M 2800.00,  303.20  C 2800.00   305.70  2802.03   307.73  2804.53   307.73 " style="stroke-width: 1.42 ;&st7; " /><path d=" M 2804.53,  307.73  C 2807.03   307.73  2809.06   305.70  2809.06   303.20 " style="stroke-width: 1.42 ;&st7; " /><path d=" M 2775.07,  201.78  C 2775.07   199.28  2773.04   197.25  2770.54   197.25 " style="stroke-width: 1.42 ;&st7; " /><path d=" M 2770.54,  197.25  C 2768.03   197.25  2766.00   199.28  2766.00   201.78 " style="stroke-width: 1.42 ;&st7; " /><path d=" M 2766.00,  201.78  C 2766.00   204.29  2768.03   206.32  2770.54   206.32 " style="stroke-width: 1.42 ;&st7; " /><path d=" M 2770.54,  206.32  C 2773.04   206.32  2775.07   204.29  2775.07   201.78 " style="stroke-width: 1.42 ;&st7; " /><path d=" M 2809.06,  201.78  C 2809.06   199.28  2807.03   197.25  2804.53   197.25 " style="stroke-width: 1.42 ;&st7; " /><path d=" M 2804.53,  197.25  C 2802.03   197.25  2800.00   199.28  2800.00   201.78 " style="stroke-width: 1.42 ;&st7; " /><path d=" M 2800.00,  201.78  C 2800.00   204.29  2802.03   206.32  2804.53   206.32 " style="stroke-width: 1.42 ;&st7; " /><path d=" M 2804.53,  206.32  C 2807.03   206.32  2809.06   204.29  2809.06   201.78 " style="stroke-width: 1.42 ;&st7; " /><path d=" M 2681.59,  465.24  C 2681.59   462.74  2679.56   460.71  2677.05   460.71 " style="stroke-width: 1.42 ;&st7; " /><path d=" M 2677.05,  460.71  C 2674.55   460.71  2672.52   462.74  2672.52   465.24 " style="stroke-width: 1.42 ;&st7; " /><path d=" M 2672.52,  465.24  C 2672.52   467.74  2674.55   469.77  2677.05   469.77 " style="stroke-width: 1.42 ;&st7; " /><path d=" M 2677.05,  469.77  C 2679.56   469.77  2681.59   467.74  2681.59   465.24 " style="stroke-width: 1.42 ;&st7; " /><path d=" M 2715.58,  465.24  C 2715.58   462.74  2713.55   460.71  2711.05   460.71 " style="stroke-width: 1.42 ;&st7; " /><path d=" M 2711.05,  460.71  C 2708.54   460.71  2706.51   462.74  2706.51   465.24 " style="stroke-width: 1.42 ;&st7; " /><path d=" M 2706.51,  465.24  C 2706.51   467.74  2708.54   469.77  2711.05   469.77 " style="stroke-width: 1.42 ;&st7; " /><path d=" M 2711.05,  469.77  C 2713.55   469.77  2715.58   467.74  2715.58   465.24 " style="stroke-width: 1.42 ;&st7; " /><path d=" M 2681.59,   82.80  C 2681.59    80.30  2679.56    78.27  2677.05    78.27 " style="stroke-width: 1.42 ;&st7; " /><path d=" M 2677.05,   78.27  C 2674.55    78.27  2672.52    80.30  2672.52    82.80 " style="stroke-width: 1.42 ;&st7; " /><path d=" M 2672.52,   82.80  C 2672.52    85.31  2674.55    87.34  2677.05    87.34 " style="stroke-width: 1.42 ;&st7; " /><path d=" M 2677.05,   87.34  C 2679.56    87.34  2681.59    85.31  2681.59    82.80 " style="stroke-width: 1.42 ;&st7; " /><path d=" M 2715.58,   82.80  C 2715.58    80.30  2713.55    78.27  2711.05    78.27 " style="stroke-width: 1.42 ;&st7; " /><path d=" M 2711.05,   78.27  C 2708.54    78.27  2706.51    80.30  2706.51    82.80 " style="stroke-width: 1.42 ;&st7; " /><path d=" M 2706.51,   82.80  C 2706.51    85.31  2708.54    87.34  2711.05    87.34 " style="stroke-width: 1.42 ;&st7; " /><path d=" M 2711.05,   87.34  C 2713.55    87.34  2715.58    85.31  2715.58    82.80 " style="stroke-width: 1.42 ;&st7; " /><path d=" M 2681.59,  337.76  C 2681.59   335.26  2679.56   333.23  2677.05   333.23 " style="stroke-width: 1.42 ;&st7; " /><path d=" M 2677.05,  333.23  C 2674.55   333.23  2672.52   335.26  2672.52   337.76 " style="stroke-width: 1.42 ;&st7; " /><path d=" M 2672.52,  337.76  C 2672.52   340.27  2674.55   342.29  2677.05   342.29 " style="stroke-width: 1.42 ;&st7; " /><path d=" M 2677.05,  342.29  C 2679.56   342.29  2681.59   340.27  2681.59   337.76 " style="stroke-width: 1.42 ;&st7; " /><path d=" M 2715.58,  337.76  C 2715.58   335.26  2713.55   333.23  2711.05   333.23 " style="stroke-width: 1.42 ;&st7; " /><path d=" M 2711.05,  333.23  C 2708.54   333.23  2706.51   335.26  2706.51   337.76 " style="stroke-width: 1.42 ;&st7; " /><path d=" M 2706.51,  337.76  C 2706.51   340.27  2708.54   342.29  2711.05   342.29 " style="stroke-width: 1.42 ;&st7; " /><path d=" M 2711.05,  342.29  C 2713.55   342.29  2715.58   340.27  2715.58   337.76 " style="stroke-width: 1.42 ;&st7; " /><text style="&st18;" transform="matrix(&st17;  2965.14  521.45 )">(RHD)</text><text style="&st18;" transform="matrix(&st17;  2999.14  393.97 )">(RHD)</text><text style="&st18;" transform="matrix(&st17;  2999.14  521.45 )">(RHD)</text><text style="&st18;" transform="matrix(&st17;  2987.8  387.58 )">W</text><text style="&st18;" transform="matrix(&st17;  2965.14  393.97 )">(RHD)</text><text style="&st18;" transform="matrix(&st17;  2953.81  386.55 )">B</text><text style="&st18;" transform="matrix(&st17;  2987.8  260.1 )">W</text><text style="&st18;" transform="matrix(&st16;  2980.62  441.15 )">2</text><text style="&st18;" transform="matrix(&st16;  2989.38  441.15 )">F</text><text style="&st18;" transform="matrix(&st16;  2955.39  441.15 )">F</text><text style="&st18;" transform="matrix(&st17;  2965.14  266.49 )">(RHD)</text><text style="&st18;" transform="matrix(&st17;  2999.14  266.49 )">(RHD)</text><text style="&st18;" transform="matrix(&st16;  2947.41  305.17 )">1</text><text style="&st18;" transform="matrix(&st16;  2955.03  305.17 )">C</text><text style="&st18;" transform="matrix(&st16;  2980.62  305.17 )">2</text><text style="&st18;" transform="matrix(&st16;  2989.03  305.17 )">C</text><text style="&st18;" transform="matrix(&st16;  2989.17  331.23 )">A</text><text style="&st18;" transform="matrix(&st16;  2980.62  331.23 )">2</text><text style="&st18;" transform="matrix(&st16;  2955.17  331.23 )">A</text><text style="&st18;" transform="matrix(&st16;  2947.41  331.23 )">1</text><text style="&st18;" transform="matrix(&st17;  2953.81  259.07 )">P</text><text style="&st18;" transform="matrix(&st16;  2947.41  475.71 )">1</text><text style="&st18;" transform="matrix(&st16;  2956.52  475.71 )">I</text><text style="&st18;" transform="matrix(&st16;  2980.62  475.71 )">2</text><text style="&st18;" transform="matrix(&st16;  2990.51  475.71 )">I</text><text style="&st18;" transform="matrix(&st16;  2947.41  441.15 )">1</text><text style="&st18;" transform="matrix(&st17;  2953.81  513.68 )">L</text><text style="&st18;" transform="matrix(&st17;  2987.8  515.06 )">W</text><text style="&st18;" transform="matrix(&st17;  2888.66  393.97 )">(RHD)</text><text style="&st18;" transform="matrix(&st17;  2877.32  387.58 )">W</text><text style="&st18;" transform="matrix(&st17;  2922.65  393.97 )">(RHD)</text><text style="&st18;" transform="matrix(&st17;  2911.32  386.69 )">R</text><text style="&st18;" transform="matrix(&st16;  2870.14  441.15 )">2</text><text style="&st18;" transform="matrix(&st16;  2878.69  441.15 )">A</text><text style="&st18;" transform="matrix(&st16;  2912.68  441.15 )">A</text><text style="&st18;" transform="matrix(&st16;  2904.91  441.15 )">1</text><text style="&st18;" transform="matrix(&st16;  2564.59  542.0 )">L</text><text style="&st18;" transform="matrix(&st16;  2557.32  553.33 )">(LHD)</text><text style="&st18;" transform="matrix(&st16;  2563.22  567.49 )">W</text><text style="&st18;" transform="matrix(&st16;  2557.32  578.82 )">(LHD)</text><text style="&st18;" transform="matrix(&st16;  2564.59  601.49 )">L</text><text style="&st18;" transform="matrix(&st16;  2556.82  612.82 )">(RHD)</text><text style="&st18;" transform="matrix(&st16;  2563.22  626.98 )">W</text><text style="&st18;" transform="matrix(&st16;  2556.82  638.31 )">(RHD)</text><text style="&st18;" transform="matrix(&st16;  2614.21  626.98 )">W</text><text style="&st18;" transform="matrix(&st16;  2607.81  638.31 )">(RHD)</text><text style="&st18;" transform="matrix(&st16;  2615.58  601.49 )">L</text><text style="&st18;" transform="matrix(&st16;  2607.81  612.82 )">(RHD)</text><text style="&st18;" transform="matrix(&st16;  2614.21  567.49 )">W</text><text style="&st18;" transform="matrix(&st16;  2608.31  578.82 )">(LHD)</text><text style="&st18;" transform="matrix(&st16;  2615.58  542.0 )">L</text><text style="&st18;" transform="matrix(&st16;  2608.31  553.33 )">(LHD)</text><text style="&st18;" transform="matrix(&st16;  2810.51  203.75 )">(*3)</text><text style="&st18;" transform="matrix(&st16;  2810.51  212.82 )">(*4)</text><text style="&st18;" transform="matrix(&st16;  2802.2  212.82 )">B</text><text style="&st18;" transform="matrix(&st16;  2790.48  212.82 )">17</text><text style="&st18;" transform="matrix(&st16;  2768.21  212.82 )">B</text><text style="&st18;" transform="matrix(&st16;  2756.48  212.82 )">16</text><text ewd:textID="6" style="&st18;" transform="matrix(&st17;  2521.8  361.25 )">Certification ECU</text><text style="&st18;" transform="matrix(&st17;  2514.69  361.25 )">I86(A),I87(B),O2(C)</text><text style="&st18;" transform="matrix(&st16;  2761.28  193.56 )">CANL</text><text style="&st18;" transform="matrix(&st16;  2794.78  193.56 )">CANH</text><text style="&st18;" transform="matrix(&st17;  2800.84  276.21 )">R</text><text style="&st18;" transform="matrix(&st17;  2766.84  277.09 )">W</text><text ewd:textID="7" style="&st18;" transform="matrix(&st17;  2836.25  199.78 )">Combination <tspan dy="6" x="0">Meter Assembly</tspan></text><text style="&st18;" transform="matrix(&st17;  2829.14  199.78 )">I18(B)</text><text style="&st18;" transform="matrix(&st16;  2700.17  441.15 )">2</text><text style="&st18;" transform="matrix(&st16;  2708.93  441.15 )">F</text><text style="&st18;" transform="matrix(&st16;  2674.93  441.15 )">F</text><text style="&st18;" transform="matrix(&st16;  2666.95  305.17 )">1</text><text style="&st18;" transform="matrix(&st16;  2674.58  305.17 )">C</text><text style="&st18;" transform="matrix(&st16;  2700.17  305.17 )">2</text><text style="&st18;" transform="matrix(&st16;  2708.57  305.17 )">C</text><text style="&st18;" transform="matrix(&st16;  2768.21  305.17 )">B</text><text style="&st18;" transform="matrix(&st16;  2759.66  305.17 )">2</text><text style="&st18;" transform="matrix(&st16;  2794.43  305.17 )">1</text><text style="&st18;" transform="matrix(&st16;  2802.2  305.17 )">B</text><text style="&st18;" transform="matrix(&st16;  2756.48  203.75 )">15</text><text style="&st18;" transform="matrix(&st16;  2768.21  203.75 )">B</text><text style="&st18;" transform="matrix(&st16;  2790.48  203.75 )">16</text><text style="&st18;" transform="matrix(&st16;  2802.2  203.75 )">B</text><text style="&st18;" transform="matrix(&st16;  2666.95  467.21 )">1</text><text style="&st18;" transform="matrix(&st16;  2676.06  467.21 )">I</text><text style="&st18;" transform="matrix(&st16;  2700.17  467.21 )">2</text><text style="&st18;" transform="matrix(&st16;  2710.06  467.21 )">I</text><text style="&st18;" transform="matrix(&st16;  2666.95  441.15 )">1</text><text ewd:textID="19" style="&st18;" transform="matrix(&st17;  2734.26  463.23 )">Junction Connector</text><text style="&st18;" transform="matrix(&st17;  2727.16  463.23 )">I101(F),I106(I)</text><text style="&st18;" transform="matrix(&st17;  2673.36  505.18 )">L</text><text style="&st18;" transform="matrix(&st17;  2707.35  506.56 )">W</text><text style="&st18;" transform="matrix(&st17;  2684.69  512.46 )">(LHD)</text><text style="&st18;" transform="matrix(&st17;  2718.68  512.46 )">(LHD)</text><text style="&st18;" transform="matrix(&st16;  2667.3  74.58 )">CANH</text><text style="&st18;" transform="matrix(&st16;  2701.79  74.58 )">CANL</text><text style="&st18;" transform="matrix(&st16;  2663.0  84.77 )">14</text><text style="&st18;" transform="matrix(&st16;  2674.72  84.77 )">B</text><text style="&st18;" transform="matrix(&st16;  2696.99  84.77 )">13</text><text style="&st18;" transform="matrix(&st16;  2708.72  84.77 )">B</text><text style="&st18;" transform="matrix(&st17;  2673.36  276.07 )">P</text><text style="&st18;" transform="matrix(&st17;  2707.35  277.09 )">W</text><text style="&st18;" transform="matrix(&st16;  2666.95  339.73 )">1</text><text style="&st18;" transform="matrix(&st16;  2674.72  339.73 )">A</text><text style="&st18;" transform="matrix(&st16;  2700.17  339.73 )">2</text><text style="&st18;" transform="matrix(&st16;  2708.72  339.73 )">A</text><text style="&st18;" transform="matrix(&st17;  2673.36  386.55 )">B</text><text style="&st18;" transform="matrix(&st17;  2684.69  393.48 )">(LHD)</text><text style="&st18;" transform="matrix(&st17;  2707.35  387.58 )">W</text><text style="&st18;" transform="matrix(&st17;  2718.68  393.48 )">(LHD)</text><text style="&st18;" transform="matrix(&st17;  2718.68  282.99 )">(LHD)</text><text style="&st18;" transform="matrix(&st17;  2684.69  282.99 )">(LHD)</text><text style="&st18;" transform="matrix(&st17;  2778.17  282.99 )">(LHD)</text><text style="&st18;" transform="matrix(&st17;  2812.17  282.99 )">(LHD)</text><text ewd:textID="19" style="&st18;" transform="matrix(&st16;  2725.52  347.95 )">Junction Connector</text><text style="&st18;" transform="matrix(&st16;  2725.52  340.84 )">I93(A),I94(B),I95(C)</text><text ewd:textID="24" style="&st18;" transform="matrix(&st16;  2776.51  32.08 )">Main Body ECU</text><text style="&st18;" transform="matrix(&st16;  2776.51  24.98 )">I12(A),I13(B)</text></svg>